5469.1980242954850837,3122.0741153608473724,374.6818782161744252,-4.0306535534648287,7.1628656047416959,1.3672325714581899,0.0000000000000000,0.0000000000000000,0.0000000000000000,0.0000000000000000,-0.0000017453292520,0.0000000000000000,0.0000000000000000
5469.0774453043723042,3122.2883869005545421,374.7227780696825334,-4.0309132798613820,7.1627173340407104,1.3672147770470438,0.0000000000000000,0.0000000000000000,0.0000000000000000,0.0000000000000000,0.0000000000000000,0.0000000000000000,0.0299145299145299
5468.9568585437591537,3122.5026540046656010,374.7636773908506029,-4.0311730000448449,7.1625690534420441,1.3671969807269460,0.0000000000000000,0.0000000000000000,0.0000000000000000,0.0000000000000000,0.0000000000000000,0.0000000000000000,0.0598290598290598
5468.8362640138329880,3122.7169166728840537,374.8045761796215629,-4.0314327140147626,7.1624207629460077,1.3671791824979362,0.0000000000000000,0.0000000000000000,0.0000000000000000,0.0000000000000000,0.0000000000000000,0.0000000000000000,0.0897435897435897
5468.7156617147775250,3122.9311749049138598,374.8454744359382858,-4.0316924217706793,7.1622724625529113,1.3671613823600548,0.0000000000000000,0.0000000000000000,0.0000000000000000,0.0000000000000000,0.0000000000000000,0.0000000000000000,0.1196581196581197
5468.5950516467801208,3123.1454287004594335,374.8863721597437006,-4.0319521233121414,7.1621241522630665,1.3671435803133409,0.0000000000000000,0.0000000000000000,0.0000000000000000,0.0000000000000000,0.0000000000000000,0.0000000000000000,0.1495726495726496
5468.4744338100263121,3123.3596780592242794,374.9272693509807368,-4.0322118186386930,7.1619758320767826,1.3671257763578355,0.0000000000000000,0.0000000000000000,0.0000000000000000,0.0000000000000000,0.0000000000000000,0.0000000000000000,0.1794871794871795
5468.3538082047016360,3123.5739229809123572,374.9681660095922666,-4.0324715077498778,7.1618275019943711,1.3671079704935778,0.0000000000000000,0.0000000000000000,0.0000000000000000,0.0000000000000000,0.0000000000000000,0.0000000000000000,0.2094017094017094
5468.2331748309916293,3123.7881634652276261,375.0090621355211624,-4.0327311906452419,7.1616791620161413,1.3670901627206080,0.0000000000000000,0.0000000000000000,0.0000000000000000,0.0000000000000000,0.0000000000000000,0.0000000000000000,0.2393162393162393
5468.1125336890836479,3124.0023995118745006,375.0499577287103534,-4.0329908673243295,7.1615308121424039,1.3670723530389661,0.0000000000000000,0.0000000000000000,0.0000000000000000,0.0000000000000000,0.0000000000000000,0.0000000000000000,0.2692307692307692
5467.9918847791632288,3124.2166311205564853,375.0908527891027120,-4.0332505377866852,7.1613824523734699,1.3670545414486923,0.0000000000000000,0.0000000000000000,0.0000000000000000,0.0000000000000000,0.0000000000000000,0.0000000000000000,0.2991452991452991
5467.8712281014149994,3124.4308582909775396,375.1317473166412242,-4.0335102020318541,7.1612340827096501,1.3670367279498261,0.0000000000000000,0.0000000000000000,0.0000000000000000,0.0000000000000000,0.0000000000000000,0.0000000000000000,0.3290598290598291
5467.7505636560263156,3124.6450810228420778,375.1726413112687624,-4.0337698600593823,7.1610857031512536,1.3670189125424079,0.0000000000000000,0.0000000000000000,0.0000000000000000,0.0000000000000000,0.0000000000000000,0.0000000000000000,0.3589743589743590
5467.6298914431827143,3124.8592993158540594,375.2135347729281420,-4.0340295118688125,7.1609373136985921,1.3670010952264775,0.0000000000000000,0.0000000000000000,0.0000000000000000,0.0000000000000000,0.0000000000000000,0.0000000000000000,0.3888888888888889
5467.5092114630706419,3125.0735131697169891,375.2544277015624061,-4.0342891574596909,7.1607889143519765,1.3669832760020748,0.0000000000000000,0.0000000000000000,0.0000000000000000,0.0000000000000000,0.0000000000000000,0.0000000000000000,0.4188034188034188
5467.3885237158756354,3125.2877225841352811,375.2953200971143701,-4.0345487968315625,7.1606405051117168,1.3669654548692403,0.0000000000000000,0.0000000000000000,0.0000000000000000,0.0000000000000000,0.0000000000000000,0.0000000000000000,0.4487179487179487
5467.2678282017841411,3125.5019275588128949,375.3362119595270201,-4.0348084299839719,7.1604920859781229,1.3669476318280134,0.0000000000000000,0.0000000000000000,0.0000000000000000,0.0000000000000000,0.0000000000000000,0.0000000000000000,0.4786324786324787
5467.1471249209816961,3125.7161280934537899,375.3771032887431716,-4.0350680569164643,7.1603436569515075,1.3669298068784344,0.0000000000000000,0.0000000000000000,0.0000000000000000,0.0000000000000000,0.0000000000000000,0.0000000000000000,0.5085470085470085
5467.0264138736547466,3125.9303241877623805,375.4179940847058106,-4.0353276776285840,7.1601952180321788,1.3669119800205434,0.0000000000000000,0.0000000000000000,0.0000000000000000,0.0000000000000000,0.0000000000000000,0.0000000000000000,0.5384615384615384
5466.9056950599888296,3126.1445158414426260,375.4588843473578663,-4.0355872921198772,7.1600467692204504,1.3668941512543802,0.0000000000000000,0.0000000000000000,0.0000000000000000,0.0000000000000000,0.0000000000000000,0.0000000000000000,0.5683760683760684
5466.7849684801703916,3126.3587030541984859,375.4997740766422112,-4.0358469003898882,7.1598983105166303,1.3668763205799850,0.0000000000000000,0.0000000000000000,0.0000000000000000,0.0000000000000000,0.0000000000000000,0.0000000000000000,0.5982905982905983
5466.6642341343858789,3126.5728858257339198,375.5406632725017175,-4.0361065024381633,7.1597498419210313,1.3668584879973977,0.0000000000000000,0.0000000000000000,0.0000000000000000,0.0000000000000000,0.0000000000000000,0.0000000000000000,0.6282051282051282
5466.5434920228217379,3126.7870641557528870,375.5815519348794282,-4.0363660982642449,7.1596013634339624,1.3668406535066584,0.0000000000000000,0.0000000000000000,0.0000000000000000,0.0000000000000000,0.0000000000000000,0.0000000000000000,0.6581196581196581
5466.4227421456635057,3127.0012380439602566,375.6224400637181589,-4.0366256878676809,7.1594528750557362,1.3668228171078074,0.0000000000000000,0.0000000000000000,0.0000000000000000,0.0000000000000000,0.0000000000000000,0.0000000000000000,0.6880341880341880
5466.3019845030967190,3127.2154074900595333,375.6633276589608386,-4.0368852712480150,7.1593043767866629,1.3668049788008845,0.0000000000000000,0.0000000000000000,0.0000000000000000,0.0000000000000000,0.0000000000000000,0.0000000000000000,0.7179487179487180
5466.1812190953078243,3127.4295724937546765,375.7042147205503966,-4.0371448484047923,7.1591558686270522,1.3667871385859296,0.0000000000000000,0.0000000000000000,0.0000000000000000,0.0000000000000000,0.0000000000000000,0.0000000000000000,0.7478632478632479
5466.0604459224841776,3127.6437330547505553,375.7451012484298190,-4.0374044193375589,7.1590073505772160,1.3667692964629830,0.0000000000000000,0.0000000000000000,0.0000000000000000,0.0000000000000000,0.0000000000000000,0.0000000000000000,0.7777777777777778
5465.9396649848113157,3127.8578891727506743,375.7859872425419780,-4.0376639840458584,7.1588588226374661,1.3667514524320847,0.0000000000000000,0.0000000000000000,0.0000000000000000,0.0000000000000000,0.0000000000000000,0.0000000000000000,0.8076923076923077
5465.8188762824756850,3128.0720408474589931,375.8268727028298031,-4.0379235425292377,7.1587102848081123,1.3667336064932749,0.0000000000000000,0.0000000000000000,0.0000000000000000,0.0000000000000000,0.0000000000000000,0.0000000000000000,0.8376068376068376
5465.6980798156628225,3128.2861880785803805,375.8677576292362232,-4.0381830947872412,7.1585617370894665,1.3667157586465934,0.0000000000000000,0.0000000000000000,0.0000000000000000,0.0000000000000000,0.0000000000000000,0.0000000000000000,0.8675213675213675
5465.5772755845591746,3128.5003308658187962,375.9086420217041677,-4.0384426408194143,7.1584131794818378,1.3666979088920805,0.0000000000000000,0.0000000000000000,0.0000000000000000,0.0000000000000000,0.0000000000000000,0.0000000000000000,0.8974358974358975
5465.4564635893502782,3128.7144692088781994,375.9495258801765658,-4.0387021806253021,7.1582646119855395,1.3666800572297764,0.0000000000000000,0.0000000000000000,0.0000000000000000,0.0000000000000000,0.0000000000000000,0.0000000000000000,0.9273504273504274
5465.3356438302243987,3128.9286031074630046,375.9904092045963466,-4.0389617142044498,7.1581160346008810,1.3666622036597207,0.0000000000000000,0.0000000000000000,0.0000000000000000,0.0000000000000000,0.0000000000000000,0.0000000000000000,0.9572649572649573
5465.2148163073661635,3129.1427325612771710,376.0312919949064394,-4.0392212415564028,7.1579674473281738,1.3666443481819539,0.0000000000000000,0.0000000000000000,0.0000000000000000,0.0000000000000000,0.0000000000000000,0.0000000000000000,0.9871794871794872
5465.0939810209629286,3129.3568575700251131,376.0721742510497734,-4.0394807626807072,7.1578188501677298,1.3666264907965162,0.0000000000000000,0.0000000000000000,0.0000000000000000,0.0000000000000000,0.0000000000000000,0.0000000000000000,1.0170940170940170
5464.9731379712002308,3129.5709781334107902,376.1130559729692209,-4.0397402775769073,7.1576702431198589,1.3666086315034474,0.0000000000000000,0.0000000000000000,0.0000000000000000,0.0000000000000000,0.0000000000000000,0.0000000000000000,1.0470085470085471
5464.8522871582636071,3129.7850942511390713,376.1539371606078817,-4.0399997862445485,7.1575216261848729,1.3665907703027875,0.0000000000000000,0.0000000000000000,0.0000000000000000,0.0000000000000000,0.0000000000000000,0.0000000000000000,1.0769230769230769
5464.7314285823413229,3129.9992059229130064,376.1948178139085144,-4.0402592886831767,7.1573729993630826,1.3665729071945769,0.0000000000000000,0.0000000000000000,0.0000000000000000,0.0000000000000000,0.0000000000000000,0.0000000000000000,1.1068376068376069
5464.6105622436189151,3130.2133131484379192,376.2356979328141620,-4.0405187848923365,7.1572243626547998,1.3665550421788557,0.0000000000000000,0.0000000000000000,0.0000000000000000,0.0000000000000000,0.0000000000000000,0.0000000000000000,1.1367521367521367
5464.4896881422819206,3130.4274159274177691,376.2765775172676967,-4.0407782748715748,7.1570757160603353,1.3665371752556639,0.0000000000000000,0.0000000000000000,0.0000000000000000,0.0000000000000000,0.0000000000000000,0.0000000000000000,1.1666666666666667
5464.3688062785176953,3130.6415142595569705,376.3174565672121616,-4.0410377586204360,7.1569270595800001,1.3665193064250418,0.0000000000000000,0.0000000000000000,0.0000000000000000,0.0000000000000000,0.0000000000000000,0.0000000000000000,1.1965811965811965
5464.2479166525117762,3130.8556081445590280,376.3583350825903722,-4.0412972361384654,7.1567783932141067,1.3665014356870293,0.0000000000000000,0.0000000000000000,0.0000000000000000,0.0000000000000000,0.0000000000000000,0.0000000000000000,1.2264957264957266
5464.1270192644515191,3131.0696975821292654,376.3992130633453144,-4.0415567074252090,7.1566297169629642,1.3664835630416667,0.0000000000000000,0.0000000000000000,0.0000000000000000,0.0000000000000000,0.0000000000000000,0.0000000000000000,1.2564102564102564
5464.0061141145224610,3131.2837825719711873,376.4400905094199743,-4.0418161724802122,7.1564810308268862,1.3664656884889941,0.0000000000000000,0.0000000000000000,0.0000000000000000,0.0000000000000000,0.0000000000000000,0.0000000000000000,1.2863247863247864
5463.8852012029119578,3131.4978631137896627,376.4809674207572812,-4.0420756313030202,7.1563323348061818,1.3664478120290515,0.0000000000000000,0.0000000000000000,0.0000000000000000,0.0000000000000000,0.0000000000000000,0.0000000000000000,1.3162393162393162
5463.7642805298064559,3131.7119392072886512,376.5218437973001073,-4.0423350838931782,7.1561836289011644,1.3664299336618795,0.0000000000000000,0.0000000000000000,0.0000000000000000,0.0000000000000000,0.0000000000000000,0.0000000000000000,1.3461538461538463
5463.6433520953914922,3131.9260108521721122,376.5627196389914957,-4.0425945302502333,7.1560349131121441,1.3664120533875177,0.0000000000000000,0.0000000000000000,0.0000000000000000,0.0000000000000000,0.0000000000000000,0.0000000000000000,1.3760683760683761
5463.5224158998535131,3132.1400780481453694,376.6035949457743754,-4.0428539703737298,7.1558861874394335,1.3663941712060066,0.0000000000000000,0.0000000000000000,0.0000000000000000,0.0000000000000000,0.0000000000000000,0.0000000000000000,1.4059829059829061
5463.4014719433798746,3132.3541407949119275,376.6444697175916758,-4.0431134042632131,7.1557374518833425,1.3663762871173863,0.0000000000000000,0.0000000000000000,0.0000000000000000,0.0000000000000000,0.0000000000000000,0.0000000000000000,1.4358974358974359
5463.2805202261561135,3132.5681990921766555,376.6853439543863260,-4.0433728319182300,7.1555887064441839,1.3663584011216969,0.0000000000000000,0.0000000000000000,0.0000000000000000,0.0000000000000000,0.0000000000000000,0.0000000000000000,1.4658119658119659
5463.1595607483695858,3132.7822529396435129,376.7262176561013121,-4.0436322533383251,7.1554399511222684,1.3663405132189788,0.0000000000000000,0.0000000000000000,0.0000000000000000,0.0000000000000000,0.0000000000000000,0.0000000000000000,1.4957264957264957
5463.0385935102067378,3132.9963023370169140,376.7670908226795632,-4.0438916685230444,7.1552911859179078,1.3663226234092718,0.0000000000000000,0.0000000000000000,0.0000000000000000,0.0000000000000000,0.0000000000000000,0.0000000000000000,1.5256410256410258
5462.9176185118540161,3133.2103472840017275,376.8079634540640086,-4.0441510774719331,7.1551424108314130,1.3663047316926165,0.0000000000000000,0.0000000000000000,0.0000000000000000,0.0000000000000000,0.0000000000000000,0.0000000000000000,1.5555555555555556
5462.7966357534969575,3133.4243877803014584,376.8488355501976912,-4.0444104801845384,7.1549936258630966,1.3662868380690527,0.0000000000000000,0.0000000000000000,0.0000000000000000,0.0000000000000000,0.0000000000000000,0.0000000000000000,1.5854700854700856
5462.6756452353238274,3133.6384238256214303,376.8897071110235402,-4.0446698766604046,7.1548448310132695,1.3662689425386207,0.0000000000000000,0.0000000000000000,0.0000000000000000,0.0000000000000000,0.0000000000000000,0.0000000000000000,1.6153846153846154
5462.5546469575192532,3133.8524554196656027,376.9305781364843710,-4.0449292668990777,7.1546960262822434,1.3662510451013610,0.0000000000000000,0.0000000000000000,0.0000000000000000,0.0000000000000000,0.0000000000000000,0.0000000000000000,1.6452991452991454
5462.4336409202724099,3134.0664825621383898,376.9714486265233404,-4.0451886509001040,7.1545472116703301,1.3662331457573134,0.0000000000000000,0.0000000000000000,0.0000000000000000,0.0000000000000000,0.0000000000000000,0.0000000000000000,1.6752136752136753
5462.3126271237670153,3134.2805052527442058,377.0123185810833206,-4.0454480286630288,7.1543983871778414,1.3662152445065183,0.0000000000000000,0.0000000000000000,0.0000000000000000,0.0000000000000000,0.0000000000000000,0.0000000000000000,1.7051282051282053
5462.1916055681922444,3134.4945234911874650,377.0531880001072977,-4.0457074001873981,7.1542495528050889,1.3661973413490160,0.0000000000000000,0.0000000000000000,0.0000000000000000,0.0000000000000000,0.0000000000000000,0.0000000000000000,1.7350427350427351
5462.0705762537327246,3134.7085372771725815,377.0940568835382010,-4.0459667654727571,7.1541007085523836,1.3661794362848467,0.0000000000000000,0.0000000000000000,0.0000000000000000,0.0000000000000000,0.0000000000000000,0.0000000000000000,1.7649572649572651
5461.9495391805758118,3134.9225466104039697,377.1349252313190732,-4.0462261245186522,7.1539518544200380,1.3661615293140505,0.0000000000000000,0.0000000000000000,0.0000000000000000,0.0000000000000000,0.0000000000000000,0.0000000000000000,1.7948717948717949
5461.8284943489088619,3135.1365514905864984,377.1757930433927299,-4.0464854773246293,7.1538029904083631,1.3661436204366679,0.0000000000000000,0.0000000000000000,0.0000000000000000,0.0000000000000000,0.0000000000000000,0.0000000000000000,1.8247863247863250
5461.7074417589183213,3135.3505519174241272,377.2166603197022710,-4.0467448238902346,7.1536541165176715,1.3661257096527386,0.0000000000000000,0.0000000000000000,0.0000000000000000,0.0000000000000000,0.0000000000000000,0.0000000000000000,1.8547008547008548
5461.5863814107897269,3135.5645478906217249,377.2575270601906254,-4.0470041642150134,7.1535052327482749,1.3661077969623032,0.0000000000000000,0.0000000000000000,0.0000000000000000,0.0000000000000000,0.0000000000000000,0.0000000000000000,1.8846153846153848
5461.4653133047104347,3135.7785394098837060,377.2983932648007226,-4.0472634982985118,7.1533563391004842,1.3660898823654022,0.0000000000000000,0.0000000000000000,0.0000000000000000,0.0000000000000000,0.0000000000000000,0.0000000000000000,1.9145299145299146
5461.3442374408678006,3135.9925264749144844,377.3392589334756053,-4.0475228261402751,7.1532074355746129,1.3660719658620752,0.0000000000000000,0.0000000000000000,0.0000000000000000,0.0000000000000000,0.0000000000000000,0.0000000000000000,1.9444444444444444
5461.2231538194482710,3136.2065090854184746,377.3801240661581460,-4.0477821477398512,7.1530585221709710,1.3660540474523630,0.0000000000000000,0.0000000000000000,0.0000000000000000,0.0000000000000000,0.0000000000000000,0.0000000000000000,1.9743589743589745
5461.1020624406373827,3136.4204872411000906,377.4209886627914443,-4.0480414630967836,7.1529095988898721,1.3660361271363055,0.0000000000000000,0.0000000000000000,0.0000000000000000,0.0000000000000000,0.0000000000000000,0.0000000000000000,2.0042735042735043
5460.9809633046234012,3136.6344609416642015,377.4618527233183727,-4.0483007722106201,7.1527606657316269,1.3660182049139433,0.0000000000000000,0.0000000000000000,0.0000000000000000,0.0000000000000000,0.0000000000000000,0.0000000000000000,2.0341880341880341
5460.8598564115927729,3136.8484301868152215,377.5027162476819171,-4.0485600750809061,7.1526117226965482,1.3660002807853164,0.0000000000000000,0.0000000000000000,0.0000000000000000,0.0000000000000000,0.0000000000000000,0.0000000000000000,2.0641025641025643
5460.7387417617319443,3137.0623949762575648,377.5435792358250637,-4.0488193717071876,7.1524627697849468,1.3659823547504653,0.0000000000000000,0.0000000000000000,0.0000000000000000,0.0000000000000000,0.0000000000000000,0.0000000000000000,2.0940170940170941
5460.6176193552273617,3137.2763553096956457,377.5844416876908554,-4.0490786620890109,7.1523138069971361,1.3659644268094300,0.0000000000000000,0.0000000000000000,0.0000000000000000,0.0000000000000000,0.0000000000000000,0.0000000000000000,2.1239316239316239
5460.4964891922672905,3137.4903111868347878,377.6253036032221644,-4.0493379462259220,7.1521648343334272,1.3659464969622510,0.0000000000000000,0.0000000000000000,0.0000000000000000,0.0000000000000000,0.0000000000000000,0.0000000000000000,2.1538461538461537
5460.3753512730363582,3137.7042626073789506,377.6661649823620337,-4.0495972241174663,7.1520158517941326,1.3659285652089685,0.0000000000000000,0.0000000000000000,0.0000000000000000,0.0000000000000000,0.0000000000000000,0.0000000000000000,2.1837606837606840
5460.2542055977228301,3137.9182095710325484,377.7070258250533925,-4.0498564957631906,7.1518668593795640,1.3659106315496228,0.0000000000000000,0.0000000000000000,0.0000000000000000,0.0000000000000000,0.0000000000000000,0.0000000000000000,2.2136752136752138
5460.1330521665140623,3138.1321520775004501,377.7478861312392837,-4.0501157611626413,7.1517178570900333,1.3658926959842543,0.0000000000000000,0.0000000000000000,0.0000000000000000,0.0000000000000000,0.0000000000000000,0.0000000000000000,2.2435897435897436
5460.0118909795955915,3138.3460901264870699,377.7887459008626934,-4.0503750203153643,7.1515688449258539,1.3658747585129032,0.0000000000000000,0.0000000000000000,0.0000000000000000,0.0000000000000000,0.0000000000000000,0.0000000000000000,2.2735042735042734
5459.8907220371547737,3138.5600237176977316,377.8296051338665507,-4.0506342732209051,7.1514198228873358,1.3658568191356097,0.0000000000000000,0.0000000000000000,0.0000000000000000,0.0000000000000000,0.0000000000000000,0.0000000000000000,2.3034188034188037
5459.7695453393789649,3138.7739528508359399,377.8704638301938985,-4.0508935198788105,7.1512707909747935,1.3658388778524142,0.0000000000000000,0.0000000000000000,0.0000000000000000,0.0000000000000000,0.0000000000000000,0.0000000000000000,2.3333333333333335
5459.6483608864546113,3138.9878775256070185,377.9113219897876661,-4.0511527602886268,7.1511217491885377,1.3658209346633572,0.0000000000000000,0.0000000000000000,0.0000000000000000,0.0000000000000000,0.0000000000000000,0.0000000000000000,2.3632478632478633
5459.5271686785681595,3139.2017977417158363,377.9521796125908395,-4.0514119944499001,7.1509726975288812,1.3658029895684789,0.0000000000000000,0.0000000000000000,0.0000000000000000,0.0000000000000000,0.0000000000000000,0.0000000000000000,2.3931623931623931
5459.4059687159078749,3139.4157134988663529,377.9930366985464616,-4.0516712223621765,7.1508236359961357,1.3657850425678195,0.0000000000000000,0.0000000000000000,0.0000000000000000,0.0000000000000000,0.0000000000000000,0.0000000000000000,2.4230769230769234
5459.2847609986592943,3139.6296247967634372,378.0338932475974616,-4.0519304440250030,7.1506745645906138,1.3657670936614195,0.0000000000000000,0.0000000000000000,0.0000000000000000,0.0000000000000000,0.0000000000000000,0.0000000000000000,2.4529914529914532
5459.1635455270106831,3139.8435316351119582,378.0747492596869392,-4.0521896594379250,7.1505254833126282,1.3657491428493189,0.0000000000000000,0.0000000000000000,0.0000000000000000,0.0000000000000000,0.0000000000000000,0.0000000000000000,2.4829059829059830
5459.0423223011475784,3140.0574340136167848,378.1156047347577669,-4.0524488686004885,7.1503763921624905,1.3657311901315585,0.0000000000000000,0.0000000000000000,0.0000000000000000,0.0000000000000000,0.0000000000000000,0.0000000000000000,2.5128205128205128
5458.9210913212582454,3140.2713319319818766,378.1564596727529874,-4.0527080715122414,7.1502272911405136,1.3657132355081787,0.0000000000000000,0.0000000000000000,0.0000000000000000,0.0000000000000000,0.0000000000000000,0.0000000000000000,2.5427350427350430
5458.7998525875282212,3140.4852253899125571,378.1973140736155869,-4.0529672681727282,7.1500781802470099,1.3656952789792192,0.0000000000000000,0.0000000000000000,0.0000000000000000,0.0000000000000000,0.0000000000000000,0.0000000000000000,2.5726495726495728
5458.6786061001466805,3140.6991143871132408,378.2381679372885515,-4.0532264585814968,7.1499290594822913,1.3656773205447210,0.0000000000000000,0.0000000000000000,0.0000000000000000,0.0000000000000000,0.0000000000000000,0.0000000000000000,2.6025641025641026
5458.5573518592982509,3140.9129989232887965,378.2790212637149239,-4.0534856427380932,7.1497799288466695,1.3656593602047242,0.0000000000000000,0.0000000000000000,0.0000000000000000,0.0000000000000000,0.0000000000000000,0.0000000000000000,2.6324786324786325
5458.4360898651721072,3141.1268789981440932,378.3198740528376902,-4.0537448206420637,7.1496307883404588,1.3656413979592692,0.0000000000000000,0.0000000000000000,0.0000000000000000,0.0000000000000000,0.0000000000000000,0.0000000000000000,2.6623931623931627
5458.3148201179537864,3141.3407546113835451,378.3607263045997797,-4.0540039922929543,7.1494816379639703,1.3656234338083963,0.0000000000000000,0.0000000000000000,0.0000000000000000,0.0000000000000000,0.0000000000000000,0.0000000000000000,2.6923076923076925
5458.1935426178306443,3141.5546257627115665,378.4015780189442921,-4.0542631576903112,7.1493324777175173,1.3656054677521459,0.0000000000000000,0.0000000000000000,0.0000000000000000,0.0000000000000000,0.0000000000000000,0.0000000000000000,2.7222222222222223
5458.0722573649900369,3141.7684924518339358,378.4424291958141566,-4.0545223168336824,7.1491833076014117,1.3655874997905584,0.0000000000000000,0.0000000000000000,0.0000000000000000,0.0000000000000000,0.0000000000000000,0.0000000000000000,2.7521367521367521
5457.9509643596193200,3141.9823546784541577,378.4832798351524161,-4.0547814697226130,7.1490341276159670,1.3655695299236743,0.0000000000000000,0.0000000000000000,0.0000000000000000,0.0000000000000000,0.0000000000000000,0.0000000000000000,2.7820512820512824
5457.8296636019058496,3142.1962124422780107,378.5241299369020567,-4.0550406163566501,7.1488849377614940,1.3655515581515338,0.0000000000000000,0.0000000000000000,0.0000000000000000,0.0000000000000000,0.0000000000000000,0.0000000000000000,2.8119658119658122
5457.7083550920351627,3142.4100657430103638,378.5649795010060643,-4.0552997567353399,7.1487357380383063,1.3655335844741776,0.0000000000000000,0.0000000000000000,0.0000000000000000,0.0000000000000000,0.0000000000000000,0.0000000000000000,2.8418803418803420
5457.5870388301964340,3142.6239145803547217,378.6058285274074819,-4.0555588908582294,7.1485865284467174,1.3655156088916456,0.0000000000000000,0.0000000000000000,0.0000000000000000,0.0000000000000000,0.0000000000000000,0.0000000000000000,2.8717948717948718
5457.4657148165752005,3142.8377589540173176,378.6466770160493525,-4.0558180187248647,7.1484373089870381,1.3654976314039786,0.0000000000000000,0.0000000000000000,0.0000000000000000,0.0000000000000000,0.0000000000000000,0.0000000000000000,2.9017094017094016
5457.3443830513588182,3143.0515988637021110,378.6875249668746051,-4.0560771403347928,7.1482880796595829,1.3654796520112169,0.0000000000000000,0.0000000000000000,0.0000000000000000,0.0000000000000000,0.0000000000000000,0.0000000000000000,2.9316239316239319
5457.2230435347355524,3143.2654343091139708,378.7283723798262827,-4.0563362556875600,7.1481388404646626,1.3654616707134011,0.0000000000000000,0.0000000000000000,0.0000000000000000,0.0000000000000000,0.0000000000000000,0.0000000000000000,2.9615384615384617
5457.1016962668909400,3143.4792652899582208,378.7692192548473713,-4.0565953647827131,7.1479895914025917,1.3654436875105711,0.0000000000000000,0.0000000000000000,0.0000000000000000,0.0000000000000000,0.0000000000000000,0.0000000000000000,2.9914529914529915
5456.9803412480141560,3143.6930918059392752,378.8100655918809707,-4.0568544676197984,7.1478403324736810,1.3654257024027678,0.0000000000000000,0.0000000000000000,0.0000000000000000,0.0000000000000000,0.0000000000000000,0.0000000000000000,3.0213675213675213
5456.8589784782907373,3143.9069138567620030,378.8509113908700101,-4.0571135641983629,7.1476910636782458,1.3654077153900317,0.0000000000000000,0.0000000000000000,0.0000000000000000,0.0000000000000000,0.0000000000000000,0.0000000000000000,3.0512820512820515
5456.7376079579089492,3144.1207314421317278,378.8917566517575324,-4.0573726545179536,7.1475417850165961,1.3653897264724029,0.0000000000000000,0.0000000000000000,0.0000000000000000,0.0000000000000000,0.0000000000000000,0.0000000000000000,3.0811965811965814
5456.6162296870552382,3144.3345445617524092,378.9326013744865236,-4.0576317385781167,7.1473924964890472,1.3653717356499218,0.0000000000000000,0.0000000000000000,0.0000000000000000,0.0000000000000000,0.0000000000000000,0.0000000000000000,3.1111111111111112
5456.4948436659178697,3144.5483532153298256,378.9734455590000834,-4.0578908163783991,7.1472431980959099,1.3653537429226290,0.0000000000000000,0.0000000000000000,0.0000000000000000,0.0000000000000000,0.0000000000000000,0.0000000000000000,3.1410256410256410
5456.3734498946832900,3144.7621574025679365,379.0142892052411412,-4.0581498879183480,7.1470938898374987,1.3653357482905650,0.0000000000000000,0.0000000000000000,0.0000000000000000,0.0000000000000000,0.0000000000000000,0.0000000000000000,3.1709401709401712
5456.2520483735388552,3144.9759571231725204,379.0551323131527397,-4.0584089531975094,7.1469445717141253,1.3653177517537702,0.0000000000000000,0.0000000000000000,0.0000000000000000,0.0000000000000000,0.0000000000000000,0.0000000000000000,3.2008547008547010
5456.1306391026719211,3145.1897523768479914,379.0959748826779787,-4.0586680122154304,7.1467952437261033,1.3652997533122853,0.0000000000000000,0.0000000000000000,0.0000000000000000,0.0000000000000000,0.0000000000000000,0.0000000000000000,3.2307692307692308
5456.0092220822707532,3145.4035431632992186,379.1368169137597306,-4.0589270649716571,7.1466459058737444,1.3652817529661503,0.0000000000000000,0.0000000000000000,0.0000000000000000,0.0000000000000000,0.0000000000000000,0.0000000000000000,3.2606837606837606
5455.8877973125208882,3145.6173294822315256,379.1776584063411519,-4.0591861114657384,7.1464965581573638,1.3652637507154060,0.0000000000000000,0.0000000000000000,0.0000000000000000,0.0000000000000000,0.0000000000000000,0.0000000000000000,3.2905982905982909
5455.7663647936105917,3145.8311113333497815,379.2184993603652288,-4.0594451516972185,7.1463472005772726,1.3652457465600927,0.0000000000000000,0.0000000000000000,0.0000000000000000,0.0000000000000000,0.0000000000000000,0.0000000000000000,3.3205128205128207
5455.6449245257272196,3146.0448887163584004,379.2593397757750040,-4.0597041856656464,7.1461978331337841,1.3652277405002509,0.0000000000000000,0.0000000000000000,0.0000000000000000,0.0000000000000000,0.0000000000000000,0.0000000000000000,3.3504273504273505
5455.5234765090590372,3146.2586616309627061,379.3001796525134068,-4.0599632133705681,7.1460484558272119,1.3652097325359211,0.0000000000000000,0.0000000000000000,0.0000000000000000,0.0000000000000000,0.0000000000000000,0.0000000000000000,3.3803418803418803
5455.4020207437915815,3146.4724300768675675,379.3410189905235939,-4.0602222348115307,7.1458990686578687,1.3651917226671437,0.0000000000000000,0.0000000000000000,0.0000000000000000,0.0000000000000000,0.0000000000000000,0.0000000000000000,3.4102564102564106
5455.2805572301131178,3146.6861940537778537,379.3818577897484943,-4.0604812499880802,7.1457496716260671,1.3651737108939597,0.0000000000000000,0.0000000000000000,0.0000000000000000,0.0000000000000000,0.0000000000000000,0.0000000000000000,3.4401709401709404
5455.1590859682119117,3146.8999535613988883,379.4226960501312078,-4.0607402588997648,7.1456002647321215,1.3651556972164089,0.0000000000000000,0.0000000000000000,0.0000000000000000,0.0000000000000000,0.0000000000000000,0.0000000000000000,3.4700854700854702
5455.0376069582734999,3147.1137085994350855,379.4635337716147774,-4.0609992615461312,7.1454508479763437,1.3651376816345322,0.0000000000000000,0.0000000000000000,0.0000000000000000,0.0000000000000000,0.0000000000000000,0.0000000000000000,3.5000000000000000
5454.9161202004870574,3147.3274591675922238,379.5043709541421322,-4.0612582579267258,7.1453014213590480,1.3651196641483700,0.0000000000000000,0.0000000000000000,0.0000000000000000,0.0000000000000000,0.0000000000000000,0.0000000000000000,3.5299145299145303
5454.7946256950399402,3147.5412052655747175,379.5452075976564288,-4.0615172480410964,7.1451519848805463,1.3651016447579627,0.0000000000000000,0.0000000000000000,0.0000000000000000,0.0000000000000000,0.0000000000000000,0.0000000000000000,3.5598290598290601
5454.6731234421176850,3147.7549468930874355,379.5860437021006533,-4.0617762318887900,7.1450025385411529,1.3650836234633512,0.0000000000000000,0.0000000000000000,0.0000000000000000,0.0000000000000000,0.0000000000000000,0.0000000000000000,3.5897435897435899
5454.5516134419103764,3147.9686840498361562,379.6268792674177917,-4.0620352094693528,7.1448530823411804,1.3650656002645756,0.0000000000000000,0.0000000000000000,0.0000000000000000,0.0000000000000000,0.0000000000000000,0.0000000000000000,3.6196581196581197
5454.4300956946035512,3148.1824167355248392,379.6677142935509437,-4.0622941807823318,7.1447036162809425,1.3650475751616766,0.0000000000000000,0.0000000000000000,0.0000000000000000,0.0000000000000000,0.0000000000000000,0.0000000000000000,3.6495726495726499
5454.3085702003854749,3148.3961449498597176,379.7085487804431523,-4.0625531458272750,7.1445541403607518,1.3650295481546946,0.0000000000000000,0.0000000000000000,0.0000000000000000,0.0000000000000000,0.0000000000000000,0.0000000000000000,3.6794871794871797
5454.1870369594435033,3148.6098686925447510,379.7493827280374603,-4.0628121046037293,7.1444046545809217,1.3650115192436705,0.0000000000000000,0.0000000000000000,0.0000000000000000,0.0000000000000000,0.0000000000000000,0.0000000000000000,3.7094017094017095
5454.0654959719649923,3148.8235879632857177,379.7902161362768538,-4.0630710571112418,7.1442551589417667,1.3649934884286443,0.0000000000000000,0.0000000000000000,0.0000000000000000,0.0000000000000000,0.0000000000000000,0.0000000000000000,3.7393162393162394
5453.9439472381382075,3149.0373027617874868,379.8310490051044326,-4.0633300033493596,7.1441056534435985,1.3649754557096572,0.0000000000000000,0.0000000000000000,0.0000000000000000,0.0000000000000000,0.0000000000000000,0.0000000000000000,3.7692307692307696
5453.8223907581505046,3149.2510130877549273,379.8718813344632395,-4.0635889433176295,7.1439561380867316,1.3649574210867490,0.0000000000000000,0.0000000000000000,0.0000000000000000,0.0000000000000000,0.0000000000000000,0.0000000000000000,3.7991452991452994
5453.7008265321883300,3149.4647189408933627,379.9127131242962605,-4.0638478770155988,7.1438066128714786,1.3649393845599609,0.0000000000000000,0.0000000000000000,0.0000000000000000,0.0000000000000000,0.0000000000000000,0.0000000000000000,3.8290598290598292
5453.5792545604408588,3149.6784203209076622,379.9535443745465955,-4.0641068044428152,7.1436570777981538,1.3649213461293332,0.0000000000000000,0.0000000000000000,0.0000000000000000,0.0000000000000000,0.0000000000000000,0.0000000000000000,3.8589743589743590
5453.4576748430945372,3149.8921172275031495,379.9943750851572872,-4.0643657255988250,7.1435075328670701,1.3649033057949063,0.0000000000000000,0.0000000000000000,0.0000000000000000,0.0000000000000000,0.0000000000000000,0.0000000000000000,3.8888888888888888
5453.3360873803367213,3150.1058096603851482,380.0352052560713787,-4.0646246404831770,7.1433579780785408,1.3648852635567210,0.0000000000000000,0.0000000000000000,0.0000000000000000,0.0000000000000000,0.0000000000000000,0.0000000000000000,3.9188034188034191
5453.2144921723565858,3150.3194976192580725,380.0760348872319128,-4.0648835490954163,7.1432084134328795,1.3648672194148179,0.0000000000000000,0.0000000000000000,0.0000000000000000,0.0000000000000000,0.0000000000000000,0.0000000000000000,3.9487179487179489
5453.0928892193405773,3150.5331811038277010,380.1168639785819323,-4.0651424514350927,7.1430588389303997,1.3648491733692376,0.0000000000000000,0.0000000000000000,0.0000000000000000,0.0000000000000000,0.0000000000000000,0.0000000000000000,3.9786324786324787
5452.9712785214769610,3150.7468601137989026,380.1576925300645371,-4.0654013475017514,7.1429092545714159,1.3648311254200205,0.0000000000000000,0.0000000000000000,0.0000000000000000,0.0000000000000000,0.0000000000000000,0.0000000000000000,4.0085470085470085
5452.8496600789530930,3150.9605346488770010,380.1985205416227132,-4.0656602372949404,7.1427596603562398,1.3648130755672070,0.0000000000000000,0.0000000000000000,0.0000000000000000,0.0000000000000000,0.0000000000000000,0.0000000000000000,4.0384615384615383
5452.7280338919563292,3151.1742047087668652,380.2393480131995602,-4.0659191208142076,7.1426100562851866,1.3647950238108382,0.0000000000000000,0.0000000000000000,0.0000000000000000,0.0000000000000000,0.0000000000000000,0.0000000000000000,4.0683760683760681
5452.6063999606740254,3151.3878702931738189,380.2801749447381212,-4.0661779980591000,7.1424604423585700,1.3647769701509544,0.0000000000000000,0.0000000000000000,0.0000000000000000,0.0000000000000000,0.0000000000000000,0.0000000000000000,4.0982905982905988
5452.4847582852953565,3151.6015314018031859,380.3210013361814958,-4.0664368690291646,7.1423108185767017,1.3647589145875965,0.0000000000000000,0.0000000000000000,0.0000000000000000,0.0000000000000000,0.0000000000000000,0.0000000000000000,4.1282051282051286
5452.3631088660067689,3151.8151880343602897,380.3618271874726702,-4.0666957337239484,7.1421611849398978,1.3647408571208046,0.0000000000000000,0.0000000000000000,0.0000000000000000,0.0000000000000000,0.0000000000000000,0.0000000000000000,4.1581196581196584
5452.2414517029965282,3152.0288401905495448,380.4026524985547439,-4.0669545921430004,7.1420115414484702,1.3647227977506196,0.0000000000000000,0.0000000000000000,0.0000000000000000,0.0000000000000000,0.0000000000000000,0.0000000000000000,4.1880341880341883
5452.1197867964528996,3152.2424878700767295,380.4434772693707600,-4.0672134442858674,7.1418618881027331,1.3647047364770821,0.0000000000000000,0.0000000000000000,0.0000000000000000,0.0000000000000000,0.0000000000000000,0.0000000000000000,4.2179487179487181
5451.9981141465623296,3152.4561310726471675,380.4843014998637614,-4.0674722901520965,7.1417122249030003,1.3646866733002330,0.0000000000000000,0.0000000000000000,0.0000000000000000,0.0000000000000000,0.0000000000000000,0.0000000000000000,4.2478632478632479
5451.8764337535130835,3152.6697697979657278,380.5251251899769045,-4.0677311297412349,7.1415625518495860,1.3646686082201125,0.0000000000000000,0.0000000000000000,0.0000000000000000,0.0000000000000000,0.0000000000000000,0.0000000000000000,4.2777777777777777
5451.7547456174943363,3152.8834040457381889,380.5659483396531186,-4.0679899630528311,7.1414128689428038,1.3646505412367613,0.0000000000000000,0.0000000000000000,0.0000000000000000,0.0000000000000000,0.0000000000000000,0.0000000000000000,4.3076923076923075
5451.6330497386916250,3153.0970338156689650,380.6067709488356172,-4.0682487900864315,7.1412631761829664,1.3646324723502201,0.0000000000000000,0.0000000000000000,0.0000000000000000,0.0000000000000000,0.0000000000000000,0.0000000000000000,4.3376068376068382
5451.5113461172941243,3153.3106591074638345,380.6475930174673294,-4.0685076108415839,7.1411134735703898,1.3646144015605297,0.0000000000000000,0.0000000000000000,0.0000000000000000,0.0000000000000000,0.0000000000000000,0.0000000000000000,4.3675213675213680
5451.3896347534891902,3153.5242799208281212,380.6884145454914119,-4.0687664253178371,7.1409637611053860,1.3645963288677305,0.0000000000000000,0.0000000000000000,0.0000000000000000,0.0000000000000000,0.0000000000000000,0.0000000000000000,4.3974358974358978
5451.2679156474650881,3153.7378962554671489,380.7292355328509075,-4.0690252335147372,7.1408140387882693,1.3645782542718634,0.0000000000000000,0.0000000000000000,0.0000000000000000,0.0000000000000000,0.0000000000000000,0.0000000000000000,4.4273504273504276
5451.1461887994091740,3153.9515081110857864,380.7700559794889159,-4.0692840354318323,7.1406643066193540,1.3645601777729690,0.0000000000000000,0.0000000000000000,0.0000000000000000,0.0000000000000000,0.0000000000000000,0.0000000000000000,4.4572649572649574
5451.0244542095097131,3154.1651154873898122,380.8108758853484233,-4.0695428310686701,7.1405145645989538,1.3645420993710877,0.0000000000000000,0.0000000000000000,0.0000000000000000,0.0000000000000000,0.0000000000000000,0.0000000000000000,4.4871794871794872
5450.9027118779540615,3154.3787183840840953,380.8516952503726429,-4.0698016204247986,7.1403648127273831,1.3645240190662604,0.0000000000000000,0.0000000000000000,0.0000000000000000,0.0000000000000000,0.0000000000000000,0.0000000000000000,4.5170940170940170
5450.7809618049304845,3154.5923168008739594,380.8925140745045042,-4.0700604034997649,7.1402150510049545,1.3645059368585277,0.0000000000000000,0.0000000000000000,0.0000000000000000,0.0000000000000000,0.0000000000000000,0.0000000000000000,4.5470085470085468
5450.6592039906272475,3154.8059107374651830,380.9333323576871635,-4.0703191802931169,7.1400652794319841,1.3644878527479305,0.0000000000000000,0.0000000000000000,0.0000000000000000,0.0000000000000000,0.0000000000000000,0.0000000000000000,4.5769230769230775
5450.5374384352317065,3155.0195001935626351,380.9741500998636639,-4.0705779508044015,7.1399154980087838,1.3644697667345091,0.0000000000000000,0.0000000000000000,0.0000000000000000,0.0000000000000000,0.0000000000000000,0.0000000000000000,4.6068376068376073
5450.4156651389330364,3155.2330851688716393,381.0149673009770481,-4.0708367150331677,7.1397657067356688,1.3644516788183045,0.0000000000000000,0.0000000000000000,0.0000000000000000,0.0000000000000000,0.0000000000000000,0.0000000000000000,4.6367521367521372
5450.2938841019167739,3155.4466656630979742,381.0557839609705297,-4.0710954729789632,7.1396159056129527,1.3644335889993571,0.0000000000000000,0.0000000000000000,0.0000000000000000,0.0000000000000000,0.0000000000000000,0.0000000000000000,4.6666666666666670
5450.1720953243720942,3155.6602416759469634,381.0966000797871516,-4.0713542246413352,7.1394660946409498,1.3644154972777078,0.0000000000000000,0.0000000000000000,0.0000000000000000,0.0000000000000000,0.0000000000000000,0.0000000000000000,4.6965811965811968
5450.0502988064881720,3155.8738132071239306,381.1374156573699565,-4.0716129700198325,7.1393162738199747,1.3643974036533972,0.0000000000000000,0.0000000000000000,0.0000000000000000,0.0000000000000000,0.0000000000000000,0.0000000000000000,4.7264957264957266
5449.9284945484505442,3156.0873802563341997,381.1782306936620444,-4.0718717091140020,7.1391664431503399,1.3643793081264661,0.0000000000000000,0.0000000000000000,0.0000000000000000,0.0000000000000000,0.0000000000000000,0.0000000000000000,4.7564102564102564
5449.8066825504492954,3156.3009428232830942,381.2190451886065148,-4.0721304419233926,7.1390166026323616,1.3643612106969549,0.0000000000000000,0.0000000000000000,0.0000000000000000,0.0000000000000000,0.0000000000000000,0.0000000000000000,4.7863247863247862
5449.6848628126708718,3156.5145009076763927,381.2598591421464675,-4.0723891684475504,7.1388667522663525,1.3643431113649047,0.0000000000000000,0.0000000000000000,0.0000000000000000,0.0000000000000000,0.0000000000000000,0.0000000000000000,4.8162393162393160
5449.5630353353053579,3156.7280545092189641,381.3006725542249455,-4.0726478886860242,7.1387168920526269,1.3643250101303561,0.0000000000000000,0.0000000000000000,0.0000000000000000,0.0000000000000000,0.0000000000000000,0.0000000000000000,4.8461538461538467
5449.4412001185382906,3156.9416036276165869,381.3414854247850485,-4.0729066026383629,7.1385670219914994,1.3643069069933498,0.0000000000000000,0.0000000000000000,0.0000000000000000,0.0000000000000000,0.0000000000000000,0.0000000000000000,4.8760683760683765
5449.3193571625597542,3157.1551482625741301,381.3822977537698762,-4.0731653103041126,7.1384171420832843,1.3642888019539265,0.0000000000000000,0.0000000000000000,0.0000000000000000,0.0000000000000000,0.0000000000000000,0.0000000000000000,4.9059829059829063
5449.1975064675561953,3157.3686884137978268,381.4231095411225283,-4.0734240116828229,7.1382672523282960,1.3642706950121271,0.0000000000000000,0.0000000000000000,0.0000000000000000,0.0000000000000000,0.0000000000000000,0.0000000000000000,4.9358974358974361
5449.0756480337167886,3157.5822240809925461,381.4639207867860478,-4.0736827067740400,7.1381173527268489,1.3642525861679919,0.0000000000000000,0.0000000000000000,0.0000000000000000,0.0000000000000000,0.0000000000000000,0.0000000000000000,4.9658119658119659
5448.9537818612297997,3157.7957552638640664,381.5047314907036480,-4.0739413955773136,7.1379674432792566,1.3642344754215621,0.0000000000000000,0.0000000000000000,0.0000000000000000,0.0000000000000000,0.0000000000000000,0.0000000000000000,4.9957264957264957
5448.8319079502825844,3158.0092819621177114,381.5455416528182582,-4.0742000780921908,7.1378175239858344,1.3642163627728783,0.0000000000000000,0.0000000000000000,0.0000000000000000,0.0000000000000000,0.0000000000000000,0.0000000000000000,5.0256410256410255
5448.7100263010634080,3158.2228041754592596,381.5863512730730918,-4.0744587543182194,7.1376675948468957,1.3641982482219810,0.0000000000000000,0.0000000000000000,0.0000000000000000,0.0000000000000000,0.0000000000000000,0.0000000000000000,5.0555555555555554
5448.5881369137605361,3158.4363219035935799,381.6271603514112485,-4.0747174242549482,7.1375176558627551,1.3641801317689115,0.0000000000000000,0.0000000000000000,0.0000000000000000,0.0000000000000000,0.0000000000000000,0.0000000000000000,5.0854700854700861
5448.4662397885622340,3158.6498351462264509,381.6679688877757144,-4.0749760879019243,7.1373677070337287,1.3641620134137100,0.0000000000000000,0.0000000000000000,0.0000000000000000,0.0000000000000000,0.0000000000000000,0.0000000000000000,5.1153846153846159
5448.3443349256567672,3158.8633439030636509,381.7087768821097598,-4.0752347452586966,7.1372177483601282,1.3641438931564178,0.0000000000000000,0.0000000000000000,0.0000000000000000,0.0000000000000000,0.0000000000000000,0.0000000000000000,5.1452991452991457
5448.2224223252314914,3159.0768481738100490,381.7495843343563138,-4.0754933963248128,7.1370677798422708,1.3641257709970753,0.0000000000000000,0.0000000000000000,0.0000000000000000,0.0000000000000000,0.0000000000000000,0.0000000000000000,5.1752136752136755
5448.1005019874755817,3159.2903479581718784,381.7903912444585899,-4.0757520410998209,7.1369178014804691,1.3641076469357232,0.0000000000000000,0.0000000000000000,0.0000000000000000,0.0000000000000000,0.0000000000000000,0.0000000000000000,5.2051282051282053
5447.9785739125763939,3159.5038432558544628,381.8311976123596310,-4.0760106795832698,7.1367678132750383,1.3640895209724027,0.0000000000000000,0.0000000000000000,0.0000000000000000,0.0000000000000000,0.0000000000000000,0.0000000000000000,5.2350427350427351
5447.8566381007231030,3159.7173340665626711,381.8720034380025368,-4.0762693117747064,7.1366178152262929,1.3640713931071542,0.0000000000000000,0.0000000000000000,0.0000000000000000,0.0000000000000000,0.0000000000000000,0.0000000000000000,5.2649572649572649
5447.7346945521039743,3159.9308203900031913,381.9128087213305207,-4.0765279376736796,7.1364678073345473,1.3640532633400186,0.0000000000000000,0.0000000000000000,0.0000000000000000,0.0000000000000000,0.0000000000000000,0.0000000000000000,5.2948717948717947
5447.6127432669063637,3160.1443022258804376,381.9536134622865120,-4.0767865572797382,7.1363177896001169,1.3640351316710368,0.0000000000000000,0.0000000000000000,0.0000000000000000,0.0000000000000000,0.0000000000000000,0.0000000000000000,5.3247863247863254
5447.4907842453185367,3160.3577795739010980,381.9944176608137809,-4.0770451705924291,7.1361677620233159,1.3640169981002497,0.0000000000000000,0.0000000000000000,0.0000000000000000,0.0000000000000000,0.0000000000000000,0.0000000000000000,5.3547008547008552
5447.3688174875296681,3160.5712524337700415,382.0352213168553703,-4.0773037776113012,7.1360177246044580,1.3639988626276978,0.0000000000000000,0.0000000000000000,0.0000000000000000,0.0000000000000000,0.0000000000000000,0.0000000000000000,5.3846153846153850
5447.2468429937271139,3160.7847208051925918,382.0760244303543800,-4.0775623783359025,7.1358676773438585,1.3639807252534220,0.0000000000000000,0.0000000000000000,0.0000000000000000,0.0000000000000000,0.0000000000000000,0.0000000000000000,5.4145299145299148
5447.1248607640991395,3160.9981846878749820,382.1168270012539097,-4.0778209727657817,7.1357176202418335,1.3639625859774631,0.0000000000000000,0.0000000000000000,0.0000000000000000,0.0000000000000000,0.0000000000000000,0.0000000000000000,5.4444444444444446
5447.0028707988349197,3161.2116440815225360,382.1576290294971159,-4.0780795609004876,7.1355675532986957,1.3639444447998621,0.0000000000000000,0.0000000000000000,0.0000000000000000,0.0000000000000000,0.0000000000000000,0.0000000000000000,5.4743589743589745
5446.8808730981218105,3161.4250989858410321,382.1984305150270984,-4.0783381427395664,7.1354174765147604,1.3639263017206598,0.0000000000000000,0.0000000000000000,0.0000000000000000,0.0000000000000000,0.0000000000000000,0.0000000000000000,5.5042735042735043
5446.7588676621498962,3161.6385494005357941,382.2392314577869570,-4.0785967182825686,7.1352673898903429,1.3639081567398967,0.0000000000000000,0.0000000000000000,0.0000000000000000,0.0000000000000000,0.0000000000000000,0.0000000000000000,5.5341880341880341
5446.6368544911056233,3161.8519953253126005,382.2800318577198482,-4.0788552875290423,7.1351172934257576,1.3638900098576141,0.0000000000000000,0.0000000000000000,0.0000000000000000,0.0000000000000000,0.0000000000000000,0.0000000000000000,5.5641025641025648
5446.5148335851772572,3162.0654367598772296,382.3208317147688149,-4.0791138504785343,7.1349671871213198,1.3638718610738527,0.0000000000000000,0.0000000000000000,0.0000000000000000,0.0000000000000000,0.0000000000000000,0.0000000000000000,5.5940170940170946
5446.3928049445548822,3162.2788737039354601,382.3616310288770137,-4.0793724071305943,7.1348170709773440,1.3638537103886530,0.0000000000000000,0.0000000000000000,0.0000000000000000,0.0000000000000000,0.0000000000000000,0.0000000000000000,5.6239316239316244
5446.2707685694258544,3162.4923061571921608,382.4024297999876012,-4.0796309574847704,7.1346669449941453,1.3638355578020562,0.0000000000000000,0.0000000000000000,0.0000000000000000,0.0000000000000000,0.0000000000000000,0.0000000000000000,5.6538461538461542
5446.1487244599784390,3162.7057341193535649,382.4432280280436203,-4.0798895015406114,7.1345168091720383,1.3638174033141033,0.0000000000000000,0.0000000000000000,0.0000000000000000,0.0000000000000000,0.0000000000000000,0.0000000000000000,5.6837606837606840
5446.0266726164018110,3162.9191575901259057,382.4840257129882843,-4.0801480392976650,7.1343666635113374,1.3637992469248348,0.0000000000000000,0.0000000000000000,0.0000000000000000,0.0000000000000000,0.0000000000000000,0.0000000000000000,5.7136752136752138
5445.9046130388833262,3163.1325765692135974,382.5248228547646363,-4.0804065707554793,7.1342165080123587,1.3637810886342916,0.0000000000000000,0.0000000000000000,0.0000000000000000,0.0000000000000000,0.0000000000000000,0.0000000000000000,5.7435897435897436
5445.7825457276121597,3163.3459910563233279,382.5656194533158327,-4.0806650959136048,7.1340663426754158,1.3637629284425148,0.0000000000000000,0.0000000000000000,0.0000000000000000,0.0000000000000000,0.0000000000000000,0.0000000000000000,5.7735042735042734
5445.6604706827765767,3163.5594010511604210,382.6064155085850302,-4.0809236147715886,7.1339161675008258,1.3637447663495450,0.0000000000000000,0.0000000000000000,0.0000000000000000,0.0000000000000000,0.0000000000000000,0.0000000000000000,5.8034188034188032
5445.5383879045648428,3163.7728065534311099,382.6472110205153285,-4.0811821273289786,7.1337659824889013,1.3637266023554233,0.0000000000000000,0.0000000000000000,0.0000000000000000,0.0000000000000000,0.0000000000000000,0.0000000000000000,5.8333333333333339
5445.4162973931661327,3163.9862075628402636,382.6880059890498273,-4.0814406335853244,7.1336157876399593,1.3637084364601904,0.0000000000000000,0.0000000000000000,0.0000000000000000,0.0000000000000000,0.0000000000000000,0.0000000000000000,5.8632478632478637
5445.2941991487687119,3164.1996040790941151,382.7288004141316833,-4.0816991335401749,7.1334655829543134,1.3636902686638874,0.0000000000000000,0.0000000000000000,0.0000000000000000,0.0000000000000000,0.0000000000000000,0.0000000000000000,5.8931623931623935
5445.1720931715599363,3164.4129961018979884,382.7695942957040529,-4.0819576271930780,7.1333153684322799,1.3636720989665552,0.0000000000000000,0.0000000000000000,0.0000000000000000,0.0000000000000000,0.0000000000000000,0.0000000000000000,5.9230769230769234
5445.0499794617298903,3164.6263836309585713,382.8103876337100360,-4.0822161145435816,7.1331651440741730,1.3636539273682344,0.0000000000000000,0.0000000000000000,0.0000000000000000,0.0000000000000000,0.0000000000000000,0.0000000000000000,5.9529914529914532
5444.9278580194668393,3164.8397666659807328,382.8511804280927322,-4.0824745955912354,7.1330149098803091,1.3636357538689661,0.0000000000000000,0.0000000000000000,0.0000000000000000,0.0000000000000000,0.0000000000000000,0.0000000000000000,5.9829059829059830
5444.8057288449581392,3165.0531452066702514,382.8919726787953550,-4.0827330703355882,7.1328646658510015,1.3636175784687912,0.0000000000000000,0.0000000000000000,0.0000000000000000,0.0000000000000000,0.0000000000000000,0.0000000000000000,6.0128205128205128
5444.6835919383938744,3165.2665192527333602,382.9327643857610042,-4.0829915387761879,7.1327144119865666,1.3635994011677508,0.0000000000000000,0.0000000000000000,0.0000000000000000,0.0000000000000000,0.0000000000000000,0.0000000000000000,6.0427350427350426
5444.5614472999623104,3165.4798888038758378,382.9735555489328362,-4.0832500009125834,7.1325641482873197,1.3635812219658854,0.0000000000000000,0.0000000000000000,0.0000000000000000,0.0000000000000000,0.0000000000000000,0.0000000000000000,6.0726495726495733
5444.4392949298508029,3165.6932538598034625,383.0143461682538941,-4.0835084567443234,7.1324138747535750,1.3635630408632362,0.0000000000000000,0.0000000000000000,0.0000000000000000,0.0000000000000000,0.0000000000000000,0.0000000000000000,6.1025641025641031
5444.3171348282494364,3165.9066144202215582,383.0551362436674481,-4.0837669062709576,7.1322635913856489,1.3635448578598441,0.0000000000000000,0.0000000000000000,0.0000000000000000,0.0000000000000000,0.0000000000000000,0.0000000000000000,6.1324786324786329
5444.1949669953455668,3166.1199704848363581,383.0959257751165410,-4.0840253494920331,7.1321132981838566,1.3635266729557500,0.0000000000000000,0.0000000000000000,0.0000000000000000,0.0000000000000000,0.0000000000000000,0.0000000000000000,6.1623931623931627
5444.0727914313292786,3166.3333220533536405,383.1367147625443863,-4.0842837864070995,7.1319629951485126,1.3635084861509950,0.0000000000000000,0.0000000000000000,0.0000000000000000,0.0000000000000000,0.0000000000000000,0.0000000000000000,6.1923076923076925
5443.9506081363879275,3166.5466691254796388,383.1775032058940837,-4.0845422170157057,7.1318126822799330,1.3634902974456198,0.0000000000000000,0.0000000000000000,0.0000000000000000,0.0000000000000000,0.0000000000000000,0.0000000000000000,6.2222222222222223
5443.8284171107115981,3166.7600117009192218,383.2182911051087899,-4.0848006413174005,7.1316623595784332,1.3634721068396654,0.0000000000000000,0.0000000000000000,0.0000000000000000,0.0000000000000000,0.0000000000000000,0.0000000000000000,6.2521367521367521
5443.7062183544876461,3166.9733497793790775,383.2590784601316614,-4.0850590593117326,7.1315120270443275,1.3634539143331728,0.0000000000000000,0.0000000000000000,0.0000000000000000,0.0000000000000000,0.0000000000000000,0.0000000000000000,6.2820512820512819
5443.5840118679052466,3167.1866833605645297,383.2998652709057978,-4.0853174709982509,7.1313616846779331,1.3634357199261831,0.0000000000000000,0.0000000000000000,0.0000000000000000,0.0000000000000000,0.0000000000000000,0.0000000000000000,6.3119658119658126
5443.4617976511526649,3167.4000124441822663,383.3406515373743559,-4.0855758763765042,7.1312113324795634,1.3634175236187369,0.0000000000000000,0.0000000000000000,0.0000000000000000,0.0000000000000000,0.0000000000000000,0.0000000000000000,6.3418803418803424
5443.3395757044190759,3167.6133370299371563,383.3814372594805491,-4.0858342754460413,7.1310609704495356,1.3633993254108754,0.0000000000000000,0.0000000000000000,0.0000000000000000,0.0000000000000000,0.0000000000000000,0.0000000000000000,6.3717948717948723
5443.2173460278936545,3167.8266571175354329,383.4222224371674770,-4.0860926682064109,7.1309105985881640,1.3633811253026396,0.0000000000000000,0.0000000000000000,0.0000000000000000,0.0000000000000000,0.0000000000000000,0.0000000000000000,6.4017094017094021
5443.0951086217637567,3168.0399727066833293,383.4630070703783531,-4.0863510546571620,7.1307602168957649,1.3633629232940703,0.0000000000000000,0.0000000000000000,0.0000000000000000,0.0000000000000000,0.0000000000000000,0.0000000000000000,6.4316239316239319
5442.9728634862194667,3168.2532837970866240,383.5037911590562203,-4.0866094347978441,7.1306098253726535,1.3633447193852088,0.0000000000000000,0.0000000000000000,0.0000000000000000,0.0000000000000000,0.0000000000000000,0.0000000000000000,6.4615384615384617
5442.8506106214499596,3168.4665903884510954,383.5445747031442920,-4.0868678086280061,7.1304594240191452,1.3633265135760957,0.0000000000000000,0.0000000000000000,0.0000000000000000,0.0000000000000000,0.0000000000000000,0.0000000000000000,6.4914529914529915
5442.7283500276416817,3168.6798924804829767,383.5853577025857248,-4.0871261761471960,7.1303090128355562,1.3633083058667723,0.0000000000000000,0.0000000000000000,0.0000000000000000,0.0000000000000000,0.0000000000000000,0.0000000000000000,6.5213675213675213
5442.6060817049865364,3168.8931900728875917,383.6261401573236753,-4.0873845373549642,7.1301585918222017,1.3632900962572796,0.0000000000000000,0.0000000000000000,0.0000000000000000,0.0000000000000000,0.0000000000000000,0.0000000000000000,6.5512820512820520
5442.4838056536700606,3169.1064831653716283,383.6669220673012433,-4.0876428922508588,7.1300081609793962,1.3632718847476581,0.0000000000000000,0.0000000000000000,0.0000000000000000,0.0000000000000000,0.0000000000000000,0.0000000000000000,6.5811965811965818
5442.3615218738841577,3169.3197717576404102,383.7077034324616989,-4.0879012408344293,7.1298577203074576,1.3632536713379495,0.0000000000000000,0.0000000000000000,0.0000000000000000,0.0000000000000000,0.0000000000000000,0.0000000000000000,6.6111111111111116
5442.2392303658152741,3169.5330558494001707,383.7484842527481419,-4.0881595831052246,7.1297072698067003,1.3632354560281945,0.0000000000000000,0.0000000000000000,0.0000000000000000,0.0000000000000000,0.0000000000000000,0.0000000000000000,6.6410256410256414
5442.1169311296534943,3169.7463354403571429,383.7892645281037289,-4.0884179190627936,7.1295568094774397,1.3632172388184340,0.0000000000000000,0.0000000000000000,0.0000000000000000,0.0000000000000000,0.0000000000000000,0.0000000000000000,6.6709401709401712
5441.9946241655879930,3169.9596105302171054,383.8300442584716166,-4.0886762487066850,7.1294063393199920,1.3631990197087092,0.0000000000000000,0.0000000000000000,0.0000000000000000,0.0000000000000000,0.0000000000000000,0.0000000000000000,6.7008547008547010
5441.8723094738070358,3170.1728811186858366,383.8708234437949613,-4.0889345720364494,7.1292558593346733,1.3631807986990609,0.0000000000000000,0.0000000000000000,0.0000000000000000,0.0000000000000000,0.0000000000000000,0.0000000000000000,6.7307692307692308
5441.7499870544988880,3170.3861472054695696,383.9116020840169767,-4.0891928890516347,7.1291053695217981,1.3631625757895305,0.0000000000000000,0.0000000000000000,0.0000000000000000,0.0000000000000000,0.0000000000000000,0.0000000000000000,6.7606837606837606
5441.6276569078536340,3170.5994087902740830,383.9523801790807624,-4.0894511997517897,7.1289548698816843,1.3631443509801586,0.0000000000000000,0.0000000000000000,0.0000000000000000,0.0000000000000000,0.0000000000000000,0.0000000000000000,6.7905982905982905
5441.5053190340595393,3170.8126658728056100,383.9931577289295888,-4.0897095041364651,7.1288043604146454,1.3631261242709867,0.0000000000000000,0.0000000000000000,0.0000000000000000,0.0000000000000000,0.0000000000000000,0.0000000000000000,6.8205128205128212
5441.3829734333057786,3171.0259184527703837,384.0339347335064986,-4.0899678022052086,7.1286538411209994,1.3631078956620553,0.0000000000000000,0.0000000000000000,0.0000000000000000,0.0000000000000000,0.0000000000000000,0.0000000000000000,6.8504273504273510
5441.2606201057806175,3171.2391665298741827,384.0747111927547053,-4.0902260939575710,7.1285033120010608,1.3630896651534059,0.0000000000000000,0.0000000000000000,0.0000000000000000,0.0000000000000000,0.0000000000000000,0.0000000000000000,6.8803418803418808
5441.1382590516741402,3171.4524101038232402,384.1154871066174223,-4.0904843793931001,7.1283527730551457,1.3630714327450795,0.0000000000000000,0.0000000000000000,0.0000000000000000,0.0000000000000000,0.0000000000000000,0.0000000000000000,6.9102564102564106
5441.0158902711755218,3171.6656491743233346,384.1562624750378063,-4.0907426585113456,7.1282022242835694,1.3630531984371168,0.0000000000000000,0.0000000000000000,0.0000000000000000,0.0000000000000000,0.0000000000000000,0.0000000000000000,6.9401709401709404
5440.8935137644721181,3171.8788837410802444,384.1970372979589570,-4.0910009313118572,7.1280516656866499,1.3630349622295594,0.0000000000000000,0.0000000000000000,0.0000000000000000,0.0000000000000000,0.0000000000000000,0.0000000000000000,6.9700854700854702
5440.7711295317540134,3172.0921138038011122,384.2378115753241445,-4.0912591977941837,7.1279010972647017,1.3630167241224480,0.0000000000000000,0.0000000000000000,0.0000000000000000,0.0000000000000000,0.0000000000000000,0.0000000000000000,7.0000000000000000
