0.0000000000000000,0.0000000000000000,0.0000000000000000,0.0000000000000000,0.0010000000000003,0.0010000000000003,0.0000000000000000,0.0000000000000000
0.0000000000000000,0.0000299145312965,0.0000299145299323,-0.0000000000000000,0.0010000000018042,0.0010000000007260,0.0000000000001728,0.0299145299145299
0.0000000000000000,0.0000598290616836,0.0000598290603193,-0.0000000000000000,0.0010000000072203,0.0010000000029038,0.0000000000006899,0.0598290598290598
0.0000000000000000,0.0000897435911611,0.0000897435902516,0.0000000000000568,0.0010000000162469,0.0010000000065338,0.0000000000015519,0.0897435897435897
0.0000000000000000,0.0001196581224576,0.0001196581206386,0.0000000000001137,0.0010000000288830,0.0010000000116177,0.0000000000027587,0.1196581196581197
0.0000000000000000,0.0001495726537541,0.0001495726510257,0.0000000000002274,0.0010000000451305,0.0010000000181547,0.0000000000043110,0.1495726495726496
0.0000000000000000,0.0001794871850507,0.0001794871814127,0.0000000000003979,0.0010000000649892,0.0010000000261456,0.0000000000062079,0.1794871794871795
0.0000000000000000,0.0002094017172567,0.0002094017127092,0.0000000000005684,0.0010000000884567,0.0010000000355896,0.0000000000084504,0.2094017094017094
0.0000000000000000,0.0002393162512817,0.0002393162440057,0.0000000000009095,0.0010000001155346,0.0010000000464894,0.0000000000110378,0.2393162393162393
0.0000000000000000,0.0002692307843972,0.0002692307753023,0.0000000000013074,0.0010000001462229,0.0010000000588448,0.0000000000139708,0.2692307692307692
0.0000000000000000,0.0002991453184222,0.0002991453070535,0.0000000000018190,0.0010000001805199,0.0010000000726551,0.0000000000172489,0.2991452991452991
0.0000000000000000,0.0003290598551757,0.0003290598397143,0.0000000000023874,0.0010000002184256,0.0010000000879211,0.0000000000208726,0.3290598290598291
0.0000000000000000,0.0003589743928387,0.0003589743723751,0.0000000000030127,0.0010000002599426,0.0010000001046446,0.0000000000248421,0.3589743589743590
0.0000000000000000,0.0003888889314112,0.0003888889054906,0.0000000000038654,0.0010000003050683,0.0010000001228239,0.0000000000291571,0.3888888888888889
0.0000000000000000,0.0004188034708932,0.0004188034395156,0.0000000000047748,0.0010000003538027,0.0010000001424615,0.0000000000338181,0.4188034188034188
0.0000000000000000,0.0004487180121941,0.0004487179739954,0.0000000000059117,0.0010000004061466,0.0010000001635566,0.0000000000388245,0.4487179487179487
0.0000000000000000,0.0004786325553141,0.0004786325093846,0.0000000000071623,0.0010000004620982,0.0010000001861110,0.0000000000441771,0.4786324786324787
0.0000000000000000,0.0005085471002531,0.0005085470461381,0.0000000000085834,0.0010000005216595,0.0010000002101229,0.0000000000498759,0.5085470085470085
0.0000000000000000,0.0005384616470110,0.0005384615828916,0.0000000000102318,0.0010000005848276,0.0010000002355968,0.0000000000559204,0.5384615384615384
0.0000000000000000,0.0005683761964974,0.0005683761205546,0.0000000000120508,0.0010000006516044,0.0010000002625281,0.0000000000623115,0.5683760683760684
0.0000000000000000,0.0005982907478028,0.0005982906591271,0.0000000000140972,0.0010000007219899,0.0010000002909205,0.0000000000690488,0.5982905982905983
0.0000000000000000,0.0006282053018367,0.0006282051990638,0.0000000000163709,0.0010000007959841,0.0010000003207731,0.0000000000761324,0.6282051282051282
0.0000000000000000,0.0006581198567801,0.0006581197399100,0.0000000000188152,0.0010000008735842,0.0010000003520876,0.0000000000835625,0.6581196581196581
0.0000000000000000,0.0006880344153615,0.0006880342812110,0.0000000000214868,0.0010000009547930,0.0010000003848631,0.0000000000913389,0.6880341880341880
0.0000000000000000,0.0007179489766713,0.0007179488238762,0.0000000000244995,0.0010000010396096,0.0010000004190998,0.0000000000994620,0.7179487179487180
0.0000000000000000,0.0007478635407097,0.0007478633679057,0.0000000000277396,0.0010000011280340,0.0010000004548010,0.0000000001079317,0.7478632478632479
0.0000000000000000,0.0007777781065670,0.0007777779128446,0.0000000000312070,0.0010000012200653,0.0010000004919632,0.0000000001167482,0.7777777777777778
0.0000000000000000,0.0008076926751528,0.0008076924586931,0.0000000000349019,0.0010000013157034,0.0010000005305892,0.0000000001259115,0.8076923076923077
0.0000000000000000,0.0008376072473766,0.0008376070059057,0.0000000000389377,0.0010000014149494,0.0010000005706781,0.0000000001354215,0.8376068376068376
0.0000000000000000,0.0008675218214194,0.0008675215544827,0.0000000000432578,0.0010000015178031,0.0010000006122315,0.0000000001452785,0.8675213675213675
0.0000000000000000,0.0008974364000096,0.0008974361039691,0.0000000000478053,0.0010000016242628,0.0010000006552495,0.0000000001554827,0.8974358974358975
0.0000000000000000,0.0009273509813283,0.0009273506548197,0.0000000000527507,0.0010000017343295,0.0010000006997313,0.0000000001660336,0.9273504273504274
0.0000000000000000,0.0009572655662851,0.0009572652070347,0.0000000000579234,0.0010000018480030,0.0010000007456794,0.0000000001769322,0.9572649572649573
0.0000000000000000,0.0009871801539703,0.0009871797606138,0.0000000000634941,0.0010000019652825,0.0010000007930939,0.0000000001881777,0.9871794871794872
0.0000000000000000,0.0010170947452934,0.0010170943155572,0.0000000000693490,0.0010000020861689,0.0010000008419730,0.0000000001997706,1.0170940170940170
0.0000000000000000,0.0010470093393451,0.0010470088723196,0.0000000000756017,0.0010000022106622,0.0010000008923194,0.0000000002117109,1.0470085470085471
0.0000000000000000,0.0010769239388537,0.0010769234295367,0.0000000000821387,0.0010000023387606,0.0010000009441331,0.0000000002239988,1.0769230769230769
0.0000000000000000,0.0011068385410908,0.0011068379894823,0.0000000000891305,0.0010000024704651,0.0010000009974140,0.0000000002366343,1.1068376068376069
0.0000000000000000,0.0011367531469659,0.0011367525507922,0.0000000000964633,0.0010000026057746,0.0010000010521631,0.0000000002496174,1.1367521367521367
0.0000000000000000,0.0011666677582980,0.0011666671130115,0.0000000001041940,0.0010000027446919,0.0010000011083804,0.0000000002629483,1.1666666666666667
0.0000000000000000,0.0011965823723585,0.0011965816770498,0.0000000001122658,0.0010000028872135,0.0010000011660667,0.0000000002766267,1.1965811965811965
0.0000000000000000,0.0012264969918760,0.0012264962433619,0.0000000001208491,0.0010000030333410,0.0010000012252211,0.0000000002906533,1.2264957264957266
0.0000000000000000,0.0012564116150315,0.0012564108110382,0.0000000001297735,0.0010000031830737,0.0010000012858464,0.0000000003050278,1.2564102564102564
0.0000000000000000,0.0012863262427345,0.0012863253805335,0.0000000001391527,0.0010000033364115,0.0010000013479408,0.0000000003197504,1.2863247863247864
0.0000000000000000,0.0013162408749849,0.0013162399513931,0.0000000001489298,0.0010000034933544,0.0010000014115068,0.0000000003348213,1.3162393162393162
0.0000000000000000,0.0013461555117829,0.0013461545245264,0.0000000001592184,0.0010000036539015,0.0010000014765428,0.0000000003502401,1.3461538461538463
0.0000000000000000,0.0013760701531282,0.0013760690999334,0.0000000001699618,0.0010000038180547,0.0010000015430514,0.0000000003660074,1.3760683760683761
0.0000000000000000,0.0014059847999306,0.0014059836767046,0.0000000001811600,0.0010000039858120,0.0010000016110308,0.0000000003821230,1.4059829059829061
0.0000000000000000,0.0014358994512804,0.0014358982557496,0.0000000001927560,0.0010000041571736,0.0010000016804828,0.0000000003985869,1.4358974358974359
0.0000000000000000,0.0014658141080872,0.0014658128370684,0.0000000002049205,0.0010000043321394,0.0010000017514074,0.0000000004153995,1.4658119658119659
0.0000000000000000,0.0014957287703510,0.0014957274202061,0.0000000002175966,0.0010000045107104,0.0010000018238054,0.0000000004325607,1.4957264957264957
0.0000000000000000,0.0015256434371622,0.0015256420051628,0.0000000002307274,0.0010000046928846,0.0010000018976770,0.0000000004500706,1.5256410256410258
0.0000000000000000,0.0015555581094304,0.0015555565923933,0.0000000002444267,0.0010000048786623,0.0010000019730230,0.0000000004679293,1.5555555555555556
0.0000000000000000,0.0015854727871556,0.0015854711823522,0.0000000002586376,0.0010000050680450,0.0010000020498433,0.0000000004861367,1.5854700854700856
0.0000000000000000,0.0016153874703377,0.0016153857741301,0.0000000002733600,0.0010000052610302,0.0010000021281389,0.0000000005046932,1.6153846153846154
0.0000000000000000,0.0016453021607958,0.0016453003681818,0.0000000002887646,0.0010000054576196,0.0010000022079089,0.0000000005235987,1.6452991452991454
0.0000000000000000,0.0016752168548919,0.0016752149645072,0.0000000003046239,0.0010000056578123,0.0010000022891559,0.0000000005428533,1.6752136752136753
0.0000000000000000,0.0017051315571734,0.0017051295635611,0.0000000003210516,0.0010000058616084,0.0010000023718790,0.0000000005624572,1.7051282051282053
0.0000000000000000,0.0017350462640024,0.0017350441648887,0.0000000003380478,0.0010000060690079,0.0010000024560783,0.0000000005824101,1.7350427350427351
0.0000000000000000,0.0017649609781074,0.0017649587684900,0.0000000003557261,0.0010000062800088,0.0010000025417556,0.0000000006027125,1.7649572649572651
0.0000000000000000,0.0017948756976693,0.0017948733752746,0.0000000003738592,0.0010000064946132,0.0010000026289099,0.0000000006233642,1.7948717948717949
0.0000000000000000,0.0018247904235977,0.0018247879838782,0.0000000003927312,0.0010000067128209,0.0010000027175430,0.0000000006443654,1.8247863247863250
0.0000000000000000,0.0018547051558926,0.0018547025956650,0.0000000004122285,0.0010000069346310,0.0010000028076549,0.0000000006657166,1.8547008547008548
0.0000000000000000,0.0018846198963729,0.0018846172101803,0.0000000004322942,0.0010000071600427,0.0010000028992456,0.0000000006874172,1.8846153846153848
0.0000000000000000,0.0019145346432197,0.0019145318269693,0.0000000004530420,0.0010000073890568,0.0010000029923161,0.0000000007094676,1.9145299145299146
0.0000000000000000,0.0019444493955234,0.0019444464464868,0.0000000004744720,0.0010000076216725,0.0010000030868662,0.0000000007318679,1.9444444444444444
0.0000000000000000,0.0019743641560126,0.0019743610691876,0.0000000004965841,0.0010000078578916,0.0010000031828978,0.0000000007546181,1.9743589743589745
0.0000000000000000,0.0020042789237777,0.0020042756946168,0.0000000005193215,0.0010000080977104,0.0010000032804092,0.0000000007777186,2.0042735042735043
0.0000000000000000,0.0020341936988189,0.0020341903232293,0.0000000005427410,0.0010000083411317,0.0010000033794029,0.0000000008011687,2.0341880341880341
0.0000000000000000,0.0020641084802264,0.0020641049545702,0.0000000005669563,0.0010000085881545,0.0010000034798781,0.0000000008249694,2.0641025641025643
0.0000000000000000,0.0020940232698194,0.0020940195890944,0.0000000005918537,0.0010000088387780,0.0010000035818365,0.0000000008491201,2.0940170940170941
0.0000000000000000,0.0021239380675979,0.0021239342272565,0.0000000006174332,0.0010000090930031,0.0010000036852764,0.0000000008736214,2.1239316239316239
0.0000000000000000,0.0021538528726524,0.0021538488676924,0.0000000006438086,0.0010000093508298,0.0010000037902005,0.0000000008984731,2.1538461538461537
0.0000000000000000,0.0021837676858922,0.0021837635113116,0.0000000006709229,0.0010000096122553,0.0010000038966078,0.0000000009236754,2.1837606837606840
0.0000000000000000,0.0022136825073176,0.0022136781585687,0.0000000006988330,0.0010000098772824,0.0010000040045002,0.0000000009492283,2.2136752136752138
0.0000000000000000,0.0022435973360189,0.0022435928094637,0.0000000007274821,0.0010000101459102,0.0010000041138776,0.0000000009751318,2.2435897435897436
0.0000000000000000,0.0022735121738151,0.0022735074635420,0.0000000007569270,0.0010000104181387,0.0010000042247391,0.0000000010013863,2.2735042735042734
0.0000000000000000,0.0023034270197968,0.0023034221208036,0.0000000007871677,0.0010000106939660,0.0010000043370884,0.0000000010279915,2.3034188034188037
0.0000000000000000,0.0023333418730545,0.0023333367821579,0.0000000008182042,0.0010000109733932,0.0010000044509217,0.0000000010549479,2.3333333333333335
0.0000000000000000,0.0023632567354070,0.0023632514462406,0.0000000008500365,0.0010000112564210,0.0010000045662419,0.0000000010822550,2.3632478632478633
0.0000000000000000,0.0023931716077641,0.0023931661139613,0.0000000008827783,0.0010000115430486,0.0010000046830489,0.0000000011099133,2.3931623931623931
0.0000000000000000,0.0024230864873971,0.0024230807848653,0.0000000009162591,0.0010000118332760,0.0010000048013428,0.0000000011379229,2.4230769230769234
0.0000000000000000,0.0024530013761250,0.0024529954598620,0.0000000009506493,0.0010000121271032,0.0010000049211252,0.0000000011662835,2.4529914529914532
0.0000000000000000,0.0024829162730384,0.0024829101384967,0.0000000009858354,0.0010000124245302,0.0010000050423944,0.0000000011949957,2.4829059829059830
0.0000000000000000,0.0025128311799563,0.0025128248198598,0.0000000010218741,0.0010000127255552,0.0010000051651531,0.0000000012240591,2.5128205128205128
0.0000000000000000,0.0025427460959691,0.0025427395057704,0.0000000010588224,0.0010000130301808,0.0010000052894004,0.0000000012534738,2.5427350427350430
0.0000000000000000,0.0025726610210768,0.0025726541953190,0.0000000010966232,0.0010000133384036,0.0010000054151362,0.0000000012832404,2.5726495726495728
0.0000000000000000,0.0026025759543700,0.0026025688885056,0.0000000011353336,0.0010000136502271,0.0010000055423625,0.0000000013133585,2.6025641025641026
0.0000000000000000,0.0026324908985771,0.0026324835853302,0.0000000011748966,0.0010000139656485,0.0010000056710799,0.0000000013438282,2.6324786324786325
0.0000000000000000,0.0026624058509697,0.0026623982857927,0.0000000012154260,0.0010000142846698,0.0010000058012869,0.0000000013746497,2.6623931623931627
0.0000000000000000,0.0026923208142762,0.0026923129903480,0.0000000012568648,0.0010000146072882,0.0010000059329860,0.0000000014058232,2.6923076923076925
0.0000000000000000,0.0027222357866776,0.0027222276994507,0.0000000012992132,0.0010000149335045,0.0010000060661755,0.0000000014373487,2.7222222222222223
0.0000000000000000,0.0027521507690835,0.0027521424117367,0.0000000013425279,0.0010000152633207,0.0010000062008579,0.0000000014692263,2.7521367521367521
0.0000000000000000,0.0027820657614939,0.0027820571285702,0.0000000013868089,0.0010000155967331,0.0010000063370317,0.0000000015014556,2.7820512820512824
0.0000000000000000,0.0028119807629992,0.0028119718494963,0.0000000014319994,0.0010000159337444,0.0010000064747002,0.0000000015340376,2.8119658119658122
0.0000000000000000,0.0028418957754184,0.0028418865736057,0.0000000014782700,0.0010000162743538,0.0010000066138609,0.0000000015669714,2.8418803418803420
0.0000000000000000,0.0028718107978420,0.0028718013031721,0.0000000015254500,0.0010000166185602,0.0010000067545155,0.0000000016002579,2.8717948717948718
0.0000000000000000,0.0029017258311796,0.0029017160359217,0.0000000015735964,0.0010000169663638,0.0010000068966640,0.0000000016338968,2.9017094017094016
0.0000000000000000,0.0029316408745217,0.0029316307732188,0.0000000016228228,0.0010000173177653,0.0010000070403073,0.0000000016678880,2.9316239316239319
0.0000000000000000,0.0029615559287777,0.0029615455155181,0.0000000016730155,0.0010000176727640,0.0010000071854463,0.0000000017022319,2.9615384615384617
0.0000000000000000,0.0029914709939476,0.0029914602614554,0.0000000017243451,0.0010000180313599,0.0010000073320802,0.0000000017369286,2.9914529914529915
0.0000000000000000,0.0030213860691219,0.0030213750119401,0.0000000017765842,0.0010000183935519,0.0010000074802115,0.0000000017719781,3.0213675213675213
0.0000000000000000,0.0030513011552102,0.0030512897665176,0.0000000018299033,0.0010000187593411,0.0010000076298375,0.0000000018073800,3.0512820512820515
0.0000000000000000,0.0030812162531220,0.0030812045256425,0.0000000018843025,0.0010000191287265,0.0010000077809620,0.0000000018431352,3.0811965811965814
0.0000000000000000,0.0031111313619476,0.0031111192897697,0.0000000019397817,0.0010000195017090,0.0010000079335821,0.0000000018792434,3.1111111111111112
0.0000000000000000,0.0031410464816872,0.0031410340579896,0.0000000019962840,0.0010000198782869,0.0010000080877015,0.0000000019157047,3.1410256410256410
0.0000000000000000,0.0031709616123408,0.0031709488312117,0.0000000020539233,0.0010000202584619,0.0010000082433184,0.0000000019525190,3.1709401709401712
0.0000000000000000,0.0032008767548177,0.0032008636089813,0.0000000021126993,0.0010000206422331,0.0010000084004336,0.0000000019896869,3.2008547008547010
0.0000000000000000,0.0032307919091181,0.0032307783912984,0.0000000021724986,0.0010000210295997,0.0010000085590489,0.0000000020272075,3.2307692307692308
0.0000000000000000,0.0032607070743325,0.0032606931790724,0.0000000022335485,0.0010000214205617,0.0010000087191644,0.0000000020650819,3.2606837606837606
0.0000000000000000,0.0032906222522797,0.0032906079709392,0.0000000022956783,0.0010000218151198,0.0010000088807773,0.0000000021033095,3.2905982905982909
0.0000000000000000,0.0033205374420504,0.0033205227673534,0.0000000023588882,0.0010000222132724,0.0010000090438922,0.0000000021418909,3.3205128205128207
0.0000000000000000,0.0033504526436445,0.0033504375692246,0.0000000024232918,0.0010000226150213,0.0010000092085081,0.0000000021808260,3.3504273504273505
0.0000000000000000,0.0033803678561526,0.0033803523756433,0.0000000024888891,0.0010000230203655,0.0010000093746250,0.0000000022201148,3.3803418803418803
0.0000000000000000,0.0034102830823031,0.0034102671875189,0.0000000025556233,0.0010000234293051,0.0010000095422438,0.0000000022597575,3.4102564102564106
0.0000000000000000,0.0034401983202770,0.0034401820039420,0.0000000026236080,0.0010000238418382,0.0010000097113645,0.0000000022997537,3.4401709401709404
0.0000000000000000,0.0034701135700743,0.0034700968258221,0.0000000026927864,0.0010000242579666,0.0010000098819880,0.0000000023401041,3.4700854700854702
0.0000000000000000,0.0035000288335141,0.0035000116527044,0.0000000027631017,0.0010000246776896,0.0010000100541152,0.0000000023808087,3.5000000000000000
0.0000000000000000,0.0035299441087773,0.0035299264845889,0.0000000028347245,0.0010000251010061,0.0010000102277443,0.0000000024218672,3.5299145299145303
0.0000000000000000,0.0035598593967734,0.0035598413219304,0.0000000029075409,0.0010000255279179,0.0010000104028789,0.0000000024632800,3.5598290598290601
0.0000000000000000,0.0035897746984119,0.0035897561647289,0.0000000029816078,0.0010000259584242,0.0010000105795172,0.0000000025050468,3.5897435897435899
0.0000000000000000,0.0036196900118739,0.0036196710120748,0.0000000030569254,0.0010000263925241,0.0010000107576600,0.0000000025471683,3.6196581196581197
0.0000000000000000,0.0036496053389783,0.0036495858657872,0.0000000031335503,0.0010000268302175,0.0010000109373083,0.0000000025896441,3.6495726495726499
0.0000000000000000,0.0036795206788156,0.0036795007240471,0.0000000032114258,0.0010000272715045,0.0010000111184620,0.0000000026324747,3.6794871794871797
0.0000000000000000,0.0037094360322953,0.0037094155882187,0.0000000032905518,0.0010000277163851,0.0010000113011230,0.0000000026756595,3.7094017094017095
0.0000000000000000,0.0037393513994175,0.0037393304573925,0.0000000033709853,0.0010000281648592,0.0010000114852895,0.0000000027191991,3.7393162393162394
0.0000000000000000,0.0037692667792726,0.0037692453324780,0.0000000034527261,0.0010000286169269,0.0010000116709632,0.0000000027630935,3.7692307692307696
0.0000000000000000,0.0037991821727701,0.0037991602130205,0.0000000035358312,0.0010000290725873,0.0010000118581441,0.0000000028073428,3.7991452991452994
0.0000000000000000,0.0038290975808195,0.0038290750994747,0.0000000036202437,0.0010000295318404,0.0010000120468341,0.0000000028519469,3.8290598290598292
0.0000000000000000,0.0038590130016019,0.0038589899913859,0.0000000037059635,0.0010000299946862,0.0010000122370313,0.0000000028969060,3.8589743589743590
0.0000000000000000,0.0038889284369361,0.0038889048892088,0.0000000037931045,0.0010000304611246,0.0010000124287375,0.0000000029422205,3.8888888888888888
0.0000000000000000,0.0039188438868223,0.0039188197924886,0.0000000038815529,0.0010000309311566,0.0010000126219527,0.0000000029878897,3.9188034188034191
0.0000000000000000,0.0039487593494414,0.0039487347021350,0.0000000039714223,0.0010000314047796,0.0010000128166778,0.0000000030339145,3.9487179487179489
0.0000000000000000,0.0039786748266124,0.0039786496172383,0.0000000040626560,0.0010000318819952,0.0010000130129137,0.0000000030802942,3.9786324786324787
0.0000000000000000,0.0040085903183353,0.0040085645382533,0.0000000041552539,0.0010000323628034,0.0010000132106587,0.0000000031270295,4.0085470085470085
0.0000000000000000,0.0040385058237007,0.0040384794651800,0.0000000042492729,0.0010000328472026,0.0010000134099162,0.0000000031741205,4.0384615384615383
0.0000000000000000,0.0040684213445275,0.0040683943980184,0.0000000043447699,0.0010000333351945,0.0010000136106845,0.0000000032215670,4.0683760683760681
0.0000000000000000,0.0040983368808156,0.0040983093372233,0.0000000044416311,0.0010000338267773,0.0010000138129636,0.0000000032693690,4.0982905982905988
0.0000000000000000,0.0041282524307462,0.0041282242823399,0.0000000045399133,0.0010000343219518,0.0010000140167561,0.0000000033175267,4.1282051282051286
0.0000000000000000,0.0041581679952287,0.0041581392333683,0.0000000046397304,0.0010000348207164,0.0010000142220603,0.0000000033660403,4.1581196581196584
0.0000000000000000,0.0041880835751726,0.0041880541912178,0.0000000047409685,0.0010000353230737,0.0010000144288789,0.0000000034149097,4.1880341880341883
0.0000000000000000,0.0042179991696685,0.0042179691549791,0.0000000048435709,0.0010000358290219,0.0010000146372109,0.0000000034641352,4.2179487179487181
0.0000000000000000,0.0042479147796257,0.0042478841251068,0.0000000049478217,0.0010000363385609,0.0010000148470573,0.0000000035137167,4.2478632478632479
0.0000000000000000,0.0042778304050444,0.0042777991016010,0.0000000050534936,0.0010000368516900,0.0010000150584171,0.0000000035636540,4.2777777777777777
0.0000000000000000,0.0043077460450149,0.0043077140840069,0.0000000051607572,0.0010000373684100,0.0010000152712912,0.0000000036139478,4.3076923076923075
0.0000000000000000,0.0043376617013564,0.0043376290736887,0.0000000052694418,0.0010000378887201,0.0010000154856824,0.0000000036645980,4.3376068376068382
0.0000000000000000,0.0043675773731593,0.0043675440692823,0.0000000053797748,0.0010000384126201,0.0010000157015879,0.0000000037156043,4.3675213675213680
0.0000000000000000,0.0043974930604236,0.0043974590716971,0.0000000054915859,0.0010000389401110,0.0010000159190104,0.0000000037669672,4.3974358974358978
0.0000000000000000,0.0044274087631493,0.0044273740804783,0.0000000056049316,0.0010000394711911,0.0010000161379491,0.0000000038186865,4.4273504273504276
0.0000000000000000,0.0044573244831554,0.0044572890960808,0.0000000057198122,0.0010000400058612,0.0010000163584056,0.0000000038707622,4.4572649572649574
0.0000000000000000,0.0044872402177134,0.0044872041180497,0.0000000058363412,0.0010000405441204,0.0010000165803792,0.0000000039231949,4.4871794871794872
0.0000000000000000,0.0045171559686423,0.0045171191472946,0.0000000059544050,0.0010000410859705,0.0010000168038697,0.0000000039759842,4.5170940170940170
0.0000000000000000,0.0045470717368517,0.0045470341829059,0.0000000060741172,0.0010000416314089,0.0010000170288809,0.0000000040291304,4.5470085470085468
0.0000000000000000,0.0045769875205224,0.0045769492253385,0.0000000061954211,0.0010000421804364,0.0010000172554081,0.0000000040826333,4.5769230769230775
0.0000000000000000,0.0046069033205640,0.0046068642750470,0.0000000063183165,0.0010000427330530,0.0010000174834568,0.0000000041364934,4.6068376068376073
0.0000000000000000,0.0046368191360671,0.0046367793315767,0.0000000064429173,0.0010000432892587,0.0010000177130252,0.0000000041907104,4.6367521367521372
0.0000000000000000,0.0046667349697600,0.0046666943949276,0.0000000065691097,0.0010000438490527,0.0010000179441132,0.0000000042452850,4.6666666666666670
0.0000000000000000,0.0046966508198238,0.0046966094650998,0.0000000066968937,0.0010000444124358,0.0010000181767218,0.0000000043002166,4.6965811965811968
0.0000000000000000,0.0047265666862586,0.0047265245420931,0.0000000068263262,0.0010000449794090,0.0010000184108518,0.0000000043555055,4.7264957264957266
0.0000000000000000,0.0047564825708832,0.0047564396259077,0.0000000069574071,0.0010000455499695,0.0010000186465042,0.0000000044111519,4.7564102564102564
0.0000000000000000,0.0047863984718788,0.0047863547169982,0.0000000070901365,0.0010000461241191,0.0010000188836772,0.0000000044671558,4.7863247863247862
0.0000000000000000,0.0048163143910642,0.0048162698149099,0.0000000072245712,0.0010000467018561,0.0010000191223742,0.0000000045235173,4.8162393162393160
0.0000000000000000,0.0048462303266206,0.0048461849196428,0.0000000073606543,0.0010000472831821,0.0010000193625936,0.0000000045802364,4.8461538461538467
0.0000000000000000,0.0048761462803668,0.0048761000321065,0.0000000074984428,0.0010000478680956,0.0010000196043380,0.0000000046373134,4.8760683760683765
0.0000000000000000,0.0049060622513934,0.0049060151518461,0.0000000076378797,0.0010000484565973,0.0010000198476048,0.0000000046947481,4.9059829059829063
0.0000000000000000,0.0049359782406100,0.0049359302784069,0.0000000077790787,0.0010000490486872,0.0010000200923965,0.0000000047525408,4.9358974358974361
0.0000000000000000,0.0049658942471069,0.0049658454126984,0.0000000079220399,0.0010000496443636,0.0010000203387133,0.0000000048106914,4.9658119658119659
0.0000000000000000,0.0049958102708842,0.0049957605538111,0.0000000080665927,0.0010000502436283,0.0010000205865550,0.0000000048692004,4.9957264957264957
0.0000000000000000,0.0050257263137610,0.0050256757026546,0.0000000082130214,0.0010000508464794,0.0010000208359227,0.0000000049280671,5.0256410256410255
0.0000000000000000,0.0050556423748276,0.0050555908583192,0.0000000083611553,0.0010000514529187,0.0010000210868171,0.0000000049872926,5.0555555555555554
0.0000000000000000,0.0050855584540841,0.0050855060221693,0.0000000085110514,0.0010000520629445,0.0010000213392383,0.0000000050468758,5.0854700854700861
0.0000000000000000,0.0051154745506210,0.0051154211932953,0.0000000086627665,0.0010000526765568,0.0010000215931845,0.0000000051068179,5.1153846153846159
0.0000000000000000,0.0051453906662573,0.0051453363716973,0.0000000088161869,0.0010000532937564,0.0010000218486601,0.0000000051671181,5.1452991452991457
0.0000000000000000,0.0051753068009930,0.0051752515582848,0.0000000089714263,0.0010000539145425,0.0010000221056625,0.0000000052277771,5.1752136752136755
0.0000000000000000,0.0052052229548281,0.0052051667521482,0.0000000091284846,0.0010000545389142,0.0010000223641944,0.0000000052887947,5.2051282051282053
0.0000000000000000,0.0052351391268530,0.0052350819532876,0.0000000092874188,0.0010000551668732,0.0010000226242539,0.0000000053501710,5.2350427350427351
0.0000000000000000,0.0052650553170679,0.0052649971630672,0.0000000094481720,0.0010000557984178,0.0010000228858438,0.0000000054119060,5.2649572649572649
0.0000000000000000,0.0052949715263821,0.0052949123801227,0.0000000096106874,0.0010000564335479,0.0010000231489631,0.0000000054739999,5.2948717948717947
0.0000000000000000,0.0053248877547958,0.0053248276058184,0.0000000097751922,0.0010000570722646,0.0010000234136118,0.0000000055364529,5.3247863247863254
0.0000000000000000,0.0053548040032183,0.0053547428383354,0.0000000099415161,0.0010000577145659,0.0010000236797900,0.0000000055992646,5.3547008547008552
0.0000000000000000,0.0053847202698307,0.0053846580794925,0.0000000101096589,0.0010000583604528,0.0010000239475012,0.0000000056624356,5.3846153846153850
0.0000000000000000,0.0054146365564520,0.0054145733283804,0.0000000102797344,0.0010000590099253,0.0010000242167436,0.0000000057259659,5.4145299145299148
0.0000000000000000,0.0054445528621727,0.0054444885854537,0.0000000104517426,0.0010000596629824,0.0010000244875163,0.0000000057898555,5.4444444444444446
0.0000000000000000,0.0054744691879023,0.0054744038507124,0.0000000106256266,0.0010000603196261,0.0010000247598230,0.0000000058541043,5.4743589743589745
0.0000000000000000,0.0055043855336407,0.0055043191241566,0.0000000108014433,0.0010000609798526,0.0010000250336617,0.0000000059187126,5.5042735042735043
0.0000000000000000,0.0055343018984786,0.0055342344057863,0.0000000109791927,0.0010000616436647,0.0010000253090334,0.0000000059836804,5.5341880341880341
0.0000000000000000,0.0055642182833253,0.0055641496956014,0.0000000111588747,0.0010000623110624,0.0010000255859399,0.0000000060490077,5.5641025641025648
0.0000000000000000,0.0055941346890904,0.0055940649936019,0.0000000113404894,0.0010000629820430,0.0010000258643785,0.0000000061146945,5.5940170940170946
0.0000000000000000,0.0056240511139549,0.0056239802993332,0.0000000115241505,0.0010000636566083,0.0010000261443528,0.0000000061807415,5.6239316239316244
0.0000000000000000,0.0056539675597378,0.0056538956146142,0.0000000117096874,0.0010000643347574,0.0010000264258609,0.0000000062471481,5.6538461538461542
0.0000000000000000,0.0056838840255296,0.0056838109376258,0.0000000118973276,0.0010000650164912,0.0010000267089056,0.0000000063139147,5.6837606837606840
0.0000000000000000,0.0057138005113302,0.0057137262692777,0.0000000120869004,0.0010000657018088,0.0010000269934860,0.0000000063810410,5.7136752136752138
0.0000000000000000,0.0057437170189587,0.0057436416095697,0.0000000122784627,0.0010000663907084,0.0010000272796020,0.0000000064485277,5.7435897435897436
0.0000000000000000,0.0057736335456866,0.0057735569585020,0.0000000124721282,0.0010000670831936,0.0010000275672555,0.0000000065163743,5.7735042735042734
0.0000000000000000,0.0058035500942424,0.0058034723156197,0.0000000126677264,0.0010000677792616,0.0010000278564455,0.0000000065845815,5.8034188034188032
0.0000000000000000,0.0058334666637165,0.0058333876813776,0.0000000128654278,0.0010000684789118,0.0010000281471729,0.0000000066531487,5.8333333333333339
0.0000000000000000,0.0058633832541091,0.0058633030562305,0.0000000130651756,0.0010000691821457,0.0010000284394387,0.0000000067220765,5.8632478632478637
0.0000000000000000,0.0058932998645105,0.0058932184397236,0.0000000132670266,0.0010000698889625,0.0010000287332428,0.0000000067913646,5.8931623931623935
0.0000000000000000,0.0059232164976493,0.0059231338323116,0.0000000134708671,0.0010000705993622,0.0010000290285861,0.0000000068610133,5.9230769230769234
0.0000000000000000,0.0059531331517064,0.0059530492330850,0.0000000136768676,0.0010000713133440,0.0010000293254677,0.0000000069310226,5.9529914529914532
0.0000000000000000,0.0059830498266820,0.0059829646429534,0.0000000138849714,0.0010000720309087,0.0010000296238895,0.0000000070013928,5.9829059829059830
0.0000000000000000,0.0060129665234854,0.0060128800623716,0.0000000140951784,0.0010000727520554,0.0010000299238522,0.0000000070721236,6.0128205128205128
0.0000000000000000,0.0060428832421167,0.0060427954904299,0.0000000143074317,0.0010000734767850,0.0010000302253550,0.0000000071432151,6.0427350427350426
0.0000000000000000,0.0060727999816663,0.0060727109275831,0.0000000145218451,0.0010000742050957,0.0010000305283979,0.0000000072146680,6.0726495726495733
0.0000000000000000,0.0061027167439534,0.0061026263733766,0.0000000147384753,0.0010000749369876,0.0010000308329836,0.0000000072864816,6.1025641025641031
0.0000000000000000,0.0061326335280683,0.0061325418287197,0.0000000149572088,0.0010000756724633,0.0010000311391112,0.0000000073586564,6.1324786324786329
0.0000000000000000,0.0061625503340110,0.0061624572931578,0.0000000151781592,0.0010000764115192,0.0010000314467806,0.0000000074311926,6.1623931623931627
0.0000000000000000,0.0061924671617817,0.0061923727671456,0.0000000154012127,0.0010000771541563,0.0010000317559937,0.0000000075040896,6.1923076923076925
0.0000000000000000,0.0062223840131992,0.0062222882497736,0.0000000156264832,0.0010000779003745,0.0010000320667487,0.0000000075773483,6.2222222222222223
0.0000000000000000,0.0062523008846256,0.0062522037424060,0.0000000158539137,0.0010000786501747,0.0010000323790482,0.0000000076509683,6.2521367521367521
0.0000000000000000,0.0062822177796988,0.0062821192436786,0.0000000160836180,0.0010000794035552,0.0010000326928923,0.0000000077249498,6.2820512820512819
0.0000000000000000,0.0063121346975095,0.0063120347549557,0.0000000163154823,0.0010000801605168,0.0010000330082791,0.0000000077992928,6.3119658119658126
0.0000000000000000,0.0063420516380575,0.0063419502753277,0.0000000165496772,0.0010000809210595,0.0010000333252131,0.0000000078739977,6.3418803418803424
0.0000000000000000,0.0063719686013428,0.0063718658057041,0.0000000167860321,0.0010000816851816,0.0010000336436908,0.0000000079490643,6.3717948717948723
0.0000000000000000,0.0064018855873655,0.0064017813456303,0.0000000170246608,0.0010000824528840,0.0010000339637157,0.0000000080244926,6.4017094017094021
0.0000000000000000,0.0064318025970351,0.0064316968946514,0.0000000172655632,0.0010000832241666,0.0010000342852861,0.0000000081002829,6.4316239316239319
0.0000000000000000,0.0064617196294421,0.0064616124536769,0.0000000175087393,0.0010000839990294,0.0010000346084036,0.0000000081764351,6.4615384615384617
0.0000000000000000,0.0064916366845864,0.0064915280227069,0.0000000177541892,0.0010000847774725,0.0010000349330683,0.0000000082529497,6.4914529914529915
0.0000000000000000,0.0065215537633776,0.0065214436008318,0.0000000180019697,0.0010000855594949,0.0010000352592803,0.0000000083298259,6.5213675213675213
0.0000000000000000,0.0065514708649061,0.0065513591894160,0.0000000182520239,0.0010000863450967,0.0010000355870403,0.0000000084070646,6.5512820512820520
0.0000000000000000,0.0065813879919006,0.0065812747870950,0.0000000185044655,0.0010000871342779,0.0010000359163493,0.0000000084846659,6.5811965811965818
0.0000000000000000,0.0066113051407228,0.0066111903952333,0.0000000187592377,0.0010000879270393,0.0010000362472065,0.0000000085626291,6.6111111111111116
0.0000000000000000,0.0066412223141015,0.0066411060138307,0.0000000190162837,0.0010000887233792,0.0010000365796135,0.0000000086409548,6.6410256410256414
0.0000000000000000,0.0066711395111270,0.0066710216415231,0.0000000192757170,0.0010000895232976,0.0010000369135703,0.0000000087196432,6.6709401709401712
0.0000000000000000,0.0067010567308898,0.0067009372796747,0.0000000195375378,0.0010000903267944,0.0010000372490770,0.0000000087986942,6.7008547008547010
0.0000000000000000,0.0067309739761185,0.0067308529278307,0.0000000198017460,0.0010000911338715,0.0010000375861345,0.0000000088781080,6.7307692307692308
0.0000000000000000,0.0067608912449941,0.0067607685859912,0.0000000200683417,0.0010000919445252,0.0010000379247437,0.0000000089578844,6.7606837606837606
0.0000000000000000,0.0067908085384261,0.0067906842546108,0.0000000203373247,0.0010000927587575,0.0010000382649036,0.0000000090380239,6.7905982905982905
0.0000000000000000,0.0068207258555049,0.0068205999336897,0.0000000206086952,0.0010000935765691,0.0010000386066160,0.0000000091185259,6.8205128205128212
0.0000000000000000,0.0068506431980495,0.0068505156227729,0.0000000208825099,0.0010000943979573,0.0010000389498801,0.0000000091993915,6.8504273504273510
0.0000000000000000,0.0068805605651505,0.0068804313223154,0.0000000211588258,0.0010000952229241,0.0010000392946976,0.0000000092806198,6.8803418803418808
0.0000000000000000,0.0069104779568079,0.0069103470323171,0.0000000214375291,0.0010000960514684,0.0010000396410685,0.0000000093622115,6.9102564102564106
0.0000000000000000,0.0069403953721121,0.0069402627523232,0.0000000217186766,0.0010000968835904,0.0010000399889938,0.0000000094441663,6.9401709401709404
0.0000000000000000,0.0069703128128822,0.0069701784836980,0.0000000220023821,0.0010000977192899,0.0010000403384716,0.0000000095264845,6.9700854700854702
0.0000000000000000,0.0070002302791181,0.0070000942250772,0.0000000222884751,0.0010000985585661,0.0010000406895045,0.0000000096091659,7.0000000000000000
