0,0.79118,0.29943,-0.12925,0.72
0,0.86032,0.30583,-0.11992,0.76
0,0.92871,0.30565,-0.11763,0.8
0,1.006,0.31053,-0.11441,0.84
0,1.0783,0.30876,-0.12984,0.88
0,1.1563,0.32054,-0.12221,0.92
0,1.2126,0.32131,-0.13579,0.96
0,1.2903,0.31286,-0.13108,1
0,1.3514,0.31152,-0.1233,1.04
0,1.4269,0.30284,-0.1144,1.08
0,1.4994,0.30401,-0.13698,1.12
0,1.5807,0.31948,-0.11521,1.16
0,1.646,0.32213,-0.04925,1.2
0,1.7112,0.30459,-0.12658,1.24
0,1.7748,0.31799,-0.11103,1.28
0,1.8475,0.31686,-0.11338,1.32
0,1.8964,0.30429,0.48944,1.36
0,1.9796,0.30179,-0.13016,1.4
0,2.0921,0.29262,-0.13546,1.44
0,2.1322,0.3158,-0.16503,1.48
0,2.201,0.30655,-0.1083,1.52
0,2.2708,0.3096,-0.18154,1.56
0,2.3397,0.32358,-0.11808,1.6
0,2.4203,0.30067,-0.10875,1.64
0,2.4777,0.31868,-0.15145,1.68
0,2.5551,0.31189,-0.11759,1.72
0,2.6223,0.31773,-0.11434,1.76
0,2.6909,0.30519,-0.12519,1.8
0,2.7585,0.31753,-0.12785,1.84
0,2.8328,0.30062,-0.11489,1.88
0,2.9223,0.3166,-0.10046,1.92
0,3.0021,0.28839,-0.13109,1.96
0,3.0383,0.38284,-0.17683,2
0,3.1376,0.32846,-0.077015,2.04
0,3.2012,0.37102,-0.11714,2.08
0,3.2441,0.31431,-0.10965,2.12
0,3.3198,0.3055,-0.10465,2.16
0,3.3822,0.3238,-0.10896,2.2
0,3.4855,0.31575,-0.13758,2.24
0,3.5353,0.31967,-0.11481,2.28
0,3.6035,0.30368,-0.11592,2.32
0,3.7004,0.29813,-0.12523,2.36
0,3.7705,0.26461,-0.10913,2.4
0,3.84,0.369,-0.10435,2.44
0,3.881,0.30874,-0.11165,2.48
0,3.9507,0.30804,-0.1178,2.52
0,4.0246,0.31475,-0.11638,2.56
0,4.0902,0.29505,-0.10305,2.6
0,4.2037,0.29272,-0.15509,2.64
0,4.2292,0.30482,-0.12232,2.68
0,4.3085,0.31699,-0.11829,2.72
0,4.3688,0.31458,-0.11548,2.76
0,4.4407,0.29555,-0.1104,2.8
0,4.4989,0.30648,-0.2518,2.84
0,4.5961,0.31121,-0.12803,2.88
0,4.6519,0.30749,-0.12296,2.92
0,4.8094,0.31449,-0.16671,2.96
0,4.7922,0.18025,-0.11064,3
0,4.8605,0.29704,-0.10944,3.04
0,4.928,0.31331,-0.11595,3.08
0,5.0115,0.36687,-0.11483,3.12
0,5.0652,0.30785,-0.12421,3.16
0,5.1288,0.3263,-0.11105,3.2
0,5.2103,0.30669,-0.1088,3.24
0,5.2935,0.32803,-0.11728,3.28
0,5.3391,0.31638,-0.1291,3.32
0,5.4582,0.2959,-0.16953,3.36
0,5.5544,0.35696,-0.15246,3.4
0,5.5567,0.31071,-0.12932,3.44
0,5.6322,0.32886,-0.10812,3.48
0,5.7016,0.30868,-0.10896,3.52
0,5.803,0.29123,-0.11965,3.56
0,5.8249,0.30182,-0.084645,3.6
0,5.9122,0.28881,-0.15621,3.64
0,5.964,0.3406,-0.11171,3.68
0,6.05,0.30362,-0.12135,3.72
0,6.1251,0.28736,-0.1178,3.76
0,6.1852,0.3032,-0.078961,3.8
0,6.2575,0.31124,-0.082675,3.84
0,6.3305,0.18714,-0.11581,3.88
0,6.4096,0.32172,-0.10817,3.92
0,6.4668,0.30171,-0.14248,3.96
0,6.5445,0.30322,-0.10474,4
0,6.6345,0.26304,-0.13407,4.04
0,6.681,0.30647,-0.1169,4.08
0,6.7449,0.31176,-0.15185,4.12
0,6.779,0.35427,-0.1336,4.16
0,6.904,0.30103,-0.13403,4.2
0,6.9751,0.30365,-0.10193,4.24
0,7.0276,0.30751,-0.10623,4.28
0,7.1024,0.31378,-0.11275,4.32
0,7.155,0.33217,-0.10548,4.36
0,7.238,0.34016,-0.11282,4.4
0,7.3181,0.32007,-0.12455,4.44
0,7.3763,0.29824,-0.098451,4.48
0,7.4495,0.30375,-0.11134,4.52
0,7.5238,0.30522,-0.11554,4.56
0,7.5601,0.3344,-0.10478,4.6
0,7.6597,0.30116,-0.13811,4.64
0,7.7216,0.31148,-0.14072,4.68
0,7.7989,0.34472,-0.10336,4.72
0,7.8668,0.28551,-0.10941,4.76
0,7.9475,0.33626,-0.12084,4.8
0,8.0079,0.29181,-0.14546,4.84
0,8.0675,0.28913,-0.074506,4.88
0,8.1447,0.29398,-0.14453,4.92
0,8.217,0.30327,-0.087917,4.96
0,8.2881,0.30928,-0.086844,5
0,8.3597,0.3081,-0.13392,5.04
0,8.4237,0.33519,-0.11852,5.08
0,8.4968,0.39383,-0.12037,5.12
0,8.5679,0.3017,-0.084878,5.16
0,8.6578,0.36425,-0.075931,5.2
0,8.7126,0.33147,-0.11995,5.24
0,8.7698,0.29908,-0.067999,5.28
0,8.8407,0.30058,-0.15767,5.32
0,8.9161,0.32696,-0.11567,5.36
0,8.9742,0.30257,-0.16808,5.4
0,9.0547,0.28394,-0.12171,5.44
0,9.3409,0.30906,-0.081099,5.6
0,9.4074,0.31153,-0.081776,5.64
0,9.4656,0.36013,-0.11513,5.68
0,9.6016,0.35035,-0.11089,5.72
0,9.6185,0.2999,-0.11368,5.76
0,9.6854,0.30302,-0.11367,5.8
0,9.758,0.30129,-0.12016,5.84
0,9.8138,0.30174,-0.091097,5.88
0,9.9005,0.32872,-0.11332,5.92
0,9.9441,0.3029,-0.14009,5.96
0,10.022,0.34349,-0.11949,6
0,10.091,0.26519,-0.11357,6.04
