0.0000000000000000,6062.5170171848003520,3460.7688477363849415,415.3286745049431943,-3.7551330873621263,6.4359656994191790,1.2326251882873298,0.0000000000000000
0.0000000000000000,6062.1414685468489552,3461.4124241357044411,415.4519346029213125,-3.7558396764633271,6.4355622952450364,1.2325767728598298,0.1000000000000000
0.0000000000000000,6061.7658492520995424,3462.0559601910013043,415.5751898586659649,-3.7565462217031134,6.4351588161106710,1.2325283430720129,0.2000000000000000
0.0000000000000000,6061.3901593047712595,3462.6994558950609644,415.6984402707952313,-3.7572527230735524,6.4347552620206345,1.2324798989244263,0.3000000000000000
0.0000000000000000,6061.0143987097371792,3463.3429112395601805,415.8216858377143126,-3.7579591805654911,6.4343516329801851,1.2324314404177030,0.4000000000000000
0.0000000000000000,6060.6385674696102797,3463.9863262200587997,415.9449265585720923,-3.7586655941740457,6.4339479289921409,1.2323829675521827,0.5000000000000000
0.0000000000000000,6060.2626655892854615,3464.6297008282053866,416.0681624317685987,-3.7593719638900325,6.4335441500617812,1.2323344803285010,0.6000000000000001
0.0000000000000000,6059.8866930733720437,3465.2730350561314481,416.1913934557961738,-3.7600782897047988,6.4331402961940771,1.2322859787472562,0.7000000000000001
0.0000000000000000,6059.5106499264775266,3465.9163288959680358,416.3146196291472165,-3.7607845716096908,6.4327363673940008,1.2322374628090467,0.8000000000000000
0.0000000000000000,6059.1345361532130482,3466.5595823398457469,416.4378409503141825,-3.7614908095960553,6.4323323636665215,1.2321889325144708,0.9000000000000000
0.0000000000000000,6058.7583517581851993,3467.2027953798965427,416.5610574177894136,-3.7621970036552392,6.4319282850166131,1.2321403878641266,1.0000000000000000
0.0000000000000000,6058.3820967460042084,3467.8459680082510204,416.6842690300653658,-3.7629031537785886,6.4315241314492448,1.2320918288586125,1.1000000000000001
0.0000000000000000,6058.0057711212793947,3468.4891002170406864,416.8074757856343808,-3.7636092599574509,6.4311199029693888,1.2320432554985268,1.2000000000000002
0.0000000000000000,6057.6293748886182584,3469.1321919983965927,416.9306776829889145,-3.7643153221831720,6.4307155995820162,1.2319946677844678,1.3000000000000000
0.0000000000000000,6057.2529080526301186,3469.7752433444493363,417.0538747206213088,-3.7650213404470994,6.4303112212920990,1.2319460657170338,1.4000000000000001
0.0000000000000000,6056.8763706179242945,3470.4182542473308786,417.1770668970240763,-3.7657273147405790,6.4299067681046074,1.2318974492968233,1.5000000000000000
0.0000000000000000,6056.4997625890982818,3471.0612246991918255,417.3002542106933106,-3.7664332450549796,6.4295022400245010,1.2318488185244327,1.6000000000000001
0.0000000000000000,6056.1230839699228454,3471.7041546936770828,417.4234366604100614,-3.7671391313833125,6.4290976370558468,1.2318001734003547,1.7000000000000002
0.0000000000000000,6055.7463347643333691,3472.3470442241327873,417.5466142448981373,-3.7678449737182604,6.4286929592028894,1.2317515139251021,1.8000000000000000
0.0000000000000000,6055.3695149767290786,3472.9898932830692502,417.6697869627224691,-3.7685507720515870,6.4282882064703735,1.2317028400992467,1.9000000000000001
0.0000000000000000,6054.9926246115073809,3473.6327018629986014,417.7929548124478174,-3.7692565263750577,6.4278833788630436,1.2316541519233601,2.0000000000000000
0.0000000000000000,6054.6156636730684113,3474.2754699564311522,417.9161177926390565,-3.7699622366804357,6.4274784763856427,1.2316054493980140,2.1000000000000001
0.0000000000000000,6054.2386321658086672,3474.9181975558781232,418.0392759018609468,-3.7706679029594867,6.4270734990429164,1.2315567325237797,2.2000000000000002
0.0000000000000000,6053.8615300941282840,3475.5608846538507350,418.1624291386783057,-3.7713735252039742,6.4266684468396074,1.2315080013012294,2.3000000000000003
0.0000000000000000,6053.4843574624246685,3476.2035312428597535,418.2855775016560074,-3.7720791034056633,6.4262633197804604,1.2314592557309345,2.4000000000000004
0.0000000000000000,6053.1071142750970466,3476.8461373154163994,418.4087209893588692,-3.7727846375563177,6.4258581178702210,1.2314104958134666,2.5000000000000000
0.0000000000000000,6052.7298005365428253,3477.4887028640314384,418.5318596003516518,-3.7734901276477024,6.4254528411136311,1.2313617215493975,2.6000000000000001
0.0000000000000000,6052.3524162511621398,3478.1312278812165459,418.6549933331992861,-3.7741955736715815,6.4250474895154364,1.2313129329392987,2.7000000000000002
0.0000000000000000,6051.9749614233514876,3478.7737123594820332,418.7781221864664190,-3.7749009756197198,6.4246420630803813,1.2312641299837419,2.8000000000000003
0.0000000000000000,6051.5974360575373794,3479.4161562913559465,418.9012461587199709,-3.7756063334838990,6.4242365618132373,1.2312153126833043,2.9000000000000004
0.0000000000000000,6051.2198401581608778,3480.0585596693726984,419.0243652485276016,-3.7763116472559104,6.4238309857187961,1.2311664810385667,3.0000000000000000
0.0000000000000000,6050.8421737296321226,3480.7009224860494214,419.1474794544548672,-3.7770169169275247,6.4234253348018120,1.2311176350501023,3.1000000000000001
0.0000000000000000,6050.4644367763576156,3481.3432447339037026,419.2705887750673241,-3.7777221424905130,6.4230196090670404,1.2310687747184850,3.2000000000000002
0.0000000000000000,6050.0866293027474967,3481.9855264054517647,419.3936932089304150,-3.7784273239366462,6.4226138085192348,1.2310199000442885,3.3000000000000003
0.0000000000000000,6049.7087513132082677,3482.6277674932102855,419.5167927546097530,-3.7791324612576944,6.4222079331631505,1.2309710110280867,3.4000000000000004
0.0000000000000000,6049.3308028121500683,3483.2699679896968519,419.6398874106708377,-3.7798375544454288,6.4218019830035429,1.2309221076704528,3.5000000000000000
0.0000000000000000,6048.9527838039812195,3483.9121278874276868,419.7629771756791115,-3.7805426034916203,6.4213959580451672,1.2308731899719612,3.6000000000000001
0.0000000000000000,6048.5746942931091326,3484.5542471789199226,419.8860620482001309,-3.7812476083880395,6.4209898582927769,1.2308242579331850,3.7000000000000002
0.0000000000000000,6048.1965342839421282,3485.1963258566902368,420.0091420267993954,-3.7819525691264571,6.4205836837511274,1.2307753115546980,3.8000000000000003
0.0000000000000000,6047.8183037808903464,3485.8383639132553071,420.1322171100425180,-3.7826574856986439,6.4201774344249740,1.2307263508370740,3.9000000000000004
0.0000000000000000,6047.4400027883611983,3486.4803613411322658,420.2552872964948847,-3.7833623580963711,6.4197711103190711,1.2306773757808869,4.0000000000000000
0.0000000000000000,6047.0616313113769138,3487.1223181331929482,420.3783525847649685,-3.7840671863117983,6.4193647114388277,1.2306283863868357,4.1000000000000005
0.0000000000000000,6046.6831893530188609,3487.7642342811859635,420.5014129733255004,-3.7847719703358540,6.4189582377875842,1.2305793826552225,4.2000000000000002
0.0000000000000000,6046.3046769185320954,3488.4061097781127501,420.6244684608005286,-3.7854767101608409,6.4185516893709877,1.2305303645867924,4.2999999999999998
0.0000000000000000,6045.9260940123276669,3489.0479446164913497,420.7475190457557801,-3.7861814057785304,6.4181450661937953,1.2304813321821197,4.4000000000000004
0.0000000000000000,6045.5474406388166244,3489.6897387888402591,420.8705647267568111,-3.7868860571806948,6.4177383682607640,1.2304322854417784,4.5000000000000000
0.0000000000000000,6045.1687168024109269,3490.3314922876784294,420.9936055023694621,-3.7875906643591075,6.4173315955766528,1.2303832243663428,4.6000000000000005
0.0000000000000000,6044.7899225075234426,3490.9732051055243574,421.1166413711595737,-3.7882952273055421,6.4169247481462213,1.2303341489563877,4.7000000000000002
0.0000000000000000,6044.4110577585670399,3491.6148772348988132,421.2396723316929297,-3.7889997460117724,6.4165178259742293,1.2302850592124877,4.8000000000000007
0.0000000000000000,6044.0321225599573154,3492.2565086683216578,421.3626983825355410,-3.7897042204695728,6.4161108290654374,1.2302359551352176,4.9000000000000004
0.0000000000000000,6043.6531169161080470,3492.8980993983132066,421.4857195222534187,-3.7904086506707184,6.4157037574246090,1.2301868367251529,5.0000000000000000
0.0000000000000000,6043.2740408314357410,3493.5396494173955944,421.6087357494125172,-3.7911130366069852,6.4152966110565064,1.2301377039828685,5.1000000000000005
0.0000000000000000,6042.8948943103587226,3494.1811587180895913,421.7317470625789610,-3.7918173782701485,6.4148893899658930,1.2300885569089397,5.2000000000000002
0.0000000000000000,6042.5156773573207829,3494.8226272929350671,421.8547534603210920,-3.7925216756520039,6.4144820941575649,1.2300393955039484,5.3000000000000007
0.0000000000000000,6042.1363899769057753,3495.4640551345532913,421.9777549412171993,-3.7932259287444374,6.4140747236364604,1.2299902197685035,5.4000000000000004
0.0000000000000000,6041.7570321735638572,3496.1054422354859526,422.1007515038358520,-3.7939301375392467,6.4136672784073800,1.2299410297031876,5.5000000000000000
0.0000000000000000,6041.3776039517206300,3496.7467885882601877,422.2237431467438569,-3.7946343020282138,6.4132597584750970,1.2298918253085778,5.6000000000000005
0.0000000000000000,6040.9981053158026043,3497.3880941854035882,422.3467298685079641,-3.7953384222031206,6.4128521638443852,1.2298426065852515,5.7000000000000002
0.0000000000000000,6040.6185362702372004,3498.0293590194437456,422.4697116676950372,-3.7960424980557508,6.4124444945200185,1.2297933735337860,5.8000000000000007
0.0000000000000000,6040.2388968194527479,3498.6705830829091610,422.5926885428719970,-3.7967465295778871,6.4120367505067746,1.2297441261547595,5.9000000000000004
0.0000000000000000,6039.8591869678775765,3499.3117663683283354,422.7156604926057639,-3.7974505167613133,6.4116289318094291,1.2296948644487495,6.0000000000000000
0.0000000000000000,6039.4794067199409255,3499.9529088682311340,422.8386275154634859,-3.7981544595978147,6.4112210384327595,1.2296455884163344,6.1000000000000005
0.0000000000000000,6039.0995560800756721,3500.5940105751465126,422.9615896100121972,-3.7988583580791753,6.4108130703815451,1.2295962980580923,6.2000000000000002
0.0000000000000000,6038.7196350527119648,3501.2350714816061554,423.0845467748190458,-3.7995622121971815,6.4104050276605644,1.2295469933746015,6.3000000000000007
0.0000000000000000,6038.3396436422826810,3501.8760915801394731,423.2074990084512365,-3.8002660219436195,6.4099969102745984,1.2294976743664408,6.4000000000000004
0.0000000000000000,6037.9595818532206977,3502.5170708632790593,423.3304463094760877,-3.8009697873102750,6.4095887182284290,1.2294483410341888,6.5000000000000000
0.0000000000000000,6037.5794496899598016,3503.1580093235561435,423.4533886764609178,-3.8016735082889364,6.4091804515268365,1.2293989933784246,6.6000000000000005
0.0000000000000000,6037.1992471569365080,3503.7989069535033195,423.5763261079731024,-3.8023771848713910,6.4087721101746062,1.2293496313997274,6.7000000000000002
0.0000000000000000,6036.8189742585864224,3504.4397637456536359,423.6992586025801302,-3.8030808170494268,6.4083636941765212,1.2293002550986765,6.8000000000000007
0.0000000000000000,6036.4386309993451505,3505.0805796925396862,423.8221861588495472,-3.8037844048148335,6.4079552035373659,1.2292508644758511,6.9000000000000004
0.0000000000000000,6036.0582173836519360,3505.7213547866963381,423.9451087753489560,-3.8044879481593998,6.4075466382619268,1.2292014595318312,7.0000000000000000
0.0000000000000000,6035.6777334159432939,3506.3620890206570948,424.0680264506459025,-3.8051914470749160,6.4071379983549921,1.2291520402671965,7.1000000000000005
0.0000000000000000,6035.2971791006602871,3507.0027823869572785,424.1909391833081600,-3.8058949015531724,6.4067292838213472,1.2291026066825270,7.2000000000000002
0.0000000000000000,6034.9165544422430685,3507.6434348781322115,424.3138469719034447,-3.8065983115859607,6.4063204946657821,1.2290531587784030,7.3000000000000007
0.0000000000000000,6034.5358594451327008,3508.2840464867181254,424.4367498149996436,-3.8073016771650718,6.4059116308930859,1.2290036965554050,7.4000000000000004
0.0000000000000000,6034.1550941137702466,3508.9246172052507973,424.5596477111645868,-3.8080049982822985,6.4055026925080503,1.2289542200141133,7.5000000000000000
0.0000000000000000,6033.7742584525994971,3509.5651470262673683,424.6825406589662748,-3.8087082749294332,6.4050936795154652,1.2289047291551087,7.6000000000000005
0.0000000000000000,6033.3933524660633338,3510.2056359423054346,424.8054286569726514,-3.8094115070982695,6.4046845919201241,1.2288552239789721,7.7000000000000002
0.0000000000000000,6033.0123761586073670,3510.8460839459025919,424.9283117037518878,-3.8101146947806011,6.4042754297268196,1.2288057044862846,7.8000000000000007
0.0000000000000000,6032.6313295346762970,3511.4864910295973459,425.0511897978719844,-3.8108178379682220,6.4038661929403462,1.2287561706776275,7.9000000000000004
0.0000000000000000,6032.2502125987166437,3512.1268571859282019,425.1740629379012262,-3.8115209366529279,6.4034568815654991,1.2287066225535823,8.0000000000000000
0.0000000000000000,6031.8690253551758360,3512.7671824074354845,425.2969311224077842,-3.8122239908265136,6.4030474956070744,1.2286570601147304,8.0999999999999996
0.0000000000000000,6031.4877678085013031,3513.4074666866586085,425.4197943499600001,-3.8129270004807756,6.4026380350698684,1.2286074833616538,8.2000000000000011
0.0000000000000000,6031.1064399631432025,3514.0477100161374437,425.5426526191263292,-3.8136299656075106,6.4022284999586798,1.2285578922949343,8.3000000000000007
0.0000000000000000,6030.7250418235498728,3514.6879123884136789,425.6655059284750564,-3.8143328861985153,6.4018188902783075,1.2285082869151542,8.4000000000000004
0.0000000000000000,6030.3435733941732906,3515.3280737960280931,425.7883542765748075,-3.8150357622455875,6.4014092060335512,1.2284586672228959,8.5000000000000000
0.0000000000000000,6029.9620346794636134,3515.9681942315232845,425.9111976619940378,-3.8157385937405257,6.4009994472292107,1.2284090332187416,8.5999999999999996
0.0000000000000000,6029.5804256838746369,3516.6082736874413968,426.0340360833014302,-3.8164413806751285,6.4005896138700882,1.2283593849032741,8.7000000000000011
0.0000000000000000,6029.1987464118583375,3517.2483121563250279,426.1568695390656103,-3.8171441230411953,6.4001797059609871,1.2283097222770765,8.8000000000000007
0.0000000000000000,6028.8169968678694204,3517.8883096307176856,426.2796980278553178,-3.8178468208305261,6.3997697235067088,1.2282600453407313,8.9000000000000004
0.0000000000000000,6028.4351770563625905,3518.5282661031637872,426.4025215482394060,-3.8185494740349215,6.3993596665120593,1.2282103540948224,9.0000000000000000
0.0000000000000000,6028.0532869817943720,3519.1681815662068402,426.5253400987866712,-3.8192520826461820,6.3989495349818437,1.2281606485399326,9.0999999999999996
0.0000000000000000,6027.6713266486212888,3519.8080560123930809,426.6481536780660235,-3.8199546466561096,6.3985393289208679,1.2281109286766456,9.2000000000000011
0.0000000000000000,6027.2892960612998650,3520.4478894342664717,426.7709622846464868,-3.8206571660565061,6.3981290483339386,1.2280611945055453,9.3000000000000007
0.0000000000000000,6026.9071952242893531,3521.0876818243741582,426.8937659170970846,-3.8213596408391743,6.3977186932258645,1.2280114460272156,9.4000000000000004
0.0000000000000000,6026.5250241420499151,3521.7274331752614671,427.0165645739869547,-3.8220620709959179,6.3973082636014542,1.2279616832422404,9.5000000000000000
0.0000000000000000,6026.1427828190398941,3522.3671434794764536,427.1393582538851774,-3.8227644565185397,6.3968977594655181,1.2279119061512043,9.6000000000000014
0.0000000000000000,6025.7604712597221805,3523.0068127295658087,427.2621469553610041,-3.8234667973988445,6.3964871808228665,1.2278621147546913,9.7000000000000011
0.0000000000000000,6025.3780894685578460,3523.6464409180775874,427.3849306769837426,-3.8241690936286372,6.3960765276783107,1.2278123090532864,9.8000000000000007
0.0000000000000000,6024.9956374500088714,3524.2860280375602997,427.5077094173227010,-3.8248713451997234,6.3956658000366646,1.2277624890475742,9.9000000000000004
0.0000000000000000,6024.6131152085399663,3524.9255740805629102,427.6304831749473010,-3.8255735521039087,6.3952549979027404,1.2277126547381398,10.0000000000000000
0.0000000000000000,6024.2305227486149306,3525.5650790396348384,427.7532519484269642,-3.8262757143329997,6.3948441212813538,1.2276628061255683,10.1000000000000014
0.0000000000000000,6023.8478600747002929,3526.2045429073259584,427.8760157363313397,-3.8269778318788035,6.3944331701773196,1.2276129432104450,10.2000000000000011
0.0000000000000000,6023.4651271912616721,3526.8439656761870538,427.9987745372298491,-3.8276799047331274,6.3940221445954544,1.2275630659933554,10.3000000000000007
0.0000000000000000,6023.0823241027655968,3527.4833473387689082,428.1215283496922552,-3.8283819328877802,6.3936110445405747,1.2275131744748853,10.4000000000000004
0.0000000000000000,6022.6994508136804143,3528.1226878876223054,428.2442771722882071,-3.8290839163345702,6.3931998700174999,1.2274632686556204,10.5000000000000000
0.0000000000000000,6022.3165073284744722,3528.7619873153003027,428.3670210035875243,-3.8297858550653068,6.3927886210310483,1.2274133485361469,10.6000000000000014
0.0000000000000000,6021.9334936516188463,3529.4012456143545933,428.4897598421599696,-3.8304877490717995,6.3923772975860400,1.2273634141170509,10.7000000000000011
0.0000000000000000,6021.5504097875827938,3530.0404627773386892,428.6124936865754762,-3.8311895983458588,6.3919658996872970,1.2273134653989188,10.8000000000000007
0.0000000000000000,6021.1672557408392095,3530.6796387968051931,428.7352225354039774,-3.8318914028792963,6.3915544273396394,1.2272635023823371,10.9000000000000004
0.0000000000000000,6020.7840315158582598,3531.3187736653089814,428.8579463872155202,-3.8325931626639225,6.3911428805478909,1.2272135250678928,11.0000000000000000
0.0000000000000000,6020.4007371171146588,3531.9578673754040210,428.9806652405800946,-3.8332948776915496,6.3907312593168752,1.2271635334561726,11.1000000000000014
0.0000000000000000,6020.0173725490822108,3532.5969199196456429,429.1033790940679182,-3.8339965479539910,6.3903195636514161,1.2271135275477636,11.2000000000000011
0.0000000000000000,6019.6339378162356297,3533.2359312905887236,429.2260879462490948,-3.8346981734430585,6.3899077935563406,1.2270635073432532,11.3000000000000007
0.0000000000000000,6019.2504329230505391,3533.8749014807899584,429.3487917956939555,-3.8353997541505671,6.3894959490364753,1.2270134728432287,11.4000000000000004
0.0000000000000000,6018.8668578740043813,3534.5138304828051332,429.4714906409727746,-3.8361012900683300,6.3890840300966456,1.2269634240482779,11.5000000000000000
0.0000000000000000,6018.4832126735727797,3535.1527182891913981,429.5941844806559402,-3.8368027811881622,6.3886720367416814,1.2269133609589886,11.6000000000000014
0.0000000000000000,6018.0994973262359053,3535.7915648925068126,429.7168733133138971,-3.8375042275018796,6.3882599689764117,1.2268632835759485,11.7000000000000011
0.0000000000000000,6017.7157118364730195,3536.4303702853089817,429.8395571375171471,-3.8382056290012971,6.3878478268056664,1.2268131918997462,11.8000000000000007
0.0000000000000000,6017.3318562087633836,3537.0691344601559649,429.9622359518361918,-3.8389069856782321,6.3874356102342773,1.2267630859309697,11.9000000000000004
0.0000000000000000,6016.9479304475871686,3537.7078574096071861,430.0849097548416466,-3.8396082975245007,6.3870233192670751,1.2267129656702076,12.0000000000000000
0.0000000000000000,6016.5639345574281833,3538.3465391262220692,430.2075785451042975,-3.8403095645319212,6.3866109539088942,1.2266628311180487,12.1000000000000014
0.0000000000000000,6016.1798685427684177,3538.9851796025604926,430.3302423211947598,-3.8410107866923111,6.3861985141645672,1.2266126822750818,12.2000000000000011
0.0000000000000000,6015.7957324080907711,3539.6237788311832446,430.4529010816839332,-3.8417119639974895,6.3857860000389293,1.2265625191418958,12.3000000000000007
0.0000000000000000,6015.4115261578799618,3540.2623368046511132,430.5755548251425466,-3.8424130964392749,6.3853734115368166,1.2265123417190804,12.4000000000000004
0.0000000000000000,6015.0272497966207084,3540.9008535155253412,430.6982035501416703,-3.8431141840094876,6.3849607486630653,1.2264621500072244,12.5000000000000000
0.0000000000000000,6014.6429033288013670,3541.5393289563685357,430.8208472552522039,-3.8438152266999479,6.3845480114225133,1.2264119440069177,12.6000000000000014
0.0000000000000000,6014.2584867589066562,3542.1777631197428491,430.9434859390452175,-3.8445162245024762,6.3841351998199984,1.2263617237187499,12.7000000000000011
0.0000000000000000,6013.8740000914249322,3542.8161559982108884,431.0661196000917812,-3.8452171774088941,6.3837223138603605,1.2263114891433109,12.8000000000000007
0.0000000000000000,6013.4894433308454609,3543.4545075843370796,431.1887482369630220,-3.8459180854110233,6.3833093535484391,1.2262612402811912,12.9000000000000004
0.0000000000000000,6013.1048164816575081,3544.0928178706844847,431.3113718482302943,-3.8466189485006868,6.3828963188890775,1.2262109771329808,13.0000000000000000
0.0000000000000000,6012.7201195483521587,3544.7310868498184391,431.4339904324647819,-3.8473197666697070,6.3824832098871154,1.2261606996992700,13.1000000000000014
0.0000000000000000,6012.3353525354195881,3545.3693145143033689,431.5566039882378391,-3.8480205399099083,6.3820700265473969,1.2261104079806495,13.2000000000000011
0.0000000000000000,6011.9505154473536095,3546.0075008567046098,431.6792125141208771,-3.8487212682131138,6.3816567688747670,1.2260601019777104,13.3000000000000007
0.0000000000000000,6011.5656082886462173,3546.6456458695888614,431.8018160086854209,-3.8494219515711490,6.3812434368740689,1.2260097816910436,13.4000000000000004
0.0000000000000000,6011.1806310637912247,3547.2837495455223689,431.9244144705028816,-3.8501225899758387,6.3808300305501486,1.2259594471212401,13.5000000000000000
0.0000000000000000,6010.7955837772842642,3547.9218118770718320,432.0470078981449547,-3.8508231834190085,6.3804165499078547,1.2259090982688914,13.6000000000000014
0.0000000000000000,6010.4104664336200585,3548.5598328568053148,432.1695962901832786,-3.8515237318924855,6.3800029949520329,1.2258587351345889,13.7000000000000011
0.0000000000000000,6010.0252790372960590,3549.1978124772904266,432.2921796451894920,-3.8522242353880958,6.3795893656875329,1.2258083577189243,13.8000000000000007
0.0000000000000000,6009.6400215928097168,3549.8357507310961410,432.4147579617354040,-3.8529246938976676,6.3791756621192031,1.2257579660224895,13.9000000000000004
0.0000000000000000,6009.2546941046575739,3550.4736476107905219,432.5373312383928237,-3.8536251074130279,6.3787618842518947,1.2257075600458767,14.0000000000000000
0.0000000000000000,6008.8692965773416290,3551.1115031089443619,432.6598994737337307,-3.8543254759260059,6.3783480320904600,1.2256571397896781,14.1000000000000014
0.0000000000000000,6008.4838290153593334,3551.7493172181270893,432.7824626663299341,-3.8550257994284305,6.3779341056397492,1.2256067052544859,14.2000000000000011
0.0000000000000000,6008.0982914232126859,3552.3870899309090419,432.9050208147535841,-3.8557260779121312,6.3775201049046171,1.2255562564408926,14.3000000000000007
0.0000000000000000,6007.7126838054036853,3553.0248212398614669,433.0275739175766603,-3.8564263113689385,6.3771060298899176,1.2255057933494915,14.4000000000000004
0.0000000000000000,6007.3270061664343302,3553.6625111375556116,433.1501219733713697,-3.8571264997906827,6.3766918806005055,1.2254553159808750,14.5000000000000000
0.0000000000000000,6006.9412585108084386,3554.3001596165640876,433.2726649807098624,-3.8578266431691959,6.3762776570412356,1.2254048243356366,14.6000000000000014
0.0000000000000000,6006.5554408430298281,3554.9377666694595064,433.3952029381644024,-3.8585267414963087,6.3758633592169671,1.2253543184143691,14.7000000000000011
0.0000000000000000,6006.1695531676050450,3555.5753322888140247,433.5177358443072535,-3.8592267947638548,6.3754489871325566,1.2253037982176667,14.8000000000000007
0.0000000000000000,6005.7835954890388166,3556.2128564672020730,433.6402636977109069,-3.8599268029636660,6.3750345407928624,1.2252532637461222,14.9000000000000004
0.0000000000000000,6005.3975678118385986,3556.8503391971971723,433.7627864969476832,-3.8606267660875764,6.3746200202027454,1.2252027150003302,15.0000000000000000
0.0000000000000000,6005.0114701405118467,3557.4877804713742080,433.8853042405901874,-3.8613266841274201,6.3742054253670650,1.2251521519808841,15.1000000000000014
0.0000000000000000,6004.6253024795669262,3558.1251802823080652,434.0078169272109108,-3.8620265570750312,6.3737907562906830,1.2251015746883784,15.2000000000000011
0.0000000000000000,6004.2390648335149308,3558.7625386225740840,434.1303245553824581,-3.8627263849222455,6.3733760129784622,1.2250509831234073,15.3000000000000007
0.0000000000000000,6003.8527572068651352,3559.3998554847489686,434.2528271236775481,-3.8634261676608981,6.3729611954352654,1.2250003772865656,15.4000000000000004
0.0000000000000000,6003.4663796041286332,3560.0371308614085137,434.3753246306689562,-3.8641259052828252,6.3725463036659580,1.2249497571784478,15.5000000000000000
0.0000000000000000,6003.0799320298183375,3560.6743647451303332,434.4978170749294009,-3.8648255977798640,6.3721313376754036,1.2248991227996486,15.6000000000000014
0.0000000000000000,6002.6934144884471607,3561.3115571284920406,434.6203044550317713,-3.8655252451438518,6.3717162974684696,1.2248484741507633,15.7000000000000011
0.0000000000000000,6002.3068269845280156,3561.9487080040712499,434.7427867695490704,-3.8662248473666265,6.3713011830500221,1.2247978112323872,15.8000000000000007
0.0000000000000000,6001.9201695225765434,3562.5858173644464841,434.8652640170541872,-3.8669244044400264,6.3708859944249294,1.2247471340451155,15.9000000000000004
0.0000000000000000,6001.5334421071074757,3563.2228852021976309,434.9877361961201814,-3.8676239163558903,6.3704707315980604,1.2246964425895441,16.0000000000000000
0.0000000000000000,6001.1466447426382729,3563.8599115099032133,435.1102033053201694,-3.8683233831060577,6.3700553945742850,1.2246457368662684,16.1000000000000014
0.0000000000000000,6000.7597774336854854,3564.4968962801440284,435.2326653432273247,-3.8690228046823694,6.3696399833584749,1.2245950168758846,16.1999999999999993
0.0000000000000000,6000.3728401847683926,3565.1338395055008732,435.3551223084148774,-3.8697221810766651,6.3692244979554999,1.2245442826189885,16.3000000000000007
0.0000000000000000,5999.9858330004044547,3565.7707411785540899,435.4775741994561145,-3.8704215122807866,6.3688089383702327,1.2244935340961769,16.4000000000000021
0.0000000000000000,5999.5987558851156791,3566.4076012918853849,435.6000210149243799,-3.8711207982865758,6.3683933046075483,1.2244427713080459,16.5000000000000000
0.0000000000000000,5999.2116088434204357,3567.0444198380773742,435.7224627533930743,-3.8718200390858746,6.3679775966723202,1.2243919942551924,16.6000000000000014
0.0000000000000000,5998.8243918798425511,3567.6811968097122190,435.8448994134356553,-3.8725192346705257,6.3675618145694237,1.2243412029382130,16.6999999999999993
0.0000000000000000,5998.4371049989031235,3568.3179321993729900,435.9673309936256942,-3.8732183850323727,6.3671459583037349,1.2242903973577048,16.8000000000000007
0.0000000000000000,5998.0497482051259794,3568.9546259996432127,436.0897574925367621,-3.8739174901632598,6.3667300278801315,1.2242395775142649,16.9000000000000021
0.0000000000000000,5997.6623215030349456,3569.5912782031077768,436.2121789087425441,-3.8746165500550309,6.3663140233034907,1.2241887434084910,17.0000000000000000
0.0000000000000000,5997.2748248971565772,3570.2278888023502077,436.3345952408166681,-3.8753155646995316,6.3658979445786930,1.2241378950409803,17.1000000000000014
0.0000000000000000,5996.8872583920156103,3570.8644577899563046,436.4570064873329329,-3.8760145340886076,6.3654817917106170,1.2240870324123305,17.1999999999999993
0.0000000000000000,5996.4996219921395095,3571.5009851585114120,436.5794126468652507,-3.8767134582141045,6.3650655647041443,1.2240361555231396,17.3000000000000007
0.0000000000000000,5996.1119157020548300,3572.1374709006013290,436.7018137179874202,-3.8774123370678693,6.3646492635641563,1.2239852643740057,17.4000000000000021
0.0000000000000000,5995.7241395262872174,3572.7739150088150382,436.8242096992738084,-3.8781111706417506,6.3642328882955308,1.2239343589655263,17.5000000000000000
0.0000000000000000,5995.3362934693304851,3573.4103174757501620,436.9466005893015677,-3.8788099589276115,6.3638164389031129,1.2238834392982934,17.6000000000000014
0.0000000000000000,5994.9483775357066406,3574.0466782939984114,437.0689863866455767,-3.8795087019173025,6.3633999153917777,1.2238325053729040,17.6999999999999993
0.0000000000000000,5994.5603917299458772,3574.6829974561474046,437.1913670898799182,-3.8802073996026740,6.3629833177664112,1.2237815571899573,17.8000000000000007
0.0000000000000000,5994.1723360565792973,3575.3192749547861240,437.3137426975790731,-3.8809060519755754,6.3625666460318966,1.2237305947500514,17.9000000000000021
0.0000000000000000,5993.7842105201380036,3575.9555107825049163,437.4361132083172379,-3.8816046590278575,6.3621499001931197,1.2236796180537854,18.0000000000000000
0.0000000000000000,5993.3960151251549178,3576.5917049318927639,437.5584786206689500,-3.8823032207513708,6.3617330802549690,1.2236286271017585,18.1000000000000014
0.0000000000000000,5993.0077498761629613,3577.2278573955409229,437.6808389332086335,-3.8830017371379673,6.3613161862223322,1.2235776218945700,18.1999999999999993
0.0000000000000000,5992.6194147776977843,3577.8639681660397400,437.8031941445108828,-3.8837002081794991,6.3608992181000961,1.2235266024328191,18.3000000000000007
0.0000000000000000,5992.2310098342941274,3578.5000372359813809,437.9255442531502922,-3.8843986338678187,6.3604821758931527,1.2234755687171057,18.4000000000000021
0.0000000000000000,5991.8425350504867311,3579.1360645979575565,438.0478892577014562,-3.8850970141947796,6.3600650596063915,1.2234245207480294,18.5000000000000000
0.0000000000000000,5991.4539904308139739,3579.7720502445613420,438.1702291567392535,-3.8857953491522355,6.3596478692447036,1.2233734585261904,18.6000000000000014
0.0000000000000000,5991.0653759798133251,3580.4079941683849029,438.2925639488383354,-3.8864936387320408,6.3592306048129821,1.2233223820521886,18.6999999999999993
0.0000000000000000,5990.6766917020222536,3581.0438963620222239,438.4148936325736372,-3.8871918829260501,6.3588132663161208,1.2232712913266244,18.8000000000000007
0.0000000000000000,5990.2879376019818665,3581.6797568180677445,438.5372182065200377,-3.8878900817261193,6.3583958537590126,1.2232201863500984,18.9000000000000021
0.0000000000000000,5989.8991136842314518,3582.3155755291154492,438.6595376692525861,-3.8885882351241041,6.3579783671465533,1.2231690671232112,19.0000000000000000
0.0000000000000000,5989.5102199533121166,3582.9513524877606869,438.7818520193462177,-3.8892863431118614,6.3575608064836384,1.2231179336465636,19.1000000000000014
0.0000000000000000,5989.1212564137667869,3583.5870876865988066,438.9041612553760956,-3.8899844056812483,6.3571431717751663,1.2230667859207569,19.2000000000000028
0.0000000000000000,5988.7322230701374792,3584.2227811182260666,439.0264653759173825,-3.8906824228241219,6.3567254630260335,1.2230156239463918,19.3000000000000007
0.0000000000000000,5988.3431199269689387,3584.8584327752391800,439.1487643795452982,-3.8913803945323413,6.3563076802411391,1.2229644477240700,19.4000000000000021
0.0000000000000000,5987.9539469888040912,3585.4940426502353148,439.2710582648350623,-3.8920783207977645,6.3558898234253833,1.2229132572543930,19.5000000000000000
0.0000000000000000,5987.5647042601895009,3586.1296107358111840,439.3933470303621220,-3.8927762016122514,6.3554718925836671,1.2228620525379625,19.6000000000000014
0.0000000000000000,5987.1753917456717318,3586.7651370245662292,439.5156306747018107,-3.8934740369676613,6.3550538877208904,1.2228108335753805,19.7000000000000028
0.0000000000000000,5986.7860094497973478,3587.4006215090980731,439.6379091964296890,-3.8941718268558554,6.3546358088419561,1.2227596003672490,19.8000000000000007
0.0000000000000000,5986.3965573771147319,3588.0360641820061574,439.7601825941211473,-3.8948695712686940,6.3542176559517687,1.2227083529141702,19.9000000000000021
0.0000000000000000,5986.0070355321731768,3588.6714650358899235,439.8824508663519168,-3.8955672701980393,6.3537994290552309,1.2226570912167467,20.0000000000000000
0.0000000000000000,5985.6174439195210653,3589.3068240633497226,440.0047140116975584,-3.8962649236357532,6.3533811281572499,1.2226058152755808,20.1000000000000014
0.0000000000000000,5985.2277825437104184,3589.9421412569859058,440.1269720287338600,-3.8969625315736982,6.3529627532627293,1.2225545250912755,20.2000000000000028
0.0000000000000000,5984.8380514092914382,3590.5774166094001885,440.2492249160365532,-3.8976600940037378,6.3525443043765781,1.2225032206644337,20.3000000000000007
0.0000000000000000,5984.4482505208179646,3591.2126501131938312,440.3714726721814827,-3.8983576109177354,6.3521257815037035,1.2224519019956588,20.4000000000000021
0.0000000000000000,5984.0583798828420186,3591.8478417609685494,440.4937152957445505,-3.8990550823075556,6.3517071846490136,1.2224005690855535,20.5000000000000000
0.0000000000000000,5983.6684394999174401,3592.4829915453278772,440.6159527853017153,-3.8997525081650628,6.3512885138174191,1.2223492219347218,20.6000000000000014
0.0000000000000000,5983.2784293765998882,3593.1180994588739850,440.7381851394289924,-3.9004498884821235,6.3508697690138298,1.2222978605437671,20.7000000000000028
0.0000000000000000,5982.8883495174450218,3593.7531654942113164,440.8604123567025113,-3.9011472232506028,6.3504509502431583,1.2222464849132932,20.8000000000000007
0.0000000000000000,5982.4981999270084998,3594.3881896439438606,440.9826344356984009,-3.9018445124623673,6.3500320575103171,1.2221950950439044,20.9000000000000021
0.0000000000000000,5982.1079806098487097,3595.0231719006760613,441.1048513749927906,-3.9025417561092848,6.3496130908202177,1.2221436909362045,21.0000000000000000
0.0000000000000000,5981.7176915705240390,3595.6581122570132720,441.2270631731620938,-3.9032389541832222,6.3491940501777764,1.2220922725907981,21.1000000000000014
0.0000000000000000,5981.3273328135937845,3596.2930107055613007,441.3492698287824965,-3.9039361066760478,6.3487749355879073,1.2220408400082898,21.2000000000000028
0.0000000000000000,5980.9369043436163338,3596.9278672389259555,441.4714713404305257,-3.9046332135796309,6.3483557470555274,1.2219893931892840,21.3000000000000007
0.0000000000000000,5980.5464061651546217,3597.5626818497139539,441.5936677066825382,-3.9053302748858401,6.3479364845855528,1.2219379321343857,21.4000000000000021
0.0000000000000000,5980.1558382827688547,3598.1974545305329229,441.7158589261150610,-3.9060272905865459,6.3475171481829014,1.2218864568442003,21.5000000000000000
0.0000000000000000,5979.7652007010228772,3598.8321852739904898,441.8380449973046780,-3.9067242606736183,6.3470977378524926,1.2218349673193325,21.6000000000000014
0.0000000000000000,5979.3744934244796241,3599.4668740726942815,441.9602259188280868,-3.9074211851389284,6.3466782535992463,1.2217834635603879,21.7000000000000028
0.0000000000000000,5978.9837164577029398,3600.1015209192537441,442.0824016892618715,-3.9081180639743480,6.3462586954280829,1.2217319455679723,21.8000000000000007
0.0000000000000000,5978.5928698052584878,3600.7361258062774141,442.2045723071829002,-3.9088148971717493,6.3458390633439237,1.2216804133426911,21.9000000000000021
0.0000000000000000,5978.2019534717119313,3601.3706887263756471,442.3267377711679842,-3.9095116847230043,6.3454193573516910,1.2216288668851505,22.0000000000000000
0.0000000000000000,5977.8109674616307530,3602.0052096721583439,442.4488980797939348,-3.9102084266199864,6.3449995774563090,1.2215773061959565,22.1000000000000014
0.0000000000000000,5977.4199117795824350,3602.6396886362363148,442.5710532316377908,-3.9109051228545697,6.3445797236627017,1.2215257312757153,22.2000000000000028
0.0000000000000000,5977.0287864301353693,3603.2741256112208248,442.6932032252765339,-3.9116017734186284,6.3441597959757940,1.2214741421250337,22.3000000000000007
0.0000000000000000,5976.6375914178588573,3603.9085205897231390,442.8153480592871460,-3.9122983783040373,6.3437397944005127,1.2214225387445179,22.4000000000000021
0.0000000000000000,5976.2463267473231099,3604.5428735643563414,442.9374877322468365,-3.9129949375026714,6.3433197189417836,1.2213709211347750,22.5000000000000000
0.0000000000000000,5975.8549924231001569,3605.1771845277326065,443.0596222427328144,-3.9136914510064074,6.3428995696045360,1.2213192892964118,22.6000000000000014
0.0000000000000000,5975.4635884497611187,3605.8114534724654732,443.1817515893223458,-3.9143879188071216,6.3424793463936977,1.2212676432300356,22.7000000000000028
0.0000000000000000,5975.0721148318798441,3606.4456803911689349,443.3038757705926400,-3.9150843408966907,6.3420590493141988,1.2212159829362534,22.8000000000000007
0.0000000000000000,5974.6805715740283631,3607.0798652764565304,443.4259947851211336,-3.9157807172669927,6.3416386783709706,1.2211643084156734,22.9000000000000021
0.0000000000000000,5974.2889586807832529,3607.7140081209431628,443.5481086314853201,-3.9164770479099058,6.3412182335689442,1.2211126196689026,23.0000000000000000
0.0000000000000000,5973.8972761567183625,3608.3481089172450993,443.6702173082626359,-3.9171733328173084,6.3407977149130526,1.2210609166965491,23.1000000000000014
0.0000000000000000,5973.5055240064111786,3608.9821676579767882,443.7923208140306883,-3.9178695719810803,6.3403771224082277,1.2210091994992212,23.2000000000000028
0.0000000000000000,5973.1137022344382785,3609.6161843357554062,443.9144191473670276,-3.9185657653931010,6.3399564560594062,1.2209574680775266,23.3000000000000007
0.0000000000000000,5972.7218108453771492,3610.2501589431976754,444.0365123068493745,-3.9192619130452511,6.3395357158715209,1.2209057224320741,23.4000000000000021
0.0000000000000000,5972.3298498438080060,3610.8840914729203178,444.1586002910555067,-3.9199580149294113,6.3391149018495092,1.2208539625634720,23.5000000000000000
0.0000000000000000,5971.9378192343092451,3611.5179819175418743,444.2806830985632018,-3.9206540710374633,6.3386940139983086,1.2208021884723292,23.6000000000000014
0.0000000000000000,5971.5457190214619914,3612.1518302696799765,444.4027607279502945,-3.9213500813612892,6.3382730523228563,1.2207504001592546,23.7000000000000028
0.0000000000000000,5971.1535492098482791,3612.7856365219540749,444.5248331777947897,-3.9220460458927713,6.3378520168280916,1.2206985976248572,23.8000000000000007
0.0000000000000000,5970.7613098040492332,3613.4194006669831651,444.6469004466746924,-3.9227419646237935,6.3374309075189545,1.2206467808697463,23.9000000000000021
0.0000000000000000,5970.3690008086496164,3614.0531226973871526,444.7689625331679508,-3.9234378375462389,6.3370097244003851,1.2205949498945314,24.0000000000000000
0.0000000000000000,5969.9766222282314629,3614.6868026057863972,444.8910194358527406,-3.9241336646519920,6.3365884674773243,1.2205431046998221,24.1000000000000014
0.0000000000000000,5969.5841740673804452,3615.3204403848017137,445.0130711533072372,-3.9248294459329376,6.3361671367547165,1.2204912452862280,24.2000000000000028
0.0000000000000000,5969.1916563306831449,3615.9540360270539168,445.1351176841096731,-3.9255251813809613,6.3357457322375046,1.2204393716543593,24.3000000000000007
0.0000000000000000,5968.7990690227252344,3616.5875895251660950,445.2571590268383375,-3.9262208709879487,6.3353242539306320,1.2203874838048259,24.4000000000000021
0.0000000000000000,5968.4064121480942049,3617.2211008717595178,445.3791951800716333,-3.9269165147457863,6.3349027018390451,1.2203355817382384,24.5000000000000000
0.0000000000000000,5968.0136857113784572,3617.8545700594572736,445.5012261423879636,-3.9276121126463615,6.3344810759676893,1.2202836654552072,24.6000000000000014
0.0000000000000000,5967.6208897171673016,3618.4879970808829057,445.6232519123657880,-3.9283076646815616,6.3340593763215116,1.2202317349563427,24.7000000000000028
0.0000000000000000,5967.2280241700500483,3619.1213819286604121,445.7452724885836233,-3.9290031708432749,6.3336376029054611,1.2201797902422560,24.8000000000000007
0.0000000000000000,5966.8350890746187360,3619.7547245954137907,445.8672878696201565,-3.9296986311233906,6.3332157557244857,1.2201278313135582,24.9000000000000021
0.0000000000000000,5966.4420844354644942,3620.3880250737684037,445.9892980540540748,-3.9303940455137969,6.3327938347835353,1.2200758581708602,25.0000000000000000
0.0000000000000000,5966.0490102571802709,3621.0212833563491586,446.1113030404640085,-3.9310894140063843,6.3323718400875606,1.2200238708147737,25.1000000000000014
0.0000000000000000,5965.6558665443581049,3621.6544994357823271,446.2333028274287585,-3.9317847365930434,6.3319497716415141,1.2199718692459098,25.2000000000000028
0.0000000000000000,5965.2626533015936729,3622.2876733046941808,446.3552974135272962,-3.9324800132656645,6.3315276294503473,1.2199198534648807,25.3000000000000007
0.0000000000000000,5964.8693705334826518,3622.9208049557114464,446.4772867973383654,-3.9331752440161400,6.3311054135190146,1.2198678234722979,25.4000000000000021
0.0000000000000000,5964.4760182446188992,3623.5538943814613049,446.5992709774411082,-3.9338704288363608,6.3306831238524701,1.2198157792687736,25.5000000000000000
0.0000000000000000,5964.0825964396017298,3624.1869415745727565,446.7212499524144391,-3.9345655677182205,6.3302607604556682,1.2197637208549201,25.6000000000000014
0.0000000000000000,5963.6891051230268204,3624.8199465276729825,446.8432237208375568,-3.9352606606536118,6.3298383233335667,1.2197116482313499,25.7000000000000028
0.0000000000000000,5963.2955442994934856,3625.4529092333914377,446.9651922812895464,-3.9359557076344283,6.3294158124911215,1.2196595613986754,25.8000000000000007
0.0000000000000000,5962.9019139736010402,3626.0858296843580320,447.0871556323496634,-3.9366507086525644,6.3289932279332906,1.2196074603575093,25.9000000000000021
0.0000000000000000,5962.5082141499506179,3626.7187078732017653,447.2091137725971635,-3.9373456636999151,6.3285705696650334,1.2195553451084649,26.0000000000000000
0.0000000000000000,5962.1144448331424428,3627.3515437925534570,447.3310667006114159,-3.9380405727683754,6.3281478376913096,1.2195032156521550,26.1000000000000014
0.0000000000000000,5961.7206060277794677,3627.9843374350443810,447.4530144149717898,-3.9387354358498419,6.3277250320170806,1.2194510719891929,26.2000000000000028
0.0000000000000000,5961.3266977384628262,3628.6170887933058111,447.5749569142578252,-3.9394302529362100,6.3273021526473068,1.2193989141201924,26.3000000000000007
0.0000000000000000,5960.9327199697981996,3629.2497978599694761,447.6968941970490619,-3.9401250240193777,6.3268791995869522,1.2193467420457667,26.4000000000000021
0.0000000000000000,5960.5386727263885405,3629.8824646276680141,447.8188262619249826,-3.9408197490912422,6.3264561728409792,1.2192945557665298,26.5000000000000000
0.0000000000000000,5960.1445560128404395,3630.5150890890345181,447.9407531074652979,-3.9415144281437016,6.3260330724143525,1.2192423552830958,26.6000000000000014
0.0000000000000000,5959.7503698337595779,3631.1476712367020809,448.0626747322497181,-3.9422090611686551,6.3256098983120381,1.2191901405960788,26.7000000000000028
0.0000000000000000,5959.3561141937525463,3631.7802110633051598,448.1845911348580671,-3.9429036481580009,6.3251866505390018,1.2191379117060930,26.8000000000000007
0.0000000000000000,5958.9617890974286638,3632.4127085614777570,448.3065023138701122,-3.9435981891036400,6.3247633291002101,1.2190856686137530,26.9000000000000021
0.0000000000000000,5958.5673945493963402,3633.0451637238552394,448.4284082678658478,-3.9442926839974719,6.3243399340006317,1.2190334113196737,27.0000000000000000
0.0000000000000000,5958.1729305542648945,3633.6775765430729734,448.5503089954250981,-3.9449871328313977,6.3239164652452349,1.2189811398244699,27.1000000000000014
0.0000000000000000,5957.7783971166454648,3634.3099470117667806,448.6722044951279713,-3.9456815355973194,6.3234929228389909,1.2189288541287562,27.2000000000000028
0.0000000000000000,5957.3837942411482800,3634.9422751225733919,448.7940947655545756,-3.9463758922871386,6.3230693067868700,1.2188765542331483,27.3000000000000007
0.0000000000000000,5956.9891219323872065,3635.5745608681299927,448.9159798052849624,-3.9470702028927573,6.3226456170938423,1.2188242401382616,27.4000000000000021
0.0000000000000000,5956.5943801949742920,3636.2068042410737689,449.0378596128994104,-3.9477644674060799,6.3222218537648827,1.2187719118447116,27.5000000000000000
0.0000000000000000,5956.1995690335243125,3636.8390052340428156,449.1597341869781985,-3.9484586858190092,6.3217980168049639,1.2187195693531139,27.6000000000000014
0.0000000000000000,5955.8046884526511349,3637.4711638396752278,449.2816035261016054,-3.9491528581234494,6.3213741062190598,1.2186672126640843,27.7000000000000028
0.0000000000000000,5955.4097384569713540,3638.1032800506109197,449.4034676288500236,-3.9498469843113058,6.3209501220121460,1.2186148417782392,27.8000000000000007
0.0000000000000000,5955.0147190511006556,3638.7353538594893507,449.5253264938039592,-3.9505410643744834,6.3205260641891998,1.2185624566961950,27.9000000000000021
0.0000000000000000,5954.6196302396574538,3639.3673852589495255,449.6471801195439184,-3.9512350983048883,6.3201019327551968,1.2185100574185677,28.0000000000000000
0.0000000000000000,5954.2244720272592531,3639.9993742416331770,449.7690285046504073,-3.9519290860944269,6.3196777277151162,1.2184576439459742,28.1000000000000014
0.0000000000000000,5953.8292444185253771,3640.6313208001806743,449.8908716477041025,-3.9526230277350063,6.3192534490739360,1.2184052162790311,28.2000000000000028
0.0000000000000000,5953.4339474180760590,3641.2632249272342051,450.0127095472857377,-3.9533169232185337,6.3188290968366365,1.2183527744183558,28.3000000000000007
0.0000000000000000,5953.0385810305324412,3641.8950866154350479,450.1345422019760463,-3.9540107725369174,6.3184046710081994,1.2183003183645649,28.4000000000000021
0.0000000000000000,5952.6431452605156665,3642.5269058574258452,450.2563696103558755,-3.9547045756820660,6.3179801715936055,1.2182478481182759,28.5000000000000000
0.0000000000000000,5952.2476401126486962,3643.1586826458501491,450.3781917710060156,-3.9553983326458892,6.3175555985978376,1.2181953636801066,28.6000000000000014
0.0000000000000000,5951.8520655915535826,3643.7904169733515118,450.5000086825075414,-3.9560920434202966,6.3171309520258792,1.2181428650506745,28.7000000000000028
0.0000000000000000,5951.4564217018569252,3644.4221088325739402,450.6218203434413567,-3.9567857079971982,6.3167062318827147,1.2180903522305973,28.8000000000000007
0.0000000000000000,5951.0607084481816855,3645.0537582161614409,450.7436267523885931,-3.9574793263685049,6.3162814381733297,1.2180378252204931,28.9000000000000021
0.0000000000000000,5950.6649258351553726,3645.6853651167598400,450.8654279079303251,-3.9581728985261284,6.3158565709027110,1.2179852840209802,29.0000000000000000
0.0000000000000000,5950.2690738674045861,3646.3169295270149632,450.9872238086477978,-3.9588664244619807,6.3154316300758451,1.2179327286326767,29.1000000000000014
0.0000000000000000,5949.8731525495559254,3646.9484514395717270,451.1090144531222563,-3.9595599041679743,6.3150066156977198,1.2178801590562016,29.2000000000000028
0.0000000000000000,5949.4771618862396281,3647.5799308470777760,451.2307998399350026,-3.9602533376360221,6.3145815277733250,1.2178275752921732,29.3000000000000007
0.0000000000000000,5949.0811018820832032,3648.2113677421803004,451.3525799676673955,-3.9609467248580383,6.3141563663076496,1.2177749773412108,29.4000000000000021
0.0000000000000000,5948.6849725417187074,3648.8427621175260356,451.4743548349008506,-3.9616400658259368,6.3137311313056861,1.2177223652039331,29.5000000000000000
0.0000000000000000,5948.2887738697763780,3649.4741139657639906,451.5961244402169541,-3.9623333605316318,6.3133058227724241,1.2176697388809594,29.6000000000000014
0.0000000000000000,5947.8925058708728102,3650.1054232795381722,451.7178887821969511,-3.9630266089670352,6.3128804407128420,1.2176170983729062,29.7000000000000028
0.0000000000000000,5947.4961685494754420,3650.7366900514548433,451.8396478594200403,-3.9637198111240139,6.3124549851317564,1.2175644436803614,29.8000000000000007
0.0000000000000000,5947.0997619101690361,3651.3679142741502801,451.9614016704671826,-3.9644129669944697,6.3120294560341090,1.2175117748039348,29.9000000000000021
0.0000000000000000,5946.7032859575820112,3651.9990959402734916,452.0831502139200211,-3.9651060765703185,6.3116038534248897,1.2174590917442454,30.0000000000000000
0.0000000000000000,5946.3067406963446047,3652.6302350424734868,452.2048934883603124,-3.9657991398434755,6.3111781773090883,1.2174063945019122,30.1000000000000014
0.0000000000000000,5945.9101261310861446,3653.2613315733997297,452.3266314923697564,-3.9664921568058582,6.3107524276916962,1.2173536830775544,30.2000000000000028
0.0000000000000000,5945.5134422664395970,3653.8923855257030482,452.4483642245303372,-3.9671851274493823,6.3103266045777051,1.2173009574717915,30.3000000000000007
0.0000000000000000,5945.1166891070361089,3654.5233968920333609,452.5700916834238114,-3.9678780517659660,6.3099007079721092,1.2172482176852428,30.4000000000000021
0.0000000000000000,5944.7198666575095558,3655.1543656650424055,452.6918138676322201,-3.9685709297475276,6.3094747378799010,1.2171954637185283,30.5000000000000000
0.0000000000000000,5944.3229749224929037,3655.7852918373819193,452.8135307757375472,-3.9692637613859851,6.3090486943060764,1.2171426955722677,30.6000000000000014
0.0000000000000000,5943.9260139066218471,3656.4161754017031853,452.9352424063220042,-3.9699565466732585,6.3086225772556297,1.2170899132470809,30.7000000000000028
0.0000000000000000,5943.5289836145311710,3657.0470163506597601,453.0569487579675751,-3.9706492856012665,6.3081963867335578,1.2170371167435883,30.8000000000000007
0.0000000000000000,5943.1318840508574795,3657.6778146769042905,453.1786498292565284,-3.9713419781619299,6.3077701227448575,1.2169843060624104,30.9000000000000021
0.0000000000000000,5942.7347152202373763,3658.3085703730903333,453.3003456187711890,-3.9720346243471694,6.3073437852945275,1.2169314812041674,31.0000000000000000
0.0000000000000000,5942.3374771273092847,3658.9392834318723544,453.4220361250938822,-3.9727272241489060,6.3069173743875675,1.2168786421694804,31.1000000000000014
0.0000000000000000,5941.9401697767125370,3659.5699538459048199,453.5437213468069331,-3.9734197775590623,6.3064908900289760,1.2168257889589698,31.2000000000000028
0.0000000000000000,5941.5427931730855562,3660.2005816078431053,453.6654012824928373,-3.9741122845695598,6.3060643322237544,1.2167729215732570,31.3000000000000007
0.0000000000000000,5941.1453473210685843,3660.8311667103425862,453.7870759307340904,-3.9748047451723223,6.3056377009769040,1.2167200400129632,31.4000000000000021
0.0000000000000000,5940.7478322253045917,3661.4617091460590927,453.9087452901132451,-3.9754971593592727,6.3052109962934271,1.2166671442787096,31.5000000000000000
0.0000000000000000,5940.3502478904338204,3662.0922089076493648,454.0304093592130243,-3.9761895271223353,6.3047842181783276,1.2166142343711179,31.6000000000000014
0.0000000000000000,5939.9525943210992409,3662.7226659877705970,454.1520681366160375,-3.9768818484534343,6.3043573666366095,1.2165613102908097,31.7000000000000028
0.0000000000000000,5939.5548715219447331,3663.3530803790804384,454.2737216209051212,-3.9775741233444952,6.3039304416732778,1.2165083720384069,31.8000000000000007
0.0000000000000000,5939.1570794976150864,3663.9834520742369932,454.3953698106629986,-3.9782663517874433,6.3035034432933372,1.2164554196145316,31.9000000000000021
0.0000000000000000,5938.7592182527550904,3664.6137810658983653,454.5170127044726200,-3.9789585337742053,6.3030763715017963,1.2164024530198059,32.0000000000000000
0.0000000000000000,5938.3612877920113533,3665.2440673467244778,454.6386503009168791,-3.9796506692967073,6.3026492263036626,1.2163494722548522,32.1000000000000014
0.0000000000000000,5937.9632881200295742,3665.8743109093738894,454.7602825985788400,-3.9803427583468771,6.3022220077039428,1.2162964773202931,32.2000000000000028
0.0000000000000000,5937.5652192414590900,3666.5045117465074327,454.8819095960415098,-3.9810348009166421,6.3017947157076488,1.2162434682167511,32.3000000000000043
0.0000000000000000,5937.1670811609465090,3667.1346698507850306,455.0035312918880095,-3.9817267969979309,6.3013673503197882,1.2161904449448495,32.3999999999999986
0.0000000000000000,5936.7688738831420778,3667.7647852148684251,455.1251476847015738,-3.9824187465826726,6.3009399115453739,1.2161374075052109,32.5000000000000000
0.0000000000000000,5936.3705974126969522,3668.3948578314184488,455.2467587730653804,-3.9831106496627959,6.3005123993894170,1.2160843558984589,32.6000000000000014
0.0000000000000000,5935.9722517542595597,3669.0248876930972983,455.3683645555627777,-3.9838025062302318,6.3000848138569312,1.2160312901252166,32.7000000000000028
0.0000000000000000,5935.5738369124837845,3669.6548747925676253,455.4899650307771140,-3.9844943162769098,6.2996571549529286,1.2159782101861074,32.8000000000000043
0.0000000000000000,5935.1753528920216922,3670.2848191224925358,455.6115601972917943,-3.9851860797947616,6.2992294226824255,1.2159251160817555,32.8999999999999986
0.0000000000000000,5934.7767996975262577,3670.9147206755355910,455.7331500536903945,-3.9858777967757186,6.2988016170504357,1.2158720078127843,33.0000000000000000
0.0000000000000000,5934.3781773336513652,3671.5445794443603518,455.8547345985563766,-3.9865694672117127,6.2983737380619766,1.2158188853798180,33.1000000000000014
0.0000000000000000,5933.9794858050518087,3672.1743954216317434,455.9763138304733729,-3.9872610910946773,6.2979457857220655,1.2157657487834810,33.2000000000000028
0.0000000000000000,5933.5807251163851106,3672.8041686000142363,456.0978877480250731,-3.9879526684165447,6.2975177600357197,1.2157125980243972,33.3000000000000043
0.0000000000000000,5933.1818952723060647,3673.4338989721736652,456.2194563497951663,-3.9886441991692494,6.2970896610079583,1.2156594331031916,33.3999999999999986
0.0000000000000000,5932.7829962774731030,3674.0635865307763197,456.3410196343674556,-3.9893356833447253,6.2966614886438004,1.2156062540204888,33.5000000000000000
0.0000000000000000,5932.3840281365437477,3674.6932312684880344,456.4625776003258579,-3.9900271209349074,6.2962332429482677,1.2155530607769136,33.6000000000000014
0.0000000000000000,5931.9849908541773402,3675.3228331779760083,456.5841302462542330,-3.9907185119317310,6.2958049239263802,1.2154998533730910,33.7000000000000028
0.0000000000000000,5931.5858844350332220,3675.9523922519078951,456.7056775707364977,-3.9914098563271319,6.2953765315831616,1.2154466318096462,33.8000000000000043
0.0000000000000000,5931.1867088837734627,3676.5819084829508938,456.8272195723567961,-3.9921011541130467,6.2949480659236352,1.2153933960872048,33.8999999999999986
0.0000000000000000,5930.7874642050574039,3677.2113818637744771,456.9487562496991586,-3.9927924052814130,6.2945195269528238,1.2153401462063920,34.0000000000000000
0.0000000000000000,5930.3881504035498438,3677.8408123870472082,457.0702876013477862,-3.9934836098241675,6.2940909146757527,1.2152868821678338,34.1000000000000014
0.0000000000000000,5929.9887674839119427,3678.4702000454381050,457.1918136258868799,-3.9941747677332482,6.2936622290974480,1.2152336039721559,34.2000000000000028
0.0000000000000000,5929.5893154508075895,3679.0995448316175498,457.3133343219006974,-3.9948658790005949,6.2932334702229369,1.2151803116199844,34.3000000000000043
0.0000000000000000,5929.1897943089034015,3679.7288467382559247,457.4348496879735535,-3.9955569436181451,6.2928046380572455,1.2151270051119454,34.3999999999999986
0.0000000000000000,5928.7902040628632676,3680.3581057580240667,457.5563597226899333,-3.9962479615778399,6.2923757326054028,1.2150736844486654,34.5000000000000000
0.0000000000000000,5928.3905447173528955,3680.9873218835928128,457.6778644246342083,-3.9969389328716192,6.2919467538724385,1.2150203496307708,34.6000000000000014
0.0000000000000000,5927.9908162770416311,3681.6164951076348189,457.7993637923909773,-3.9976298574914235,6.2915177018633823,1.2149670006588884,34.7000000000000028
0.0000000000000000,5927.5910187465951822,3682.2456254228222861,457.9208578245447825,-3.9983207354291945,6.2910885765832649,1.2149136375336451,34.8000000000000043
0.0000000000000000,5927.1911521306847135,3682.8747128218278704,458.0423465196802795,-3.9990115666768737,6.2906593780371187,1.2148602602556680,34.8999999999999986
0.0000000000000000,5926.7912164339777519,3683.5037572973251372,458.1638298763821240,-3.9997023512264036,6.2902301062299752,1.2148068688255842,35.0000000000000000
0.0000000000000000,5926.3912116611454621,3684.1327588419881067,458.2853078932351991,-4.0003930890697275,6.2898007611668696,1.2147534632440211,35.1000000000000014
0.0000000000000000,5925.9911378168590090,3684.7617174484907991,458.4067805688242174,-4.0010837801987886,6.2893713428528351,1.2147000435116060,35.2000000000000028
0.0000000000000000,5925.5909949057904669,3685.3906331095081441,458.5282479017341188,-4.0017744246055305,6.2889418512929067,1.2146466096289670,35.3000000000000043
0.0000000000000000,5925.1907829326119099,3686.0195058177150713,458.6497098905497865,-4.0024650222818989,6.2885122864921223,1.2145931615967318,35.3999999999999986
0.0000000000000000,5924.7905019019990505,3686.6483355657883294,458.7711665338563307,-4.0031555732198383,6.2880826484555170,1.2145396994155282,35.5000000000000000
0.0000000000000000,5924.3901518186239628,3687.2771223464042123,458.8926178302387484,-4.0038460774112945,6.2876529371881293,1.2144862230859850,35.6000000000000014
0.0000000000000000,5923.9897326871632686,3687.9058661522385592,459.0140637782822068,-4.0045365348482136,6.2872231526949980,1.2144327326087299,35.7000000000000028
0.0000000000000000,5923.5892445122926802,3688.5345669759694829,459.1355043765719302,-4.0052269455225415,6.2867932949811633,1.2143792279843917,35.8000000000000043
0.0000000000000000,5923.1886872986888193,3689.1632248102746416,459.2569396236930288,-4.0059173094262270,6.2863633640516650,1.2143257092135993,35.8999999999999986
0.0000000000000000,5922.7880610510301267,3689.7918396478321483,459.3783695182310112,-4.0066076265512178,6.2859333599115441,1.2142721762969815,36.0000000000000000
0.0000000000000000,5922.3873657739950431,3690.4204114813210253,459.4997940587711014,-4.0072978968894608,6.2855032825658430,1.2142186292351669,36.1000000000000014
0.0000000000000000,5921.9866014722620093,3691.0489403034207498,459.6212132438987510,-4.0079881204329064,6.2850731320196056,1.2141650680287852,36.2000000000000028
0.0000000000000000,5921.5857681505121946,3691.6774261068103442,459.7426270721995252,-4.0086782971735033,6.2846429082778750,1.2141114926784657,36.3000000000000043
0.0000000000000000,5921.1848658134258585,3692.3058688841711046,459.8640355422589892,-4.0093684271032020,6.2842126113456951,1.2140579031848378,36.3999999999999986
0.0000000000000000,5920.7838944656841704,3692.9342686281829629,459.9854386526626513,-4.0100585102139528,6.2837822412281135,1.2140042995485312,36.5000000000000000
0.0000000000000000,5920.3828541119719375,3693.5626253315276699,460.1068364019963042,-4.0107485464977062,6.2833517979301750,1.2139506817701760,36.6000000000000014
0.0000000000000000,5919.9817447569703290,3694.1909389868869766,460.2282287888455699,-4.0114385359464153,6.2829212814569280,1.2138970498504018,36.7000000000000028
0.0000000000000000,5919.5805664053641522,3694.8192095869430887,460.3496158117963546,-4.0121284785520306,6.2824906918134209,1.2138434037898391,36.8000000000000043
0.0000000000000000,5919.1793190618391236,3695.4474371243782116,460.4709974694345078,-4.0128183743065051,6.2820600290047013,1.2137897435891185,36.8999999999999986
0.0000000000000000,5918.7780027310800506,3696.0756215918763701,460.5923737603458790,-4.0135082232017938,6.2816292930358211,1.2137360692488699,37.0000000000000000
0.0000000000000000,5918.3766174177744688,3696.7037629821211340,460.7137446831165448,-4.0141980252298479,6.2811984839118296,1.2136823807697246,37.1000000000000014
0.0000000000000000,5917.9751631266090044,3697.3318612877965279,460.8351102363324685,-4.0148877803826233,6.2807676016377787,1.2136286781523131,37.2000000000000028
0.0000000000000000,5917.5736398622730121,3697.9599165015870312,460.9564704185797837,-4.0155774886520748,6.2803366462187213,1.2135749613972666,37.3000000000000043
0.0000000000000000,5917.1720476294540276,3698.5879286161784876,461.0778252284446808,-4.0162671500301572,6.2799056176597112,1.2135212305052163,37.3999999999999986
0.0000000000000000,5916.7703864328432246,3699.2158976242562858,461.1991746645133503,-4.0169567645088273,6.2794745159658021,1.2134674854767935,37.5000000000000000
0.0000000000000000,5916.3686562771308672,3699.8438235185067242,461.3205187253720965,-4.0176463320800408,6.2790433411420494,1.2134137263126297,37.6000000000000014
0.0000000000000000,5915.9668571670090387,3700.4717062916161012,461.4418574096072234,-4.0183358527357553,6.2786120931935088,1.2133599530133568,37.7000000000000028
0.0000000000000000,5915.5649891071689126,3701.0995459362720794,461.5631907158052059,-4.0190253264679274,6.2781807721252374,1.2133061655796065,37.8000000000000043
0.0000000000000000,5915.1630521023034817,3701.7273424451623214,461.6845186425525185,-4.0197147532685165,6.2777493779422935,1.2132523640120108,37.8999999999999986
0.0000000000000000,5914.7610461571084670,3702.3550958109744897,461.8058411884356360,-4.0204041331294809,6.2773179106497343,1.2131985483112020,38.0000000000000000
0.0000000000000000,5914.3589712762768613,3702.9828060263980660,461.9271583520411468,-4.0210934660427791,6.2768863702526199,1.2131447184778124,38.1000000000000014
0.0000000000000000,5913.9568274645052952,3703.6104730841216224,462.0484701319557530,-4.0217827520003713,6.2764547567560109,1.2130908745124747,38.2000000000000028
0.0000000000000000,5913.5546147264903993,3704.2380969768350951,462.1697765267660998,-4.0224719909942177,6.2760230701649684,1.2130370164158213,38.3000000000000043
0.0000000000000000,5913.1523330669278948,3704.8656776972284206,462.2910775350590598,-4.0231611830162795,6.2755913104845540,1.2129831441884853,38.4000000000000057
0.0000000000000000,5912.7499824905162313,3705.4932152379924446,462.4123731554213919,-4.0238503280585176,6.2751594777198312,1.2129292578310997,38.5000000000000000
0.0000000000000000,5912.3475630019556775,3706.1207095918184677,462.5336633864399687,-4.0245394261128942,6.2747275718758644,1.2128753573442979,38.6000000000000014
0.0000000000000000,5911.9450746059437733,3706.7481607513977906,462.6549482267018334,-4.0252284771713720,6.2742955929577162,1.2128214427287127,38.7000000000000028
0.0000000000000000,5911.5425173071826066,3707.3755687094221685,462.7762276747939723,-4.0259174812259131,6.2738635409704537,1.2127675139849781,38.8000000000000043
0.0000000000000000,5911.1398911103724458,3708.0029334585851757,462.8975017293034284,-4.0266064382684812,6.2734314159191422,1.2127135711137276,38.9000000000000057
0.0000000000000000,5910.7371960202162882,3708.6302549915790223,463.0187703888173587,-4.0272953482910419,6.2729992178088505,1.2126596141155952,39.0000000000000000
0.0000000000000000,5910.3344320414162212,3709.2575333010981922,463.1400336519229768,-4.0279842112855571,6.2725669466446448,1.2126056429912149,39.1000000000000014
0.0000000000000000,5909.9315991786752420,3709.8847683798362596,463.2612915172074963,-4.0286730272439941,6.2721346024315956,1.2125516577412208,39.2000000000000028
0.0000000000000000,5909.5286974366999857,3710.5119602204877083,463.3825439832583015,-4.0293617961583186,6.2717021851747718,1.2124976583662475,39.3000000000000043
0.0000000000000000,5909.1257268201934494,3711.1391088157479317,463.5037910486627197,-4.0300505180204951,6.2712696948792450,1.2124436448669291,39.4000000000000057
0.0000000000000000,5908.7226873338631776,3711.7662141583123230,463.6250327120082488,-4.0307391928224918,6.2708371315500857,1.2123896172439008,39.5000000000000000
0.0000000000000000,5908.3195789824158055,3712.3932762408771850,463.7462689718823867,-4.0314278205562761,6.2704044951923672,1.2123355754977971,39.6000000000000014
0.0000000000000000,5907.9164017705588776,3713.0202950561388207,463.8674998268726313,-4.0321164012138144,6.2699717858111619,1.2122815196292533,39.7000000000000028
0.0000000000000000,5907.5131557030017575,3713.6472705967944421,463.9887252755666509,-4.0328049347870776,6.2695390034115439,1.2122274496389043,39.8000000000000043
0.0000000000000000,5907.1098407844519897,3714.2742028555417164,464.1099453165521709,-4.0334934212680320,6.2691061479985892,1.2121733655273859,39.9000000000000057
0.0000000000000000,5906.7064570196216664,3714.9010918250783106,464.2311599484168596,-4.0341818606486486,6.2686732195773729,1.2121192672953331,40.0000000000000000
0.0000000000000000,5906.3030044132210605,3715.5279374981032561,464.3523691697486129,-4.0348702529208964,6.2682402181529726,1.2120651549433819,40.1000000000000014
0.0000000000000000,5905.8994829699613547,3716.1547398673151292,464.4735729791352128,-4.0355585980767472,6.2678071437304643,1.2120110284721681,40.2000000000000028
0.0000000000000000,5905.4958926945564599,3716.7814989254138709,464.5947713751646688,-4.0362468961081719,6.2673739963149284,1.2119568878823279,40.3000000000000043
0.0000000000000000,5905.0922335917184682,3717.4082146650989671,464.7159643564249336,-4.0369351470071413,6.2669407759114426,1.2119027331744974,40.4000000000000057
0.0000000000000000,5904.6885056661622002,3718.0348870790717228,464.8371519215040166,-4.0376233507656281,6.2665074825250873,1.2118485643493127,40.5000000000000000
0.0000000000000000,5904.2847089226024764,3718.6615161600325337,464.9583340689900979,-4.0383115073756048,6.2660741161609446,1.2117943814074108,40.6000000000000014
0.0000000000000000,5903.8808433657559362,3719.2881019006831593,465.0795107974713005,-4.0389996168290452,6.2656406768240958,1.2117401843494280,40.7000000000000028
0.0000000000000000,5903.4769090003383099,3719.9146442937253596,465.2006821055359183,-4.0396876791179226,6.2652071645196239,1.2116859731760012,40.8000000000000043
0.0000000000000000,5903.0729058310680557,3720.5411433318622585,465.3218479917721879,-4.0403756942342115,6.2647735792526111,1.2116317478877678,40.9000000000000057
0.0000000000000000,5902.6688338626627228,3721.1675990077960705,465.4430084547684601,-4.0410636621698863,6.2643399210281441,1.2115775084853646,41.0000000000000000
0.0000000000000000,5902.2646930998416792,3721.7940113142303744,465.5641634931131989,-4.0417515829169233,6.2639061898513075,1.2115232549694293,41.1000000000000014
0.0000000000000000,5901.8604835473242929,3722.4203802438696584,465.6853131053949255,-4.0424394564672976,6.2634723857271863,1.2114689873405990,41.2000000000000028
0.0000000000000000,5901.4562052098317508,3723.0467057894179561,465.8064572902020473,-4.0431272828129874,6.2630385086608689,1.2114147055995117,41.3000000000000043
0.0000000000000000,5901.0518580920861496,3723.6729879435806652,465.9275960461232557,-4.0438150619459670,6.2626045586574435,1.2113604097468051,41.4000000000000057
0.0000000000000000,5900.6474421988086760,3724.2992266990627286,466.0487293717471289,-4.0445027938582170,6.2621705357219977,1.2113060997831175,41.5000000000000000
0.0000000000000000,5900.2429575347241553,3724.9254220485699989,466.1698572656625288,-4.0451904785417128,6.2617364398596225,1.2112517757090870,41.6000000000000014
0.0000000000000000,5899.8384041045546837,3725.5515739848096928,466.2909797264580902,-4.0458781159884349,6.2613022710754072,1.2111974375253518,41.7000000000000028
0.0000000000000000,5899.4337819130259959,3726.1776825004881175,466.4120967527227322,-4.0465657061903624,6.2608680293744436,1.2111430852325507,41.8000000000000043
0.0000000000000000,5899.0290909648629167,3726.8037475883152183,466.5332083430457715,-4.0472532491394766,6.2604337147618230,1.2110887188313217,41.9000000000000057
0.0000000000000000,5898.6243312647666244,3727.4297692410359559,466.6543144960234031,-4.0479407448278009,6.2599993272426113,1.2110343383223008,42.0000000000000000
0.0000000000000000,5898.2195028174564868,3728.0557474513730085,466.7754152102472744,-4.0486281932473318,6.2595648668218935,1.2109799437061257,42.1000000000000014
0.0000000000000000,5897.8146056276591480,3728.6816822120358665,466.8965104843068161,-4.0493155943900510,6.2591303335047623,1.2109255349834354,42.2000000000000028
0.0000000000000000,5897.4096397001039804,3729.3075735157362942,467.0176003167913450,-4.0500029482479434,6.2586957272963133,1.2108711121548692,42.3000000000000043
0.0000000000000000,5897.0046050395176280,3729.9334213551842367,467.1386847062903485,-4.0506902548129915,6.2582610482016419,1.2108166752210665,42.4000000000000057
0.0000000000000000,5896.5995016506321917,3730.5592257230928226,467.2597636513933139,-4.0513775140771813,6.2578262962258444,1.2107622241826668,42.5000000000000000
0.0000000000000000,5896.1943295381761345,3731.1849866121729065,467.3808371506898425,-4.0520647260324969,6.2573914713740191,1.2107077590403099,42.6000000000000014
0.0000000000000000,5895.7890887068815573,3731.8107040151380716,467.5019052027696489,-4.0527518906709243,6.2569565736512631,1.2106532797946359,42.7000000000000028
0.0000000000000000,5895.3837791614805610,3732.4363779247014463,467.6229678062223911,-4.0534390079844496,6.2565216030626765,1.2105987864462846,42.8000000000000043
0.0000000000000000,5894.9784009067061561,3733.0620083335766139,467.7440249596378408,-4.0541260779650594,6.2560865596133581,1.2105442789958965,42.9000000000000057
0.0000000000000000,5894.5729539472904435,3733.6875952344776124,467.8650766616058831,-4.0548131006047408,6.2556514433084098,1.2104897574441116,43.0000000000000000
0.0000000000000000,5894.1674382879700715,3734.3131386201198438,467.9861229107163467,-4.0555000758954822,6.2552162541529324,1.2104352217915708,43.1000000000000014
0.0000000000000000,5893.7618539334789602,3734.9386384832178010,468.1071637055592305,-4.0561870038292707,6.2547809921520292,1.2103806720389150,43.2000000000000028
0.0000000000000000,5893.3562008885546675,3735.5640948164873407,468.2281990447245903,-4.0568738843980974,6.2543456573108029,1.2103261081867847,43.3000000000000043
0.0000000000000000,5892.9504791579320226,3736.1895076126447748,468.3492289268024820,-4.0575607175939492,6.2539102496343579,1.2102715302358211,43.4000000000000057
0.0000000000000000,5892.5446887463494932,3736.8148768644073243,468.4702533503830182,-4.0582475034088183,6.2534747691277994,1.2102169381866654,43.5000000000000000
0.0000000000000000,5892.1388296585464559,3737.4402025644917558,468.5912723140564822,-4.0589342418346943,6.2530392157962336,1.2101623320399593,43.6000000000000014
0.0000000000000000,5891.7329018992604688,3738.0654847056161998,468.7122858164131571,-4.0596209328635684,6.2526035896447665,1.2101077117963439,43.7000000000000028
0.0000000000000000,5891.3269054732336372,3738.6907232804983323,468.8332938560433263,-4.0603075764874319,6.2521678906785061,1.2100530774564613,43.8000000000000043
0.0000000000000000,5890.9208403852053380,3739.3159182818576483,468.9542964315374434,-4.0609941726982779,6.2517321189025621,1.2099984290209533,43.9000000000000057
0.0000000000000000,5890.5147066399185860,3739.9410697024127330,469.0752935414859621,-4.0616807214880986,6.2512962743220415,1.2099437664904618,44.0000000000000000
0.0000000000000000,5890.1085042421145772,3740.5661775348835363,469.1962851844793931,-4.0623672228488878,6.2508603569420567,1.2098890898656294,44.1000000000000014
0.0000000000000000,5889.7022331965372359,3741.1912417719909172,469.3172713591083607,-4.0630536767726397,6.2504243667677173,1.2098343991470979,44.2000000000000028
0.0000000000000000,5889.2958935079304865,3741.8162624064548254,469.4382520639634890,-4.0637400832513473,6.2499883038041366,1.2097796943355106,44.3000000000000043
0.0000000000000000,5888.8894851810391629,3742.4412394309974843,469.5592272976355162,-4.0644264422770062,6.2495521680564261,1.2097249754315096,44.4000000000000057
0.0000000000000000,5888.4830082206099178,3743.0661728383397531,469.6801970587151800,-4.0651127538416132,6.2491159595296999,1.2096702424357380,44.5000000000000000
0.0000000000000000,5888.0764626313884946,3743.6910626212043098,469.8011613457933890,-4.0657990179371630,6.2486796782290730,1.2096154953488389,44.6000000000000014
0.0000000000000000,5887.6698484181224558,3744.3159087723142875,469.9221201574609950,-4.0664852345556532,6.2482433241596604,1.2095607341714556,44.7000000000000028
0.0000000000000000,5887.2631655855602730,3744.9407112843923642,470.0430734923090199,-4.0671714036890796,6.2478068973265772,1.2095059589042314,44.8000000000000043
0.0000000000000000,5886.8564141384504182,3745.5654701501625823,470.1640213489284861,-4.0678575253294422,6.2473703977349428,1.2094511695478098,44.9000000000000057
0.0000000000000000,5886.4495940815422728,3746.1901853623494389,470.2849637259104725,-4.0685435994687369,6.2469338253898732,1.2093963661028349,45.0000000000000000
0.0000000000000000,5886.0427054195870369,3746.8148569136778860,470.4059006218461150,-4.0692296260989647,6.2464971802964877,1.2093415485699499,45.1000000000000014
0.0000000000000000,5885.6357481573359109,3747.4394847968728754,470.5268320353266631,-4.0699156052121230,6.2460604624599059,1.2092867169497992,45.2000000000000028
0.0000000000000000,5885.2287222995410048,3748.0640690046602685,470.6477579649434233,-4.0706015368002140,6.2456236718852489,1.2092318712430272,45.3000000000000043
0.0000000000000000,5884.8216278509562471,3748.6886095297668362,470.7686784092876451,-4.0712874208552368,6.2451868085776372,1.2091770114502780,45.4000000000000057
0.0000000000000000,5884.4144648163337479,3749.3131063649184398,470.8895933669508622,-4.0719732573691925,6.2447498725421937,1.2091221375721963,45.5000000000000000
0.0000000000000000,5884.0072332004292548,3749.9375595028432144,471.0105028365244948,-4.0726590463340830,6.2443128637840415,1.2090672496094266,45.6000000000000014
0.0000000000000000,5883.5999330079976062,3750.5619689362692952,471.1314068166000766,-4.0733447877419104,6.2438757823083035,1.2090123475626142,45.7000000000000028
0.0000000000000000,5883.1925642437963688,3751.1863346579243625,471.2523053057691982,-4.0740304815846775,6.2434386281201055,1.2089574314324039,45.8000000000000043
0.0000000000000000,5882.7851269125803810,3751.8106566605370062,471.3731983026235639,-4.0747161278543880,6.2430014012245731,1.2089025012194408,45.9000000000000057
0.0000000000000000,5882.3776210191090286,3752.4349349368376352,471.4940858057548212,-4.0754017265430456,6.2425641016268321,1.2088475569243702,46.0000000000000000
0.0000000000000000,5881.9700465681398782,3753.0591694795552939,471.6149678137547880,-4.0760872776426549,6.2421267293320106,1.2087925985478380,46.1000000000000014
0.0000000000000000,5881.5624035644332253,3753.6833602814203914,471.7358443252153393,-4.0767727811452197,6.2416892843452354,1.2087376260904898,46.2000000000000028
0.0000000000000000,5881.1546920127484555,3754.3075073351642459,471.8567153387284066,-4.0774582370427463,6.2412517666716374,1.2086826395529713,46.3000000000000043
0.0000000000000000,5880.7469119178476831,3754.9316106335177210,471.9775808528859216,-4.0781436453272413,6.2408141763163458,1.2086276389359287,46.4000000000000057
0.0000000000000000,5880.3390632844930224,3755.5556701692125898,472.0984408662798728,-4.0788290059907109,6.2403765132844908,1.2085726242400081,46.5000000000000000
0.0000000000000000,5879.9311461174447686,3756.1796859349819897,472.2192953775024762,-4.0795143190251624,6.2399387775812052,1.2085175954658558,46.6000000000000014
0.0000000000000000,5879.5231604214686740,3756.8036579235581485,472.3401443851458339,-4.0801995844226022,6.2395009692116199,1.2084625526141186,46.7000000000000028
0.0000000000000000,5879.1151062013286719,3757.4275861276751129,472.4609878878022187,-4.0808848021750403,6.2390630881808695,1.2084074956854429,46.8000000000000043
0.0000000000000000,5878.7069834617886954,3758.0514705400660205,472.5818258840638464,-4.0815699722744849,6.2386251344940886,1.2083524246804760,46.9000000000000057
0.0000000000000000,5878.2987922076154064,3758.6753111534653726,472.7026583725231035,-4.0822550947129459,6.2381871081564109,1.2082973395998644,47.0000000000000000
0.0000000000000000,5877.8905324435754665,3759.2991079606085805,472.8234853517723764,-4.0829401694824323,6.2377490091729726,1.2082422404442557,47.1000000000000014
0.0000000000000000,5877.4822041744364469,3759.9228609542301456,472.9443068204042220,-4.0836251965749550,6.2373108375489110,1.2081871272142970,47.2000000000000028
0.0000000000000000,5877.0738074049659190,3760.5465701270672980,473.0651227770111404,-4.0843101759825249,6.2368725932893634,1.2081319999106359,47.3000000000000043
0.0000000000000000,5876.6653421399341823,3761.1702354718549941,473.1859332201856887,-4.0849951076971545,6.2364342763994678,1.2080768585339203,47.4000000000000057
0.0000000000000000,5876.2568083841097177,3761.7938569813313734,473.3067381485205942,-4.0856799917108546,6.2359958868843650,1.2080217030847977,47.5000000000000000
0.0000000000000000,5875.8482061422646439,3762.4174346482332112,473.4275375606085845,-4.0863648280156388,6.2355574247491941,1.2079665335639165,47.6000000000000014
0.0000000000000000,5875.4395354191692604,3763.0409684652986471,473.5483314550424438,-4.0870496166035197,6.2351188899990957,1.2079113499719247,47.7000000000000028
0.0000000000000000,5875.0307962195965956,3763.6644584252658206,473.6691198304150134,-4.0877343574665117,6.2346802826392125,1.2078561523094706,47.8000000000000043
0.0000000000000000,5874.6219885483196776,3764.2879045208737807,473.7899026853191913,-4.0884190505966291,6.2342416026746879,1.2078009405772028,47.9000000000000057
0.0000000000000000,5874.2131124101124442,3764.9113067448620313,473.9106800183479891,-4.0891036959858864,6.2338028501106635,1.2077457147757700,48.0000000000000000
0.0000000000000000,5873.8041678097497424,3765.5346650899705310,474.0314518280944753,-4.0897882936262997,6.2333640249522855,1.2076904749058210,48.1000000000000014
0.0000000000000000,5873.3951547520064196,3766.1579795489396929,474.1522181131517186,-4.0904728435098852,6.2329251272046990,1.2076352209680050,48.2000000000000028
0.0000000000000000,5872.9860732416591418,3766.7812501145103852,474.2729788721129012,-4.0911573456286581,6.2324861568730494,1.2075799529629709,48.3000000000000043
0.0000000000000000,5872.5769232834854847,3767.4044767794243853,474.3937341035712620,-4.0918417999746364,6.2320471139624845,1.2075246708913683,48.4000000000000057
0.0000000000000000,5872.1677048822621146,3768.0276595364234709,474.5144838061200971,-4.0925262065398380,6.2316079984781521,1.2074693747538465,48.5000000000000000
0.0000000000000000,5871.7584180427702449,3768.6507983782494193,474.6352279783527592,-4.0932105653162800,6.2311688104252010,1.2074140645510552,48.6000000000000014
0.0000000000000000,5871.3490627697865420,3769.2738932976462820,474.7559666188626579,-4.0938948762959830,6.2307295498087800,1.2073587402836445,48.7000000000000028
0.0000000000000000,5870.9396390680940385,3769.8969442873572007,474.8766997262432596,-4.0945791394709650,6.2302902166340406,1.2073034019522642,48.8000000000000043
0.0000000000000000,5870.5301469424712195,3770.5199513401257718,474.9974272990881445,-4.0952633548332464,6.2298508109061332,1.2072480495575646,48.9000000000000057
0.0000000000000000,5870.1205863977020272,3771.1429144486965015,475.1181493359909496,-4.0959475223748480,6.2294113326302103,1.2071926831001960,49.0000000000000000
0.0000000000000000,5869.7109574385694941,3771.7658336058143504,475.2388658355453117,-4.0966316420877895,6.2289717818114259,1.2071373025808088,49.1000000000000014
0.0000000000000000,5869.3012600698557435,3772.3887088042256437,475.3595767963449816,-4.0973157139640941,6.2285321584549322,1.2070819080000539,49.2000000000000028
0.0000000000000000,5868.8914942963456269,3773.0115400366753420,475.4802822169837100,-4.0979997379957824,6.2280924625658853,1.2070264993585818,49.3000000000000043
0.0000000000000000,5868.4816601228239961,3773.6343272959102251,475.6009820960554180,-4.0986837141748778,6.2276526941494410,1.2069710766570438,49.4000000000000057
0.0000000000000000,5868.0717575540784310,3774.2570705746775275,475.7216764321539699,-4.0993676424934042,6.2272128532107542,1.2069156398960910,49.5000000000000000
0.0000000000000000,5867.6617865948937833,3774.8797698657244837,475.8423652238734576,-4.1000515229433834,6.2267729397549836,1.2068601890763748,49.6000000000000014
0.0000000000000000,5867.2517472500594522,3775.5024251617992377,475.9630484698078021,-4.1007353555168420,6.2263329537872867,1.2068047241985467,49.7000000000000028
0.0000000000000000,5866.8416395243621082,3776.1250364556499335,476.0837261685512090,-4.1014191402058033,6.2258928953128221,1.2067492452632580,49.8000000000000043
0.0000000000000000,5866.4314634225920599,3776.7476037400265341,476.2043983186978267,-4.1021028770022934,6.2254527643367510,1.2066937522711612,49.9000000000000057
